Raw_Data/B1_270_S1.CSV

Model,DPO2002B
Firmware Version,1.52

Point Format,Y,
Horizontal Units,S,
Horizontal Scale,0.001,
Sample Interval,1.92012e-06,
Filter Frequency,7e+07,
Record Length,5207,
Gating,0.0% to 100.0%,
Probe Attenuation,10,
Vertical Units,V,
Vertical Offset,0.6,
Vertical Scale,0.5,
Label,,
TIME,CH1,CH1 Peak Detect
-1.180e-03,-0.59,-0.65
-1.178e-03,-0.57,-0.49
-1.176e-03,-0.49,-0.65
-1.174e-03,-0.55,-0.49
-1.172e-03,-0.51,-0.67
-1.170e-03,-0.57,-0.47
-1.168e-03,-0.61,-0.73
-1.167e-03,-0.65,-0.55
-1.165e-03,-0.69,-0.73
-1.163e-03,-0.63,-0.57
-1.161e-03,-0.67,-0.69
-1.159e-03,-0.61,-0.49
-1.157e-03,-0.59,-0.61
-1.155e-03,-0.47,-0.43
-1.153e-03,-0.59,-0.73
-1.151e-03,-0.63,-0.53
-1.149e-03,-0.69,-0.77
-1.147e-03,-0.63,-0.59
-1.145e-03,-0.75,-0.79
-1.144e-03,-0.67,-0.55
-1.142e-03,-0.61,-0.71
-1.140e-03,-0.65,-0.55
-1.138e-03,-0.59,-0.75
-1.136e-03,-0.69,-0.55
-1.134e-03,-0.65,-0.81
-1.132e-03,-0.77,-0.63
-1.130e-03,-0.67,-0.87
-1.128e-03,-0.69,-0.61
-1.126e-03,-0.79,-0.89
-1.124e-03,-0.87,-0.73
-1.122e-03,-0.79,-0.93
-1.120e-03,-0.87,-0.75
-1.119e-03,-0.83,-0.89
-1.117e-03,-0.75,-0.67
-1.115e-03,-0.79,-0.83
-1.113e-03,-0.73,-0.63
-1.111e-03,-0.69,-0.73
-1.109e-03,-0.61,-0.53
-1.107e-03,-0.65,-0.71
-1.105e-03,-0.61,-0.57
-1.103e-03,-0.69,-0.75
-1.101e-03,-0.65,-0.61
-1.099e-03,-0.71,-0.77
-1.097e-03,-0.69,-0.61
-1.096e-03,-0.71,-0.81
-1.094e-03,-0.71,-0.67
-1.092e-03,-0.75,-0.83
-1.090e-03,-0.73,-0.57
-1.088e-03,-0.59,-0.81
-1.086e-03,-0.71,-0.57
-1.084e-03,-0.75,-0.83
-1.082e-03,-0.75,-0.67
-1.080e-03,-0.77,-0.85
-1.078e-03,-0.83,-0.73
-1.076e-03,-0.73,-0.81
-1.074e-03,-0.75,-0.67
-1.072e-03,-0.69,-0.79
-1.071e-03,-0.71,-0.65
-1.069e-03,-0.71,-0.77
-1.067e-03,-0.63,-0.59
-1.065e-03,-0.67,-0.71
-1.063e-03,-0.63,-0.47
-1.061e-03,-0.53,-0.77
-1.059e-03,-0.59,-0.45
-1.057e-03,-0.75,-0.79
-1.055e-03,-0.69,-0.65
-1.053e-03,-0.79,-0.79
-1.051e-03,-0.57,-0.55
-1.049e-03,-0.69,-0.73
-1.048e-03,-0.63,-0.59
-1.046e-03,-0.67,-0.75
-1.044e-03,-0.69,-0.59
-1.042e-03,-0.67,-0.73
-1.040e-03,-0.63,-0.53
-1.038e-03,-0.57,-0.67
-1.036e-03,-0.55,-0.47
-1.034e-03,-0.59,-0.77
-1.032e-03,-0.71,-0.57
-1.030e-03,-0.67,-0.77
-1.028e-03,-0.71,-0.63
-1.026e-03,-0.65,-0.73
-1.024e-03,-0.63,-0.59
-1.023e-03,-0.65,-0.79
-1.021e-03,-0.71,-0.63
-1.019e-03,-0.73,-0.77
-1.017e-03,-0.65,-0.61
-1.015e-03,-0.69,-0.73
-1.013e-03,-0.61,-0.51
-1.011e-03,-0.61,-0.73
-1.009e-03,-0.63,-0.53
-1.007e-03,-0.67,-0.69
-1.005e-03,-0.59,-0.53
-1.003e-03,-0.61,-0.65
-1.001e-03,-0.55,-0.51
-9.995e-04,-0.59,-0.67
-9.976e-04,-0.59,-0.55
-9.957e-04,-0.61,-0.73
-9.937e-04,-0.65,-0.55
-9.918e-04,-0.67,-0.75
-9.899e-04,-0.69,-0.59
-9.880e-04,-0.65,-0.77
-9.861e-04,-0.75,-0.61
-9.841e-04,-0.65,-0.73
-9.822e-04,-0.69,-0.53
-9.803e-04,-0.55,-0.67
-9.784e-04,-0.63,-0.51
-9.765e-04,-0.55,-0.77
-9.745e-04,-0.65,-0.51
-9.726e-04,-0.71,-0.79
-9.707e-04,-0.75,-0.67
-9.688e-04,-0.75,-0.81
-9.669e-04,-0.73,-0.65
-9.649e-04,-0.71,-0.73
-9.630e-04,-0.63,-0.61
-9.611e-04,-0.71,-0.73
-9.592e-04,-0.57,-0.51
-9.573e-04,-0.65,-0.71
-9.553e-04,-0.61,-0.57
-9.534e-04,-0.69,-0.75
-9.515e-04,-0.67,-0.61
-9.496e-04,-0.69,-0.73
-9.477e-04,-0.67,-0.59
-9.457e-04,-0.67,-0.77
-9.438e-04,-0.71,-0.61
-9.419e-04,-0.63,-0.77
-9.400e-04,-0.65,-0.59
-9.381e-04,-0.71,-0.85
-9.361e-04,-0.79,-0.67
-9.342e-04,-0.77,-0.89
-9.323e-04,-0.87,-0.73
-9.304e-04,-0.73,-0.83
-9.285e-04,-0.73,-0.67
-9.265e-04,-0.71,-0.81
-9.246e-04,-0.73,-0.65
-9.227e-04,-0.75,-0.83
-9.208e-04,-0.71,-0.61
-9.189e-04,-0.67,-0.71
-9.169e-04,-0.63,-0.57
-9.150e-04,-0.69,-0.73
-9.131e-04,-0.59,-0.57
-9.112e-04,-0.67,-0.73
-9.093e-04,-0.61,-0.59
-9.073e-04,-0.69,-0.75
-9.054e-04,-0.61,-0.61
-9.035e-04,-0.73,-0.83
-9.016e-04,-0.73,-0.65
-8.997e-04,-0.73,-0.79
-8.977e-04,-0.71,-0.63
-8.958e-04,-0.73,-0.81
-8.939e-04,-0.77,-0.59
-8.920e-04,-0.61,-0.69
-8.901e-04,-0.67,-0.57
-8.881e-04,-0.59,-0.73
-8.862e-04,-0.67,-0.57
-8.843e-04,-0.65,-0.75
-8.824e-04,-0.69,-0.61
-8.805e-04,-0.67,-0.73
-8.785e-04,-0.65,-0.55
-8.766e-04,-0.63,-0.69
-8.747e-04,-0.63,-0.53
-8.728e-04,-0.63,-0.69
-8.709e-04,-0.63,-0.53
-8.689e-04,-0.61,-0.73
-8.670e-04,-0.65,-0.53
-8.651e-04,-0.61,-0.73
-8.632e-04,-0.65,-0.55
-8.613e-04,-0.73,-0.79
-8.593e-04,-0.71,-0.63
-8.574e-04,-0.73,-0.75
-8.555e-04,-0.65,-0.61
-8.536e-04,-0.73,-0.81
-8.517e-04,-0.71,-0.67
-8.497e-04,-0.77,-0.87
-8.478e-04,-0.81,-0.71
-8.459e-04,-0.81,-0.87
-8.440e-04,-0.75,-0.65
-8.421e-04,-0.71,-0.83
-8.401e-04,-0.75,-0.65
-8.382e-04,-0.65,-0.77
-8.363e-04,-0.71,-0.61
-8.344e-04,-0.67,-0.75
-8.325e-04,-0.69,-0.59
-8.305e-04,-0.63,-0.73
-8.286e-04,-0.67,-0.59
-8.267e-04,-0.63,-0.73
-8.248e-04,-0.65,-0.57
-8.229e-04,-0.63,-0.67
-8.209e-04,-0.59,-0.55
-8.190e-04,-0.67,-0.77
-8.171e-04,-0.67,-0.61
-8.152e-04,-0.71,-0.73
-8.133e-04,-0.57,-0.49
-8.113e-04,-0.57,-0.61
-8.094e-04,-0.49,-0.45
-8.075e-04,-0.57,-0.63
-8.056e-04,-0.53,-0.47
-8.037e-04,-0.57,-0.71
-8.017e-04,-0.57,-0.47
-7.998e-04,-0.65,-0.75
-7.979e-04,-0.69,-0.59
-7.960e-04,-0.69,-0.75
-7.941e-04,-0.65,-0.57
-7.921e-04,-0.67,-0.73
-7.902e-04,-0.69,-0.59
-7.883e-04,-0.61,-0.69
-7.864e-04,-0.65,-0.53
-7.845e-04,-0.55,-0.77
-7.825e-04,-0.69,-0.51
-7.806e-04,-0.71,-0.85
-7.787e-04,-0.81,-0.69
-7.768e-04,-0.77,-0.89
-7.749e-04,-0.81,-0.67
-7.729e-04,-0.73,-0.77
-7.710e-04,-0.69,-0.63
-7.691e-04,-0.71,-0.75
-7.672e-04,-0.67,-0.61
-7.653e-04,-0.69,-0.83
-7.633e-04,-0.73,-0.65
-7.614e-04,-0.81,-0.83
-7.595e-04,-0.69,-0.63
-7.576e-04,-0.69,-0.71
-7.557e-04,-0.57,-0.55
-7.537e-04,-0.65,-0.75
-7.518e-04,-0.55,-0.53
-7.499e-04,-0.69,-0.81
-7.480e-04,-0.75,-0.67
-7.461e-04,-0.75,-0.81
-7.441e-04,-0.75,-0.67
-7.422e-04,-0.69,-0.73
-7.403e-04,-0.69,-0.59
-7.384e-04,-0.63,-0.73
-7.365e-04,-0.65,-0.57
-7.345e-04,-0.61,-0.73
-7.326e-04,-0.65,-0.55
-7.307e-04,-0.65,-0.79
-7.288e-04,-0.73,-0.65
-7.269e-04,-0.69,-0.83
-7.249e-04,-0.73,-0.63
-7.230e-04,-0.79,-0.83
-7.211e-04,-0.73,-0.65
-7.192e-04,-0.75,-0.91
-7.173e-04,-0.81,-0.69
-7.153e-04,-0.85,-0.89
-7.134e-04,-0.69,-0.65
-7.115e-04,-0.73,-0.77
-7.096e-04,-0.67,-0.55
-7.076e-04,-0.67,-0.73
-7.057e-04,-0.57,-0.53
-7.038e-04,-0.69,-0.75
-7.019e-04,-0.71,-0.59
-7.000e-04,-0.69,-0.83
-6.980e-04,-0.69,-0.61
-6.961e-04,-0.75,-0.83
-6.942e-04,-0.79,-0.71
-6.923e-04,-0.73,-0.81
-6.904e-04,-0.71,-0.61
-6.884e-04,-0.65,-0.75
-6.865e-04,-0.69,-0.55
-6.846e-04,-0.61,-0.73
-6.827e-04,-0.65,-0.57
-6.808e-04,-0.69,-0.81
-6.788e-04,-0.71,-0.63
-6.769e-04,-0.69,-0.75
-6.750e-04,-0.65,-0.57
-6.731e-04,-0.61,-0.75
-6.712e-04,-0.63,-0.57
-6.692e-04,-0.71,-0.77
-6.673e-04,-0.65,-0.61
-6.654e-04,-0.71,-0.79
-6.635e-04,-0.71,-0.63
-6.616e-04,-0.69,-0.77
-6.596e-04,-0.65,-0.57
-6.577e-04,-0.69,-0.77
-6.558e-04,-0.67,-0.61
-6.539e-04,-0.71,-0.79
-6.520e-04,-0.69,-0.65
-6.500e-04,-0.73,-0.83
-6.481e-04,-0.75,-0.69
-6.462e-04,-0.73,-0.83
-6.443e-04,-0.77,-0.67
-6.424e-04,-0.73,-0.81
-6.404e-04,-0.73,-0.65
-6.385e-04,-0.69,-0.83
-6.366e-04,-0.79,-0.65
-6.347e-04,-0.65,-0.81
-6.328e-04,-0.79,-0.59
-6.308e-04,-0.63,-0.77
-6.289e-04,-0.67,-0.59
-6.270e-04,-0.71,-0.83
-6.251e-04,-0.75,-0.67
-6.232e-04,-0.75,-0.81
-6.212e-04,-0.71,-0.63
-6.193e-04,-0.69,-0.73
-6.174e-04,-0.61,-0.57
-6.155e-04,-0.65,-0.71
-6.136e-04,-0.59,-0.57
-6.116e-04,-0.71,-0.77
-6.097e-04,-0.65,-0.61
-6.078e-04,-0.73,-0.79
-6.059e-04,-0.71,-0.65
-6.040e-04,-0.73,-0.87
-6.020e-04,-0.73,-0.65
-6.001e-04,-0.81,-0.87
-5.982e-04,-0.81,-0.73
-5.963e-04,-0.75,-0.81
-5.944e-04,-0.75,-0.61
-5.924e-04,-0.59,-0.79
-5.905e-04,-0.75,-0.57
-5.886e-04,-0.65,-0.75
-5.867e-04,-0.69,-0.61
-5.848e-04,-0.67,-0.75
-5.828e-04,-0.69,-0.61
-5.809e-04,-0.69,-0.83
-5.790e-04,-0.77,-0.65
-5.771e-04,-0.81,-0.89
-5.752e-04,-0.77,-0.71
-5.732e-04,-0.79,-0.89
-5.713e-04,-0.79,-0.75
-5.694e-04,-0.83,-0.85
-5.675e-04,-0.71,-0.61
-5.656e-04,-0.67,-0.73
-5.636e-04,-0.61,-0.57
-5.617e-04,-0.69,-0.73
-5.598e-04,-0.63,-0.61
-5.579e-04,-0.67,-0.73
-5.560e-04,-0.63,-0.59
-5.540e-04,-0.63,-0.75
-5.521e-04,-0.67,-0.57
-5.502e-04,-0.65,-0.81
-5.483e-04,-0.75,-0.63
-5.464e-04,-0.67,-0.75
-5.444e-04,-0.69,-0.57
-5.425e-04,-0.59,-0.79
-5.406e-04,-0.65,-0.55
-5.387e-04,-0.69,-0.81
-5.368e-04,-0.79,-0.67
-5.348e-04,-0.69,-0.75
-5.329e-04,-0.67,-0.53
-5.310e-04,-0.59,-0.71
-5.291e-04,-0.67,-0.53
-5.272e-04,-0.67,-0.77
-5.252e-04,-0.65,-0.61
-5.233e-04,-0.71,-0.77
-5.214e-04,-0.67,-0.63
-5.195e-04,-0.75,-0.83
-5.176e-04,-0.71,-0.61
-5.156e-04,-0.67,-0.69
-5.137e-04,-0.55,-0.51
-5.118e-04,-0.61,-0.67
-5.099e-04,-0.57,-0.51
-5.080e-04,-0.65,-0.79
-5.060e-04,-0.65,-0.57
-5.041e-04,-0.73,-0.81
-5.022e-04,-0.71,-0.65
-5.003e-04,-0.75,-0.87
-4.984e-04,-0.73,-0.67
-4.964e-04,-0.79,-0.89
-4.945e-04,-0.85,-0.69
-4.926e-04,-0.67,-0.77
-4.907e-04,-0.73,-0.61
-4.888e-04,-0.61,-0.75
-4.868e-04,-0.67,-0.59
-4.849e-04,-0.69,-0.77
-4.830e-04,-0.69,-0.63
-4.811e-04,-0.71,-0.81
-4.792e-04,-0.69,-0.63
-4.772e-04,-0.75,-0.83
-4.753e-04,-0.75,-0.61
-4.734e-04,-0.69,-0.73
-4.715e-04,-0.61,-0.59
-4.696e-04,-0.71,-0.75
-4.676e-04,-0.67,-0.61
-4.657e-04,-0.67,-0.73
-4.638e-04,-0.59,-0.55
-4.619e-04,-0.69,-0.73
-4.600e-04,-0.63,-0.59
-4.580e-04,-0.69,-0.73
-4.561e-04,-0.63,-0.59
-4.542e-04,-0.65,-0.73
-4.523e-04,-0.63,-0.57
-4.504e-04,-0.67,-0.79
-4.484e-04,-0.75,-0.63
-4.465e-04,-0.69,-0.81
-4.446e-04,-0.75,-0.67
-4.427e-04,-0.67,-0.79
-4.408e-04,-0.67,-0.57
-4.388e-04,-0.63,-0.69
-4.369e-04,-0.67,-0.57
-4.350e-04,-0.61,-0.77
-4.331e-04,-0.71,-0.57
-4.312e-04,-0.71,-0.77
-4.292e-04,-0.67,-0.59
-4.273e-04,-0.69,-0.81
-4.254e-04,-0.71,-0.63
-4.235e-04,-0.73,-0.85
-4.216e-04,-0.69,-0.63
-4.196e-04,-0.81,-0.89
-4.177e-04,-0.79,-0.73
-4.158e-04,-0.85,-0.85
-4.139e-04,-0.67,-0.67
-4.120e-04,-0.75,-0.79
-4.100e-04,-0.65,-0.61
-4.081e-04,-0.67,-0.77
-4.062e-04,-0.71,-0.61
-4.043e-04,-0.69,-0.79
-4.024e-04,-0.67,-0.59
-4.004e-04,-0.65,-0.79
-3.985e-04,-0.75,-0.63
-3.966e-04,-0.67,-0.79
-3.947e-04,-0.75,-0.61
-3.927e-04,-0.65,-0.75
-3.908e-04,-0.69,-0.59
-3.889e-04,-0.61,-0.81
-3.870e-04,-0.71,-0.61
-3.851e-04,-0.71,-0.79
-3.831e-04,-0.69,-0.63
-3.812e-04,-0.75,-0.81
-3.793e-04,-0.69,-0.63
-3.774e-04,-0.71,-0.81
-3.755e-04,-0.69,-0.65
-3.735e-04,-0.75,-0.75
-3.716e-04,-0.63,-0.57
-3.697e-04,-0.65,-0.69
-3.678e-04,-0.59,-0.55
-3.659e-04,-0.69,-0.79
-3.639e-04,-0.71,-0.63
-3.620e-04,-0.75,-0.79
-3.601e-04,-0.69,-0.63
-3.582e-04,-0.69,-0.73
-3.563e-04,-0.67,-0.59
-3.543e-04,-0.67,-0.73
-3.524e-04,-0.61,-0.53
-3.505e-04,-0.63,-0.75
-3.486e-04,-0.71,-0.61
-3.467e-04,-0.61,-0.69
-3.447e-04,-0.63,-0.55
-3.428e-04,-0.61,-0.71
-3.409e-04,-0.69,-0.53
-3.390e-04,-0.57,-0.73
-3.371e-04,-0.67,-0.53
-3.351e-04,-0.67,-0.81
-3.332e-04,-0.79,-0.63
-3.313e-04,-0.73,-0.79
-3.294e-04,-0.63,-0.45
-3.275e-04,-0.51,-0.65
-3.255e-04,-0.51,-0.45
-3.236e-04,-0.63,-0.69
-3.217e-04,-0.57,-0.55
-3.198e-04,-0.67,-0.69
-3.179e-04,-0.59,-0.51
-3.159e-04,-0.57,-0.67
-3.140e-04,-0.55,-0.51
-3.121e-04,-0.65,-0.77
-3.102e-04,-0.69,-0.59
-3.083e-04,-0.65,-0.73
-3.063e-04,-0.63,-0.57
-3.044e-04,-0.63,-0.73
-3.025e-04,-0.65,-0.57
-3.006e-04,-0.65,-0.75
-2.987e-04,-0.67,-0.55
-2.967e-04,-0.59,-0.79
-2.948e-04,-0.73,-0.57
-2.929e-04,-0.69,-0.81
-2.910e-04,-0.71,-0.63
-2.891e-04,-0.65,-0.73
-2.871e-04,-0.65,-0.57
-2.852e-04,-0.67,-0.79
-2.833e-04,-0.71,-0.63
-2.814e-04,-0.71,-0.81
-2.795e-04,-0.73,-0.63
-2.775e-04,-0.75,-0.79
-2.756e-04,-0.63,-0.57
-2.737e-04,-0.71,-0.75
-2.718e-04,-0.65,-0.57
-2.699e-04,-0.67,-0.71
-2.679e-04,-0.59,-0.57
-2.660e-04,-0.69,-0.75
-2.641e-04,-0.65,-0.57
-2.622e-04,-0.73,-0.79
-2.603e-04,-0.69,-0.63
-2.583e-04,-0.75,-0.79
-2.564e-04,-0.69,-0.61
-2.545e-04,-0.63,-0.67
-2.526e-04,-0.59,-0.51
-2.507e-04,-0.57,-0.81
-2.487e-04,-0.65,-0.53
-2.468e-04,-0.73,-0.91
-2.449e-04,-0.89,-0.71
-2.430e-04,-0.77,-0.85
-2.411e-04,-0.73,-0.65
-2.391e-04,-0.67,-0.75
-2.372e-04,-0.67,-0.61
-2.353e-04,-0.67,-0.79
-2.334e-04,-0.71,-0.65
-2.315e-04,-0.75,-0.83
-2.295e-04,-0.69,-0.61
-2.276e-04,-0.79,-0.89
-2.257e-04,-0.79,-0.67
-2.238e-04,-0.75,-0.77
-2.219e-04,-0.61,-0.55
-2.199e-04,-0.65,-0.69
-2.180e-04,-0.55,-0.53
-2.161e-04,-0.65,-0.77
-2.142e-04,-0.59,-0.59
-2.123e-04,-0.71,-0.83
-2.103e-04,-0.75,-0.67
-2.084e-04,-0.77,-0.81
-2.065e-04,-0.71,-0.59
-2.046e-04,-0.61,-0.73
-2.027e-04,-0.69,-0.57
-2.007e-04,-0.57,-0.71
-1.988e-04,-0.69,-0.55
-1.969e-04,-0.63,-0.71
-1.950e-04,-0.61,-0.53
-1.931e-04,-0.57,-0.71
-1.911e-04,-0.69,-0.45
-1.892e-04,-0.47,-0.75
-1.873e-04,-0.65,-0.45
-1.854e-04,-0.69,-0.75
-1.835e-04,-0.67,-0.59
-1.815e-04,-0.69,-0.73
-1.796e-04,-0.59,-0.57
-1.777e-04,-0.65,-0.69
-1.758e-04,-0.61,-0.47
-1.739e-04,-0.55,-0.61
-1.719e-04,-0.47,-0.43
-1.700e-04,-0.61,-0.71
-1.681e-04,-0.59,-0.51
-1.662e-04,-0.69,-0.73
-1.643e-04,-0.63,-0.59
-1.623e-04,-0.67,-0.83
-1.604e-04,-0.77,-0.59
-1.585e-04,-0.75,-0.81
-1.566e-04,-0.75,-0.65
-1.547e-04,-0.71,-0.81
-1.527e-04,-0.73,-0.65
-1.508e-04,-0.71,-0.83
-1.489e-04,-0.77,-0.65
-1.470e-04,-0.65,-0.73
-1.451e-04,-0.69,-0.55
-1.431e-04,-0.61,-0.75
-1.412e-04,-0.69,-0.57
-1.393e-04,-0.61,-0.75
-1.374e-04,-0.69,-0.61
-1.355e-04,-0.69,-0.77
-1.335e-04,-0.63,-0.59
-1.316e-04,-0.69,-0.81
-1.297e-04,-0.69,-0.65
-1.278e-04,-0.77,-0.83
-1.259e-04,-0.75,-0.67
-1.239e-04,-0.73,-0.79
-1.220e-04,-0.69,-0.63
-1.201e-04,-0.69,-0.77
-1.182e-04,-0.67,-0.57
-1.163e-04,-0.71,-0.79
-1.143e-04,-0.71,-0.63
-1.124e-04,-0.69,-0.75
-1.105e-04,-0.65,-0.59
-1.086e-04,-0.67,-0.75
-1.067e-04,-0.67,-0.57
-1.047e-04,-0.59,-0.71
-1.028e-04,-0.65,-0.55
-1.009e-04,-0.55,-0.69
-9.897e-05,-0.55,-0.49
-9.705e-05,-0.59,-0.79
-9.513e-05,-0.73,-0.57
-9.321e-05,-0.73,-0.85
-9.129e-05,-0.83,-0.67
-8.937e-05,-0.69,-0.79
-8.745e-05,-0.71,-0.63
-8.553e-05,-0.73,-0.79
-8.361e-05,-0.69,-0.61
-8.169e-05,-0.75,-0.83
-7.977e-05,-0.75,-0.69
-7.785e-05,-0.77,-0.85
-7.593e-05,-0.75,-0.71
-7.401e-05,-0.83,-0.83
-7.209e-05,-0.73,-0.69
-7.017e-05,-0.77,-0.83
-6.825e-05,-0.71,-0.61
-6.633e-05,-0.69,-0.81
-6.441e-05,-0.71,-0.61
-6.249e-05,-0.77,-0.79
-6.057e-05,-0.67,-0.59
-5.865e-05,-0.65,-0.81
-5.673e-05,-0.69,-0.61
-5.481e-05,-0.73,-0.85
-5.289e-05,-0.81,-0.71
-5.097e-05,-0.71,-0.79
-4.905e-05,-0.71,-0.59
-4.713e-05,-0.61,-0.75
-4.521e-05,-0.71,-0.59
-4.329e-05,-0.65,-0.75
-4.137e-05,-0.67,-0.59
-3.945e-05,-0.63,-0.77
-3.753e-05,-0.65,-0.55
-3.561e-05,-0.75,-0.85
-3.369e-05,-0.77,-0.69
-3.177e-05,-0.83,-0.87
-2.985e-05,-0.75,-0.71
-2.793e-05,-0.81,-0.81
-2.601e-05,-0.69,-0.67
-2.409e-05,-0.75,-0.81
-2.217e-05,-0.73,-0.69
-2.025e-05,-0.73,-0.77
-1.833e-05,-0.67,-0.61
-1.641e-05,-0.73,-0.77
-1.449e-05,-0.69,-0.55
-1.257e-05,-0.63,-0.69
-1.065e-05,-0.61,-0.55
-8.725e-06,-0.61,-0.67
-6.805e-06,-0.63,-0.53
-4.885e-06,-0.55,-0.61
-2.965e-06,-0.57,-0.47
-1.045e-06,-0.45,-0.65
8.756e-07,-0.57,-0.43
2.796e-06,-0.55,-0.83
4.716e-06,-0.65,-0.51
6.636e-06,-0.87,-3.65
8.556e-06,-1.23,-0.81
1.048e-05,-3.65,-3.65
1.240e-05,-3.65,-3.65
1.432e-05,-3.65,-3.65
1.624e-05,-3.65,-3.65
1.816e-05,-3.65,-3.65
2.008e-05,-3.65,-3.65
2.200e-05,-3.65,-3.65
2.392e-05,-3.65,-3.65
2.584e-05,-3.65,-3.65
2.776e-05,-3.65,-3.65
2.968e-05,-3.65,-3.65
3.160e-05,-3.65,-3.65
3.352e-05,-3.65,-3.65
3.544e-05,-3.65,-3.65
3.736e-05,-3.65,-3.65
3.928e-05,-3.65,-3.65
4.120e-05,-3.65,-3.65
4.312e-05,-3.65,-3.65
4.504e-05,-3.65,-3.65
4.696e-05,-3.65,-3.65
4.888e-05,-3.65,-3.65
5.080e-05,-3.65,-3.65
5.272e-05,-3.65,-3.65
5.464e-05,-3.65,-3.65
5.656e-05,-3.65,-3.65
5.848e-05,-3.65,-3.65
6.040e-05,-3.65,-3.65
6.232e-05,-3.65,-3.59
6.424e-05,-3.59,-3.61
6.616e-05,-2.79,-2.25
6.808e-05,-2.29,-2.31
7.000e-05,-1.95,-1.79
7.192e-05,-1.89,-1.99
7.384e-05,-1.87,-1.75
7.576e-05,-1.81,-1.89
7.768e-05,-1.79,-1.75
7.960e-05,-1.83,-1.87
8.152e-05,-1.73,-1.69
8.344e-05,-1.85,-1.93
8.536e-05,-1.85,-1.75
8.728e-05,-1.81,-1.85
8.920e-05,-1.75,-1.65
9.112e-05,-1.71,-1.87
9.304e-05,-1.81,-1.67
9.496e-05,-1.75,-1.83
9.688e-05,-1.73,-1.65
9.880e-05,-1.73,-1.91
1.007e-04,-1.77,-1.69
1.026e-04,-1.83,-1.97
1.046e-04,-1.87,-1.79
1.065e-04,-1.89,-1.97
1.084e-04,-1.87,-1.79
1.103e-04,-1.83,-1.89
1.122e-04,-1.81,-1.73
1.142e-04,-1.79,-1.83
1.161e-04,-1.75,-1.65
1.180e-04,-1.69,-1.79
1.199e-04,-1.65,-1.63
1.218e-04,-1.77,-1.91
1.238e-04,-1.71,-1.67
1.257e-04,-1.89,-1.93
1.276e-04,-1.81,-1.79
1.295e-04,-1.85,-1.91
1.314e-04,-1.77,-1.73
1.334e-04,-1.79,-1.85
1.353e-04,-1.73,-1.67
1.372e-04,-1.73,-1.89
1.391e-04,-1.85,-1.69
1.410e-04,-1.79,-1.89
1.430e-04,-1.85,-1.75
1.449e-04,-1.79,-1.95
1.468e-04,-1.91,-1.77
1.487e-04,-1.79,-1.87
1.506e-04,-1.83,-1.73
1.526e-04,-1.79,-1.87
1.545e-04,-1.83,-1.71
1.564e-04,-1.75,-1.91
1.583e-04,-1.83,-1.69
1.602e-04,-1.83,-1.89
1.622e-04,-1.81,-1.75
1.641e-04,-1.81,-1.87
1.660e-04,-1.69,-1.67
1.679e-04,-1.85,-1.87
1.698e-04,-1.73,-1.71
1.718e-04,-1.85,-1.89
1.737e-04,-1.73,-1.71
1.756e-04,-1.79,-1.87
1.775e-04,-1.81,-1.71
1.794e-04,-1.85,-1.87
1.814e-04,-1.75,-1.73
1.833e-04,-1.81,-1.83
1.852e-04,-1.73,-1.65
1.871e-04,-1.73,-1.81
1.890e-04,-1.75,-1.67
1.910e-04,-1.69,-1.79
1.929e-04,-1.73,-1.63
1.948e-04,-1.71,-1.89
1.967e-04,-1.85,-1.69
1.986e-04,-1.79,-2.03
2.006e-04,-1.93,-1.79
2.025e-04,-1.93,-2.05
2.044e-04,-1.97,-1.89
2.063e-04,-1.95,-2.05
2.082e-04,-1.95,-1.79
2.102e-04,-1.85,-1.89
2.121e-04,-1.81,-1.75
2.140e-04,-1.81,-1.89
2.159e-04,-1.79,-1.71
2.178e-04,-1.81,-1.91
2.198e-04,-1.81,-1.73
2.217e-04,-1.89,-2.01
2.236e-04,-1.91,-1.81
2.255e-04,-1.97,-2.01
2.275e-04,-1.85,-1.85
2.294e-04,-1.91,-1.97
2.313e-04,-1.87,-1.81
2.332e-04,-1.87,-1.91
2.351e-04,-1.83,-1.75
2.371e-04,-1.83,-1.95
2.390e-04,-1.91,-1.77
2.409e-04,-1.85,-1.93
2.428e-04,-1.91,-1.75
2.447e-04,-1.73,-1.91
2.467e-04,-1.75,-1.67
2.486e-04,-1.81,-1.91
2.505e-04,-1.85,-1.73
2.524e-04,-1.75,-1.87
2.543e-04,-1.81,-1.67
2.563e-04,-1.71,-1.81
2.582e-04,-1.77,-1.67
2.601e-04,-1.71,-1.85
2.620e-04,-1.75,-1.67
2.639e-04,-1.77,-1.95
2.659e-04,-1.81,-1.71
2.678e-04,-1.93,-2.01
2.697e-04,-1.87,-1.75
2.716e-04,-1.81,-1.83
2.735e-04,-1.63,-1.63
2.755e-04,-1.77,-1.81
2.774e-04,-1.69,-1.67
2.793e-04,-1.77,-1.81
2.812e-04,-1.71,-1.65
2.831e-04,-1.71,-1.89
2.851e-04,-1.71,-1.65
2.870e-04,-1.81,-1.89
2.889e-04,-1.81,-1.73
2.908e-04,-1.77,-1.95
2.927e-04,-1.83,-1.73
2.947e-04,-1.85,-1.93
2.966e-04,-1.85,-1.71
2.985e-04,-1.75,-1.87
3.004e-04,-1.79,-1.71
3.023e-04,-1.77,-1.91
3.043e-04,-1.83,-1.75
3.062e-04,-1.81,-1.87
3.081e-04,-1.75,-1.67
3.100e-04,-1.77,-1.83
3.119e-04,-1.75,-1.69
3.139e-04,-1.77,-1.89
3.158e-04,-1.81,-1.71
3.177e-04,-1.83,-1.83
3.196e-04,-1.65,-1.61
3.215e-04,-1.75,-1.87
3.235e-04,-1.67,-1.63
3.254e-04,-1.83,-1.95
3.273e-04,-1.87,-1.73
3.292e-04,-1.81,-1.85
3.311e-04,-1.71,-1.67
3.331e-04,-1.75,-1.81
3.350e-04,-1.75,-1.65
3.369e-04,-1.73,-1.85
3.388e-04,-1.81,-1.69
3.407e-04,-1.75,-1.85
3.427e-04,-1.77,-1.65
3.446e-04,-1.65,-1.87
3.465e-04,-1.79,-1.63
3.484e-04,-1.79,-1.87
3.503e-04,-1.83,-1.73
3.523e-04,-1.79,-1.87
3.542e-04,-1.85,-1.71
3.561e-04,-1.77,-1.87
3.580e-04,-1.81,-1.73
3.599e-04,-1.83,-1.89
3.619e-04,-1.81,-1.75
3.638e-04,-1.85,-1.91
3.657e-04,-1.75,-1.69
3.676e-04,-1.79,-1.89
3.695e-04,-1.73,-1.71
3.715e-04,-1.87,-1.89
3.734e-04,-1.73,-1.71
3.753e-04,-1.81,-1.83
3.772e-04,-1.71,-1.65
3.791e-04,-1.71,-1.83
3.811e-04,-1.75,-1.67
3.830e-04,-1.73,-1.89
3.849e-04,-1.73,-1.67
3.868e-04,-1.81,-1.89
3.887e-04,-1.77,-1.69
3.907e-04,-1.71,-1.81
3.926e-04,-1.77,-1.59
3.945e-04,-1.61,-1.75
3.964e-04,-1.71,-1.59
3.983e-04,-1.65,-1.85
4.003e-04,-1.79,-1.65
4.022e-04,-1.77,-1.89
4.041e-04,-1.79,-1.73
4.060e-04,-1.79,-1.89
4.079e-04,-1.83,-1.75
4.099e-04,-1.83,-1.97
4.118e-04,-1.85,-1.77
4.137e-04,-1.89,-1.91
4.156e-04,-1.71,-1.65
4.175e-04,-1.75,-1.81
4.195e-04,-1.73,-1.67
4.214e-04,-1.73,-1.89
4.233e-04,-1.79,-1.67
4.252e-04,-1.83,-1.93
4.271e-04,-1.85,-1.73
4.291e-04,-1.79,-1.83
4.310e-04,-1.73,-1.65
4.329e-04,-1.69,-1.77
4.348e-04,-1.69,-1.61
4.367e-04,-1.71,-1.93
4.387e-04,-1.79,-1.65
4.406e-04,-1.85,-1.95
4.425e-04,-1.83,-1.69
4.444e-04,-1.71,-1.81
4.463e-04,-1.77,-1.65
4.483e-04,-1.71,-1.77
4.502e-04,-1.73,-1.61
4.521e-04,-1.67,-1.79
4.540e-04,-1.73,-1.63
4.559e-04,-1.67,-1.73
4.579e-04,-1.61,-1.53
4.598e-04,-1.61,-1.77
4.617e-04,-1.69,-1.57
4.636e-04,-1.73,-1.87
4.655e-04,-1.75,-1.69
4.675e-04,-1.87,-1.89
4.694e-04,-1.71,-1.65
4.713e-04,-1.73,-1.75
4.732e-04,-1.65,-1.61
4.751e-04,-1.71,-1.81
4.771e-04,-1.75,-1.61
4.790e-04,-1.65,-1.75
4.809e-04,-1.69,-1.61
4.828e-04,-1.69,-1.73
