Raw_Data/B2_Ethanol_90.CSV

Model,DPO2002B
Firmware Version,1.52

Point Format,Y,
Horizontal Units,S,
Horizontal Scale,0.001,
Sample Interval,1.92012e-06,
Filter Frequency,7e+07,
Record Length,5207,
Gating,0.0% to 100.0%,
Probe Attenuation,10,
Vertical Units,V,
Vertical Offset,0.6,
Vertical Scale,0.5,
Label,,
TIME,CH1,CH1 Peak Detect
-1.180e-03,-0.93,-1.03
-1.178e-03,-0.95,-0.85
-1.176e-03,-0.93,-0.97
-1.174e-03,-0.89,-0.73
-1.172e-03,-0.73,-0.79
-1.170e-03,-0.67,-0.61
-1.168e-03,-0.65,-0.79
-1.167e-03,-0.69,-0.61
-1.165e-03,-0.71,-0.83
-1.163e-03,-0.79,-0.65
-1.161e-03,-0.65,-0.83
-1.159e-03,-0.71,-0.61
-1.157e-03,-0.75,-0.89
-1.155e-03,-0.81,-0.73
-1.153e-03,-0.79,-0.93
-1.151e-03,-0.83,-0.77
-1.149e-03,-0.91,-1.01
-1.147e-03,-0.97,-0.85
-1.145e-03,-0.93,-0.99
-1.144e-03,-0.91,-0.83
-1.142e-03,-0.89,-0.93
-1.140e-03,-0.83,-0.77
-1.138e-03,-0.87,-0.87
-1.136e-03,-0.73,-0.69
-1.134e-03,-0.73,-0.79
-1.132e-03,-0.65,-0.63
-1.130e-03,-0.73,-0.83
-1.128e-03,-0.73,-0.69
-1.126e-03,-0.77,-0.87
-1.124e-03,-0.81,-0.71
-1.122e-03,-0.79,-0.85
-1.120e-03,-0.77,-0.69
-1.119e-03,-0.77,-0.89
-1.117e-03,-0.87,-0.75
-1.115e-03,-0.81,-0.89
-1.113e-03,-0.83,-0.75
-1.111e-03,-0.81,-0.91
-1.109e-03,-0.87,-0.73
-1.107e-03,-0.77,-0.91
-1.105e-03,-0.89,-0.71
-1.103e-03,-0.75,-0.87
-1.101e-03,-0.81,-0.71
-1.099e-03,-0.79,-0.91
-1.097e-03,-0.81,-0.73
-1.096e-03,-0.89,-0.93
-1.094e-03,-0.83,-0.77
-1.092e-03,-0.89,-0.91
-1.090e-03,-0.77,-0.73
-1.088e-03,-0.83,-0.87
-1.086e-03,-0.75,-0.69
-1.084e-03,-0.87,-0.89
-1.082e-03,-0.77,-0.73
-1.080e-03,-0.87,-0.93
-1.078e-03,-0.87,-0.77
-1.076e-03,-0.89,-0.91
-1.074e-03,-0.79,-0.73
-1.072e-03,-0.83,-0.95
-1.071e-03,-0.91,-0.79
-1.069e-03,-0.85,-0.97
-1.067e-03,-0.93,-0.75
-1.065e-03,-0.77,-0.83
-1.063e-03,-0.75,-0.65
-1.061e-03,-0.71,-0.83
-1.059e-03,-0.73,-0.67
-1.057e-03,-0.75,-0.89
-1.055e-03,-0.83,-0.71
-1.053e-03,-0.77,-0.91
-1.051e-03,-0.77,-0.71
-1.049e-03,-0.89,-0.91
-1.048e-03,-0.81,-0.75
-1.046e-03,-0.81,-0.87
-1.044e-03,-0.77,-0.69
-1.042e-03,-0.85,-0.89
-1.040e-03,-0.79,-0.75
-1.038e-03,-0.87,-0.91
-1.036e-03,-0.83,-0.75
-1.034e-03,-0.81,-0.83
-1.032e-03,-0.77,-0.71
-1.030e-03,-0.77,-0.87
-1.028e-03,-0.75,-0.69
-1.026e-03,-0.83,-0.91
-1.024e-03,-0.85,-0.75
-1.023e-03,-0.79,-0.91
-1.021e-03,-0.89,-0.75
-1.019e-03,-0.77,-0.85
-1.017e-03,-0.79,-0.67
-1.015e-03,-0.69,-0.83
-1.013e-03,-0.77,-0.67
-1.011e-03,-0.79,-0.85
-1.009e-03,-0.83,-0.69
-1.007e-03,-0.73,-0.89
-1.005e-03,-0.85,-0.67
-1.003e-03,-0.79,-0.85
-1.001e-03,-0.73,-0.69
-9.995e-04,-0.77,-0.83
-9.976e-04,-0.73,-0.71
-9.957e-04,-0.81,-0.87
-9.937e-04,-0.73,-0.67
-9.918e-04,-0.79,-0.81
-9.899e-04,-0.69,-0.61
-9.880e-04,-0.73,-0.85
-9.861e-04,-0.73,-0.65
-9.841e-04,-0.83,-0.85
-9.822e-04,-0.73,-0.69
-9.803e-04,-0.77,-0.93
-9.784e-04,-0.81,-0.71
-9.765e-04,-0.87,-0.93
-9.745e-04,-0.85,-0.81
-9.726e-04,-0.87,-0.93
-9.707e-04,-0.81,-0.73
-9.688e-04,-0.77,-0.97
-9.669e-04,-0.89,-0.77
-9.649e-04,-0.89,-0.97
-9.630e-04,-0.93,-0.79
-9.611e-04,-0.81,-0.87
-9.592e-04,-0.81,-0.69
-9.573e-04,-0.73,-0.87
-9.553e-04,-0.75,-0.69
-9.534e-04,-0.83,-0.89
-9.515e-04,-0.81,-0.71
-9.496e-04,-0.81,-0.87
-9.477e-04,-0.79,-0.71
-9.457e-04,-0.81,-0.91
-9.438e-04,-0.73,-0.71
-9.419e-04,-0.87,-0.99
-9.400e-04,-0.91,-0.81
-9.381e-04,-0.87,-0.91
-9.361e-04,-0.79,-0.71
-9.342e-04,-0.81,-0.85
-9.323e-04,-0.73,-0.69
-9.304e-04,-0.81,-0.87
-9.285e-04,-0.77,-0.71
-9.265e-04,-0.79,-0.89
-9.246e-04,-0.81,-0.73
-9.227e-04,-0.79,-0.85
-9.208e-04,-0.83,-0.69
-9.189e-04,-0.73,-0.87
-9.169e-04,-0.81,-0.71
-9.150e-04,-0.73,-0.85
-9.131e-04,-0.77,-0.67
-9.112e-04,-0.79,-0.93
-9.093e-04,-0.87,-0.75
-9.073e-04,-0.87,-0.97
-9.054e-04,-0.83,-0.67
-9.035e-04,-0.71,-0.79
-9.016e-04,-0.67,-0.55
-8.997e-04,-0.59,-0.67
-8.977e-04,-0.57,-0.51
-8.958e-04,-0.63,-0.71
-8.939e-04,-0.59,-0.57
-8.920e-04,-0.73,-0.81
-8.901e-04,-0.69,-0.65
-8.881e-04,-0.77,-0.83
-8.862e-04,-0.65,-0.63
-8.843e-04,-0.81,-0.91
-8.824e-04,-0.83,-0.75
-8.805e-04,-0.77,-0.87
-8.785e-04,-0.79,-0.75
-8.766e-04,-0.79,-0.87
-8.747e-04,-0.81,-0.73
-8.728e-04,-0.77,-0.87
-8.709e-04,-0.83,-0.71
-8.689e-04,-0.75,-0.91
-8.670e-04,-0.89,-0.73
-8.651e-04,-0.81,-0.95
-8.632e-04,-0.89,-0.81
-8.613e-04,-0.89,-1.01
-8.593e-04,-0.95,-0.79
-8.574e-04,-0.81,-0.87
-8.555e-04,-0.79,-0.73
-8.536e-04,-0.83,-0.97
-8.517e-04,-0.87,-0.77
-8.497e-04,-0.95,-0.97
-8.478e-04,-0.87,-0.79
-8.459e-04,-0.87,-0.95
-8.440e-04,-0.85,-0.77
-8.421e-04,-0.91,-0.93
-8.401e-04,-0.79,-0.69
-8.382e-04,-0.79,-0.89
-8.363e-04,-0.79,-0.69
-8.344e-04,-0.87,-0.97
-8.325e-04,-0.87,-0.77
-8.305e-04,-0.93,-0.99
-8.286e-04,-0.93,-0.75
-8.267e-04,-0.79,-0.87
-8.248e-04,-0.83,-0.73
-8.229e-04,-0.77,-0.87
-8.209e-04,-0.81,-0.71
-8.190e-04,-0.71,-0.85
-8.171e-04,-0.79,-0.69
-8.152e-04,-0.75,-0.91
-8.133e-04,-0.89,-0.71
-8.113e-04,-0.79,-0.89
-8.094e-04,-0.87,-0.75
-8.075e-04,-0.85,-0.89
-8.056e-04,-0.81,-0.71
-8.037e-04,-0.77,-0.93
-8.017e-04,-0.83,-0.71
-7.998e-04,-0.89,-0.95
-7.979e-04,-0.87,-0.81
-7.960e-04,-0.87,-0.95
-7.941e-04,-0.85,-0.79
-7.921e-04,-0.91,-0.93
-7.902e-04,-0.81,-0.77
-7.883e-04,-0.85,-0.91
-7.864e-04,-0.81,-0.77
-7.845e-04,-0.81,-0.87
-7.825e-04,-0.75,-0.71
-7.806e-04,-0.77,-0.89
-7.787e-04,-0.83,-0.73
-7.768e-04,-0.75,-0.93
-7.749e-04,-0.85,-0.73
-7.729e-04,-0.83,-0.89
-7.710e-04,-0.85,-0.77
-7.691e-04,-0.79,-0.87
-7.672e-04,-0.85,-0.75
-7.653e-04,-0.77,-0.91
-7.633e-04,-0.85,-0.73
-7.614e-04,-0.83,-0.93
-7.595e-04,-0.87,-0.79
-7.576e-04,-0.87,-0.93
-7.557e-04,-0.79,-0.75
-7.537e-04,-0.89,-0.91
-7.518e-04,-0.79,-0.75
-7.499e-04,-0.87,-0.91
-7.480e-04,-0.77,-0.73
-7.461e-04,-0.89,-0.93
-7.441e-04,-0.75,-0.71
-7.422e-04,-0.79,-0.85
-7.403e-04,-0.75,-0.65
-7.384e-04,-0.75,-0.81
-7.365e-04,-0.71,-0.67
-7.345e-04,-0.77,-0.81
-7.326e-04,-0.69,-0.65
-7.307e-04,-0.71,-0.83
-7.288e-04,-0.77,-0.67
-7.269e-04,-0.73,-0.87
-7.249e-04,-0.81,-0.67
-7.230e-04,-0.73,-0.81
-7.211e-04,-0.71,-0.61
-7.192e-04,-0.71,-0.81
-7.173e-04,-0.79,-0.69
-7.153e-04,-0.75,-0.89
-7.134e-04,-0.79,-0.71
-7.115e-04,-0.83,-0.93
-7.096e-04,-0.83,-0.77
-7.076e-04,-0.81,-0.91
-7.057e-04,-0.79,-0.73
-7.038e-04,-0.89,-0.93
-7.019e-04,-0.85,-0.77
-7.000e-04,-0.85,-0.89
-6.980e-04,-0.75,-0.73
-6.961e-04,-0.91,-0.91
-6.942e-04,-0.73,-0.63
-6.923e-04,-0.71,-0.79
-6.904e-04,-0.65,-0.63
-6.884e-04,-0.73,-0.85
-6.865e-04,-0.67,-0.65
-6.846e-04,-0.77,-0.95
-6.827e-04,-0.83,-0.67
-6.808e-04,-0.91,-0.97
-6.788e-04,-0.91,-0.71
-6.769e-04,-0.69,-0.79
-6.750e-04,-0.73,-0.63
-6.731e-04,-0.71,-0.79
-6.712e-04,-0.73,-0.63
-6.692e-04,-0.67,-0.87
-6.673e-04,-0.83,-0.65
-6.654e-04,-0.69,-0.89
-6.635e-04,-0.77,-0.65
-6.616e-04,-0.83,-0.91
-6.596e-04,-0.79,-0.65
-6.577e-04,-0.71,-0.93
-6.558e-04,-0.77,-0.67
-6.539e-04,-0.93,-0.95
-6.520e-04,-0.85,-0.81
-6.500e-04,-0.87,-0.89
-6.481e-04,-0.75,-0.69
-6.462e-04,-0.81,-0.83
-6.443e-04,-0.71,-0.67
-6.424e-04,-0.73,-0.93
-6.404e-04,-0.73,-0.65
-6.385e-04,-0.89,-0.95
-6.366e-04,-0.85,-0.83
-6.347e-04,-0.91,-0.99
-6.328e-04,-0.91,-0.83
-6.308e-04,-0.91,-0.95
-6.289e-04,-0.89,-0.75
-6.270e-04,-0.81,-0.99
-6.251e-04,-0.91,-0.77
-6.232e-04,-0.91,-0.97
-6.212e-04,-0.87,-0.69
-6.193e-04,-0.73,-0.81
-6.174e-04,-0.69,-0.57
-6.155e-04,-0.59,-0.73
-6.136e-04,-0.63,-0.57
-6.116e-04,-0.65,-0.77
-6.097e-04,-0.69,-0.61
-6.078e-04,-0.69,-0.83
-6.059e-04,-0.75,-0.65
-6.040e-04,-0.81,-0.87
-6.020e-04,-0.79,-0.73
-6.001e-04,-0.81,-0.95
-5.982e-04,-0.81,-0.71
-5.963e-04,-0.93,-0.95
-5.944e-04,-0.81,-0.77
-5.924e-04,-0.89,-0.91
-5.905e-04,-0.81,-0.75
-5.886e-04,-0.83,-0.97
-5.867e-04,-0.85,-0.79
-5.848e-04,-0.93,-0.95
-5.828e-04,-0.85,-0.79
-5.809e-04,-0.85,-0.93
-5.790e-04,-0.85,-0.73
-5.771e-04,-0.77,-0.95
-5.752e-04,-0.89,-0.75
-5.732e-04,-0.87,-0.95
-5.713e-04,-0.87,-0.77
-5.694e-04,-0.77,-0.85
-5.675e-04,-0.79,-0.71
-5.656e-04,-0.81,-0.87
-5.636e-04,-0.77,-0.67
-5.617e-04,-0.77,-0.91
-5.598e-04,-0.83,-0.71
-5.579e-04,-0.83,-0.89
-5.560e-04,-0.79,-0.73
-5.540e-04,-0.81,-0.89
-5.521e-04,-0.77,-0.67
-5.502e-04,-0.77,-0.87
-5.483e-04,-0.77,-0.69
-5.464e-04,-0.83,-0.83
-5.444e-04,-0.71,-0.65
-5.425e-04,-0.69,-0.77
-5.406e-04,-0.67,-0.59
-5.387e-04,-0.73,-0.77
-5.368e-04,-0.69,-0.63
-5.348e-04,-0.69,-0.85
-5.329e-04,-0.81,-0.67
-5.310e-04,-0.77,-0.89
-5.291e-04,-0.83,-0.73
-5.272e-04,-0.75,-0.83
-5.252e-04,-0.79,-0.67
-5.233e-04,-0.71,-0.87
-5.214e-04,-0.85,-0.69
-5.195e-04,-0.75,-0.85
-5.176e-04,-0.79,-0.71
-5.156e-04,-0.77,-0.89
-5.137e-04,-0.81,-0.73
-5.118e-04,-0.77,-0.83
-5.099e-04,-0.75,-0.69
-5.080e-04,-0.75,-0.79
-5.060e-04,-0.69,-0.65
-5.041e-04,-0.75,-0.93
-5.022e-04,-0.77,-0.71
-5.003e-04,-0.91,-0.93
-4.984e-04,-0.83,-0.79
-4.964e-04,-0.93,-0.97
-4.945e-04,-0.89,-0.77
-4.926e-04,-0.83,-0.87
-4.907e-04,-0.71,-0.67
-4.888e-04,-0.81,-0.87
-4.868e-04,-0.81,-0.73
-4.849e-04,-0.79,-0.89
-4.830e-04,-0.83,-0.73
-4.811e-04,-0.77,-0.83
-4.792e-04,-0.75,-0.65
-4.772e-04,-0.67,-0.81
-4.753e-04,-0.75,-0.65
-4.734e-04,-0.73,-0.89
-4.715e-04,-0.83,-0.71
-4.696e-04,-0.85,-0.91
-4.676e-04,-0.87,-0.77
-4.657e-04,-0.81,-0.89
-4.638e-04,-0.81,-0.71
-4.619e-04,-0.81,-0.95
-4.600e-04,-0.87,-0.77
-4.580e-04,-0.89,-0.93
-4.561e-04,-0.79,-0.75
-4.542e-04,-0.91,-0.97
-4.523e-04,-0.91,-0.85
-4.504e-04,-0.97,-1.03
-4.484e-04,-0.93,-0.85
-4.465e-04,-0.93,-0.95
-4.446e-04,-0.79,-0.75
-4.427e-04,-0.81,-0.89
-4.408e-04,-0.81,-0.73
-4.388e-04,-0.79,-0.87
-4.369e-04,-0.77,-0.71
-4.350e-04,-0.79,-0.91
-4.331e-04,-0.85,-0.75
-4.312e-04,-0.83,-0.95
-4.292e-04,-0.91,-0.79
-4.273e-04,-0.83,-0.93
-4.254e-04,-0.89,-0.77
-4.235e-04,-0.81,-0.89
-4.216e-04,-0.83,-0.73
-4.196e-04,-0.73,-0.85
-4.177e-04,-0.79,-0.71
-4.158e-04,-0.79,-0.83
-4.139e-04,-0.79,-0.71
-4.120e-04,-0.77,-0.91
-4.100e-04,-0.77,-0.69
-4.081e-04,-0.89,-0.89
-4.062e-04,-0.75,-0.73
-4.043e-04,-0.83,-0.87
-4.024e-04,-0.79,-0.71
-4.004e-04,-0.79,-0.85
-3.985e-04,-0.77,-0.69
-3.966e-04,-0.79,-0.85
-3.947e-04,-0.77,-0.67
-3.927e-04,-0.77,-0.83
-3.908e-04,-0.77,-0.67
-3.889e-04,-0.79,-0.89
-3.870e-04,-0.79,-0.71
-3.851e-04,-0.81,-0.89
-3.831e-04,-0.83,-0.65
-3.812e-04,-0.67,-0.75
-3.793e-04,-0.71,-0.63
-3.774e-04,-0.63,-0.73
-3.755e-04,-0.69,-0.59
-3.735e-04,-0.65,-0.79
-3.716e-04,-0.71,-0.61
-3.697e-04,-0.71,-0.83
-3.678e-04,-0.79,-0.67
-3.659e-04,-0.71,-0.85
-3.639e-04,-0.79,-0.67
-3.620e-04,-0.77,-0.85
-3.601e-04,-0.75,-0.71
-3.582e-04,-0.77,-0.93
-3.563e-04,-0.83,-0.71
-3.543e-04,-0.93,-0.95
-3.524e-04,-0.85,-0.77
-3.505e-04,-0.85,-0.87
-3.486e-04,-0.77,-0.73
-3.467e-04,-0.79,-0.83
-3.447e-04,-0.71,-0.67
-3.428e-04,-0.73,-0.81
-3.409e-04,-0.69,-0.65
-3.390e-04,-0.71,-0.83
-3.371e-04,-0.75,-0.65
-3.351e-04,-0.77,-0.87
-3.332e-04,-0.81,-0.71
-3.313e-04,-0.75,-0.97
-3.294e-04,-0.91,-0.73
-3.275e-04,-0.87,-0.99
-3.255e-04,-0.93,-0.83
-3.236e-04,-0.91,-0.99
-3.217e-04,-0.93,-0.81
-3.198e-04,-0.81,-0.95
-3.179e-04,-0.91,-0.77
-3.159e-04,-0.83,-0.91
-3.140e-04,-0.83,-0.75
-3.121e-04,-0.87,-0.93
-3.102e-04,-0.85,-0.81
-3.083e-04,-0.91,-1.07
-3.063e-04,-0.95,-0.83
-3.044e-04,-1.03,-1.05
-3.025e-04,-0.85,-0.77
-3.006e-04,-0.85,-0.89
-2.987e-04,-0.81,-0.71
-2.967e-04,-0.81,-0.83
-2.948e-04,-0.75,-0.69
-2.929e-04,-0.77,-0.91
-2.910e-04,-0.73,-0.67
-2.891e-04,-0.87,-0.93
-2.871e-04,-0.87,-0.77
-2.852e-04,-0.85,-0.89
-2.833e-04,-0.83,-0.69
-2.814e-04,-0.69,-0.83
-2.795e-04,-0.79,-0.67
-2.775e-04,-0.73,-0.83
-2.756e-04,-0.75,-0.67
-2.737e-04,-0.75,-0.95
-2.718e-04,-0.85,-0.73
-2.699e-04,-0.85,-0.95
-2.679e-04,-0.79,-0.75
-2.660e-04,-0.89,-0.95
-2.641e-04,-0.87,-0.69
-2.622e-04,-0.77,-0.81
-2.603e-04,-0.73,-0.67
-2.583e-04,-0.75,-0.81
-2.564e-04,-0.71,-0.67
-2.545e-04,-0.79,-0.99
-2.526e-04,-0.83,-0.71
-2.507e-04,-0.95,-0.99
-2.487e-04,-0.83,-0.73
-2.468e-04,-0.79,-0.89
-2.449e-04,-0.79,-0.71
-2.430e-04,-0.81,-0.87
-2.411e-04,-0.77,-0.67
-2.391e-04,-0.71,-0.81
-2.372e-04,-0.77,-0.67
-2.353e-04,-0.71,-0.89
-2.334e-04,-0.83,-0.69
-2.315e-04,-0.81,-0.89
-2.295e-04,-0.73,-0.67
-2.276e-04,-0.73,-0.85
-2.257e-04,-0.81,-0.69
-2.238e-04,-0.77,-0.85
-2.219e-04,-0.75,-0.65
-2.199e-04,-0.69,-0.87
-2.180e-04,-0.83,-0.67
-2.161e-04,-0.75,-0.87
-2.142e-04,-0.83,-0.71
-2.123e-04,-0.81,-0.91
-2.103e-04,-0.83,-0.77
-2.084e-04,-0.87,-0.91
-2.065e-04,-0.79,-0.73
-2.046e-04,-0.81,-0.93
-2.027e-04,-0.79,-0.75
-2.007e-04,-0.83,-0.85
-1.988e-04,-0.77,-0.67
-1.969e-04,-0.75,-0.77
-1.950e-04,-0.69,-0.61
-1.931e-04,-0.67,-0.75
-1.911e-04,-0.67,-0.59
-1.892e-04,-0.69,-0.81
-1.873e-04,-0.71,-0.61
-1.854e-04,-0.75,-0.85
-1.835e-04,-0.75,-0.67
-1.815e-04,-0.75,-0.91
-1.796e-04,-0.89,-0.73
-1.777e-04,-0.83,-0.95
-1.758e-04,-0.91,-0.81
-1.739e-04,-0.87,-0.97
-1.719e-04,-0.91,-0.73
-1.700e-04,-0.79,-0.85
-1.681e-04,-0.71,-0.67
-1.662e-04,-0.79,-0.93
-1.643e-04,-0.83,-0.73
-1.623e-04,-0.79,-0.91
-1.604e-04,-0.79,-0.73
-1.585e-04,-0.87,-0.89
-1.566e-04,-0.79,-0.75
-1.547e-04,-0.87,-0.95
-1.527e-04,-0.85,-0.79
-1.508e-04,-0.93,-0.97
-1.489e-04,-0.87,-0.83
-1.470e-04,-0.89,-0.97
-1.451e-04,-0.89,-0.81
-1.431e-04,-0.87,-0.91
-1.412e-04,-0.75,-0.67
-1.393e-04,-0.71,-0.77
-1.374e-04,-0.71,-0.61
-1.355e-04,-0.61,-0.75
-1.335e-04,-0.71,-0.61
-1.316e-04,-0.69,-0.79
-1.297e-04,-0.75,-0.63
-1.278e-04,-0.67,-0.85
-1.259e-04,-0.81,-0.65
-1.239e-04,-0.81,-0.99
-1.220e-04,-0.93,-0.75
-1.201e-04,-0.93,-0.99
-1.182e-04,-0.83,-0.67
-1.163e-04,-0.71,-0.79
-1.143e-04,-0.69,-0.61
-1.124e-04,-0.69,-0.77
-1.105e-04,-0.69,-0.63
-1.086e-04,-0.73,-0.79
-1.067e-04,-0.69,-0.65
-1.047e-04,-0.75,-0.77
-1.028e-04,-0.63,-0.61
-1.009e-04,-0.69,-0.79
-9.897e-05,-0.71,-0.61
-9.705e-05,-0.71,-0.83
-9.513e-05,-0.65,-0.61
-9.321e-05,-0.75,-0.81
-9.129e-05,-0.75,-0.67
-8.937e-05,-0.71,-0.83
-8.745e-05,-0.69,-0.61
-8.553e-05,-0.79,-0.87
-8.361e-05,-0.79,-0.69
-8.169e-05,-0.77,-0.85
-7.977e-05,-0.83,-0.75
-7.785e-05,-0.77,-0.85
-7.593e-05,-0.75,-0.63
-7.401e-05,-0.65,-0.87
-7.209e-05,-0.79,-0.63
-7.017e-05,-0.81,-0.95
-6.825e-05,-0.87,-0.75
-6.633e-05,-0.89,-0.93
-6.441e-05,-0.79,-0.69
-6.249e-05,-0.77,-0.79
-6.057e-05,-0.67,-0.65
-5.865e-05,-0.71,-0.81
-5.673e-05,-0.69,-0.61
-5.481e-05,-0.69,-0.87
-5.289e-05,-0.73,-0.59
-5.097e-05,-0.83,-0.89
-4.905e-05,-0.71,-0.67
-4.713e-05,-0.85,-0.91
-4.521e-05,-0.83,-0.73
-4.329e-05,-0.79,-0.85
-4.137e-05,-0.79,-0.67
-3.945e-05,-0.73,-0.79
-3.753e-05,-0.75,-0.65
-3.561e-05,-0.71,-0.85
-3.369e-05,-0.81,-0.69
-3.177e-05,-0.75,-0.93
-2.985e-05,-0.89,-0.73
-2.793e-05,-0.73,-0.81
-2.601e-05,-0.71,-0.61
-2.409e-05,-0.75,-0.87
-2.217e-05,-0.79,-0.69
-2.025e-05,-0.83,-0.87
-1.833e-05,-0.81,-0.69
-1.641e-05,-0.77,-0.81
-1.449e-05,-0.69,-0.63
-1.257e-05,-0.73,-0.77
-1.065e-05,-0.65,-0.61
-8.725e-06,-0.71,-0.77
-6.805e-06,-0.61,-0.57
-4.885e-06,-0.77,-0.87
-2.965e-06,-0.73,-0.69
-1.045e-06,-0.83,-0.89
8.756e-07,-0.75,-0.71
2.796e-06,-0.79,-1.27
4.716e-06,-0.85,-0.73
6.636e-06,-1.25,-1.53
8.556e-06,0.17,2.99
1.048e-05,2.99,-2.09
1.240e-05,2.99,2.99
1.432e-05,-2.09,-2.09
1.624e-05,-2.09,-2.09
1.816e-05,-2.09,-2.09
2.008e-05,-2.09,-2.09
2.200e-05,-2.09,-2.09
2.392e-05,-2.09,-2.09
2.584e-05,-2.09,-2.09
2.776e-05,-2.09,-2.09
2.968e-05,-2.09,-2.09
3.160e-05,-2.09,-2.09
3.352e-05,-2.09,-2.09
3.544e-05,-2.09,-2.09
3.736e-05,-2.09,-2.09
3.928e-05,-2.09,-2.09
4.120e-05,-2.09,-2.09
4.312e-05,-2.09,-2.09
4.504e-05,-2.09,-2.09
4.696e-05,-2.09,-2.09
4.888e-05,-2.09,-2.09
5.080e-05,-1.63,-0.73
5.272e-05,-0.69,-0.75
5.464e-05,-0.00999998,0.37
5.656e-05,0.39,0.35
5.848e-05,0.55,0.71
6.040e-05,0.65,0.49
6.232e-05,0.57,0.69
6.424e-05,0.55,0.43
6.616e-05,0.47,0.57
6.808e-05,0.55,0.37
7.000e-05,0.41,0.55
7.192e-05,0.49,0.41
7.384e-05,0.45,0.53
7.576e-05,0.51,0.45
7.768e-05,0.55,0.69
7.960e-05,0.61,0.53
8.152e-05,0.65,0.69
8.344e-05,0.55,0.43
8.536e-05,0.53,0.61
8.728e-05,0.47,0.43
8.920e-05,0.59,0.61
9.112e-05,0.49,0.43
9.304e-05,0.53,0.59
9.496e-05,0.49,0.47
9.688e-05,0.57,0.59
9.880e-05,0.51,0.39
1.007e-04,0.53,0.57
1.026e-04,0.49,0.41
1.046e-04,0.51,0.59
1.065e-04,0.55,0.43
1.084e-04,0.47,0.61
1.103e-04,0.59,0.43
1.122e-04,0.53,0.67
1.142e-04,0.51,0.39
1.161e-04,0.41,0.55
1.180e-04,0.53,0.47
1.199e-04,0.51,0.61
1.218e-04,0.57,0.47
1.238e-04,0.51,0.61
1.257e-04,0.55,0.47
1.276e-04,0.51,0.61
1.295e-04,0.55,0.37
1.314e-04,0.43,0.59
1.334e-04,0.43,0.43
1.353e-04,0.53,0.57
1.372e-04,0.49,0.39
1.391e-04,0.49,0.53
1.410e-04,0.41,0.33
1.430e-04,0.43,0.47
1.449e-04,0.37,0.29
1.468e-04,0.37,0.45
1.487e-04,0.33,0.33
1.506e-04,0.43,0.49
1.526e-04,0.43,0.41
1.545e-04,0.53,0.57
1.564e-04,0.53,0.39
1.583e-04,0.51,0.59
1.602e-04,0.45,0.31
1.622e-04,0.33,0.49
1.641e-04,0.39,0.31
1.660e-04,0.35,0.49
1.679e-04,0.45,0.35
1.698e-04,0.41,0.51
1.718e-04,0.49,0.41
1.737e-04,0.47,0.53
1.756e-04,0.53,0.39
1.775e-04,0.45,0.57
1.794e-04,0.53,0.43
1.814e-04,0.53,0.59
1.833e-04,0.47,0.33
1.852e-04,0.41,0.51
1.871e-04,0.45,0.41
1.890e-04,0.55,0.57
1.910e-04,0.45,0.43
1.929e-04,0.57,0.59
1.948e-04,0.51,0.29
1.967e-04,0.41,0.57
1.986e-04,0.33,0.25
2.006e-04,0.35,0.47
2.025e-04,0.41,0.33
2.044e-04,0.39,0.49
2.063e-04,0.47,0.39
2.082e-04,0.49,0.61
2.102e-04,0.55,0.45
2.121e-04,0.49,0.57
2.140e-04,0.59,0.47
2.159e-04,0.49,0.61
2.178e-04,0.57,0.47
2.198e-04,0.49,0.59
2.217e-04,0.55,0.41
2.236e-04,0.45,0.59
2.255e-04,0.45,0.33
2.275e-04,0.37,0.51
2.294e-04,0.39,0.33
2.313e-04,0.41,0.45
2.332e-04,0.39,0.35
2.351e-04,0.49,0.53
2.371e-04,0.43,0.43
2.390e-04,0.57,0.63
2.409e-04,0.55,0.47
2.428e-04,0.55,0.63
2.447e-04,0.55,0.33
2.467e-04,0.47,0.61
2.486e-04,0.37,0.33
2.505e-04,0.43,0.51
2.524e-04,0.45,0.39
2.543e-04,0.49,0.57
2.563e-04,0.53,0.39
2.582e-04,0.45,0.57
2.601e-04,0.47,0.37
2.620e-04,0.39,0.49
2.639e-04,0.47,0.37
2.659e-04,0.45,0.55
2.678e-04,0.49,0.41
2.697e-04,0.53,0.61
2.716e-04,0.53,0.39
2.735e-04,0.47,0.61
2.755e-04,0.55,0.43
2.774e-04,0.53,0.61
2.793e-04,0.45,0.39
2.812e-04,0.51,0.55
2.831e-04,0.45,0.41
2.851e-04,0.51,0.53
2.870e-04,0.45,0.35
2.889e-04,0.45,0.55
2.908e-04,0.37,0.35
2.927e-04,0.49,0.51
2.947e-04,0.43,0.39
2.966e-04,0.49,0.55
2.985e-04,0.41,0.37
3.004e-04,0.49,0.55
3.023e-04,0.47,0.35
3.043e-04,0.43,0.53
3.062e-04,0.43,0.31
3.081e-04,0.33,0.45
3.100e-04,0.39,0.27
3.119e-04,0.33,0.49
3.139e-04,0.51,0.37
3.158e-04,0.43,0.55
3.177e-04,0.43,0.27
3.196e-04,0.33,0.47
3.215e-04,0.35,0.29
3.235e-04,0.37,0.49
3.254e-04,0.47,0.41
3.273e-04,0.47,0.57
3.292e-04,0.53,0.47
3.311e-04,0.57,0.63
3.331e-04,0.51,0.41
3.350e-04,0.53,0.57
3.369e-04,0.41,0.41
3.388e-04,0.55,0.59
3.407e-04,0.49,0.39
3.427e-04,0.49,0.55
3.446e-04,0.43,0.27
3.465e-04,0.37,0.49
3.484e-04,0.35,0.27
3.503e-04,0.35,0.41
3.523e-04,0.39,0.33
3.542e-04,0.41,0.51
3.561e-04,0.47,0.35
3.580e-04,0.45,0.53
3.599e-04,0.43,0.31
3.619e-04,0.37,0.47
3.638e-04,0.39,0.27
3.657e-04,0.31,0.43
3.676e-04,0.37,0.29
3.695e-04,0.39,0.51
3.715e-04,0.45,0.33
3.734e-04,0.39,0.49
3.753e-04,0.45,0.25
3.772e-04,0.39,0.51
3.791e-04,0.27,0.25
3.811e-04,0.37,0.45
3.830e-04,0.35,0.35
3.849e-04,0.49,0.57
3.868e-04,0.53,0.37
3.887e-04,0.49,0.59
3.907e-04,0.39,0.39
3.926e-04,0.47,0.51
3.945e-04,0.41,0.35
3.964e-04,0.41,0.49
3.983e-04,0.39,0.35
4.003e-04,0.43,0.47
4.022e-04,0.43,0.33
4.041e-04,0.37,0.51
4.060e-04,0.47,0.25
4.079e-04,0.31,0.51
4.099e-04,0.35,0.27
4.118e-04,0.31,0.45
4.137e-04,0.41,0.29
4.156e-04,0.31,0.43
4.175e-04,0.41,0.31
4.195e-04,0.35,0.49
4.214e-04,0.45,0.35
4.233e-04,0.43,0.51
4.252e-04,0.43,0.33
4.271e-04,0.37,0.51
4.291e-04,0.45,0.35
4.310e-04,0.43,0.49
4.329e-04,0.43,0.39
4.348e-04,0.49,0.53
4.367e-04,0.39,0.27
4.387e-04,0.39,0.47
4.406e-04,0.31,0.23
4.425e-04,0.31,0.37
4.444e-04,0.33,0.27
4.463e-04,0.41,0.49
4.483e-04,0.43,0.37
4.502e-04,0.43,0.51
4.521e-04,0.45,0.27
4.540e-04,0.35,0.51
4.559e-04,0.35,0.19
4.579e-04,0.25,0.37
4.598e-04,0.27,0.17
4.617e-04,0.23,0.37
4.636e-04,0.35,0.27
4.655e-04,0.31,0.39
4.675e-04,0.37,0.29
4.694e-04,0.35,0.41
4.713e-04,0.37,0.21
4.732e-04,0.33,0.43
4.751e-04,0.25,0.21
4.771e-04,0.29,0.35
4.790e-04,0.27,0.23
4.809e-04,0.39,0.47
4.828e-04,0.39,0.21
4.847e-04,0.41,0.49
4.867e-04,0.27,0.21
4.886e-04,0.31,0.37
4.905e-04,0.25,0.21
4.924e-04,0.35,0.39
4.943e-04,0.23,0.19
4.963e-04,0.25,0.33
4.982e-04,0.25,0.17
5.001e-04,0.25,0.39
5.020e-04,0.37,0.27
5.039e-04,0.31,0.41
5.059e-04,0.41,0.33
5.078e-04,0.35,0.47
5.097e-04,0.47,0.35
5.116e-04,0.39,0.47
5.135e-04,0.43,0.25
5.155e-04,0.37,0.45
5.174e-04,0.31,0.23
5.193e-04,0.33,0.39
5.212e-04,0.33,0.21
5.231e-04,0.29,0.39
5.251e-04,0.25,0.21
