Raw_Data/B3_DopedWaterCuSO4_90.CSV

Model,DPO2002B
Firmware Version,1.52

Point Format,Y,
Horizontal Units,S,
Horizontal Scale,0.001,
Sample Interval,1.92012e-06,
Filter Frequency,7e+07,
Record Length,5207,
Gating,0.0% to 100.0%,
Probe Attenuation,10,
Vertical Units,V,
Vertical Offset,0.6,
Vertical Scale,0.5,
Label,,
TIME,CH1,CH1 Peak Detect
-1.180e-03,-0.84,-0.92
-1.178e-03,-0.84,-0.78
-1.176e-03,-0.84,-0.98
-1.174e-03,-0.88,-0.78
-1.172e-03,-0.9,-1.02
-1.170e-03,-0.94,-0.82
-1.168e-03,-0.84,-0.94
-1.167e-03,-0.94,-0.8
-1.165e-03,-0.82,-0.9
-1.163e-03,-0.82,-0.72
-1.161e-03,-0.76,-0.9
-1.159e-03,-0.84,-0.74
-1.157e-03,-0.82,-0.94
-1.155e-03,-0.86,-0.78
-1.153e-03,-0.88,-0.96
-1.151e-03,-0.86,-0.82
-1.149e-03,-0.94,-0.98
-1.147e-03,-0.9,-0.78
-1.145e-03,-0.88,-0.9
-1.144e-03,-0.8,-0.78
-1.142e-03,-0.88,-0.92
-1.140e-03,-0.82,-0.78
-1.138e-03,-0.88,-0.92
-1.136e-03,-0.84,-0.76
-1.134e-03,-0.82,-0.96
-1.132e-03,-0.92,-0.76
-1.130e-03,-0.9,-0.94
-1.128e-03,-0.86,-0.76
-1.126e-03,-0.84,-0.96
-1.124e-03,-0.92,-0.78
-1.122e-03,-0.8,-0.9
-1.120e-03,-0.86,-0.76
-1.119e-03,-0.78,-0.86
-1.117e-03,-0.8,-0.72
-1.115e-03,-0.78,-0.86
-1.113e-03,-0.82,-0.72
-1.111e-03,-0.78,-0.98
-1.109e-03,-0.9,-0.74
-1.107e-03,-0.92,-1
-1.105e-03,-0.92,-0.84
-1.103e-03,-0.92,-0.98
-1.101e-03,-0.82,-0.74
-1.099e-03,-0.78,-0.88
-1.097e-03,-0.74,-0.7
-1.096e-03,-0.86,-0.88
-1.094e-03,-0.76,-0.72
-1.092e-03,-0.82,-0.96
-1.090e-03,-0.8,-0.74
-1.088e-03,-0.94,-0.98
-1.086e-03,-0.82,-0.78
-1.084e-03,-0.84,-0.9
-1.082e-03,-0.76,-0.72
-1.080e-03,-0.82,-0.92
-1.078e-03,-0.84,-0.72
-1.076e-03,-0.78,-0.96
-1.074e-03,-0.86,-0.74
-1.072e-03,-0.84,-0.9
-1.071e-03,-0.86,-0.72
-1.069e-03,-0.74,-0.84
-1.067e-03,-0.76,-0.66
-1.065e-03,-0.76,-0.82
-1.063e-03,-0.66,-0.6
-1.061e-03,-0.66,-0.82
-1.059e-03,-0.76,-0.64
-1.057e-03,-0.72,-0.88
-1.055e-03,-0.76,-0.68
-1.053e-03,-0.86,-0.98
-1.051e-03,-0.88,-0.8
-1.049e-03,-0.94,-0.94
-1.048e-03,-0.76,-0.72
-1.046e-03,-0.96,-1.02
-1.044e-03,-0.94,-0.88
-1.042e-03,-0.92,-0.96
-1.040e-03,-0.8,-0.76
-1.038e-03,-0.92,-0.94
-1.036e-03,-0.82,-0.7
-1.034e-03,-0.78,-0.94
-1.032e-03,-0.82,-0.68
-1.030e-03,-0.9,-0.94
-1.028e-03,-0.88,-0.76
-1.026e-03,-0.78,-0.84
-1.024e-03,-0.72,-0.64
-1.023e-03,-0.7,-0.84
-1.021e-03,-0.78,-0.64
-1.019e-03,-0.76,-0.88
-1.017e-03,-0.78,-0.7
-1.015e-03,-0.78,-0.86
-1.013e-03,-0.78,-0.7
-1.011e-03,-0.8,-0.94
-1.009e-03,-0.88,-0.76
-1.007e-03,-0.92,-1
-1.005e-03,-0.88,-0.8
-1.003e-03,-0.9,-0.98
-1.001e-03,-0.92,-0.78
-9.995e-04,-0.84,-0.88
-9.976e-04,-0.76,-0.72
-9.957e-04,-0.88,-0.94
-9.937e-04,-0.82,-0.76
-9.918e-04,-0.84,-0.96
-9.899e-04,-0.82,-0.76
-9.880e-04,-0.92,-0.96
-9.861e-04,-0.82,-0.78
-9.841e-04,-0.88,-0.96
-9.822e-04,-0.9,-0.82
-9.803e-04,-0.86,-0.92
-9.784e-04,-0.86,-0.74
-9.765e-04,-0.76,-0.82
-9.745e-04,-0.74,-0.66
-9.726e-04,-0.72,-0.9
-9.707e-04,-0.82,-0.7
-9.688e-04,-0.82,-0.88
-9.669e-04,-0.78,-0.7
-9.649e-04,-0.8,-0.94
-9.630e-04,-0.9,-0.78
-9.611e-04,-0.84,-0.98
-9.592e-04,-0.92,-0.82
-9.573e-04,-0.92,-0.98
-9.553e-04,-0.86,-0.76
-9.534e-04,-0.82,-0.88
-9.515e-04,-0.78,-0.72
-9.496e-04,-0.78,-0.82
-9.477e-04,-0.7,-0.66
-9.457e-04,-0.76,-0.9
-9.438e-04,-0.82,-0.7
-9.419e-04,-0.84,-0.9
-9.400e-04,-0.78,-0.74
-9.381e-04,-0.9,-0.9
-9.361e-04,-0.72,-0.68
-9.342e-04,-0.76,-0.86
-9.323e-04,-0.8,-0.68
-9.304e-04,-0.78,-0.86
-9.285e-04,-0.76,-0.7
-9.265e-04,-0.82,-0.94
-9.246e-04,-0.86,-0.78
-9.227e-04,-0.86,-1.04
-9.208e-04,-1.02,-0.84
-9.189e-04,-0.92,-0.98
-9.169e-04,-0.9,-0.72
-9.150e-04,-0.74,-0.84
-9.131e-04,-0.82,-0.7
-9.112e-04,-0.78,-0.96
-9.093e-04,-0.88,-0.76
-9.073e-04,-0.82,-0.86
-9.054e-04,-0.78,-0.7
-9.035e-04,-0.8,-0.92
-9.016e-04,-0.84,-0.7
-8.997e-04,-0.74,-0.84
-8.977e-04,-0.72,-0.64
-8.958e-04,-0.78,-0.92
-8.939e-04,-0.68,-0.64
-8.920e-04,-0.9,-0.98
-8.901e-04,-0.82,-0.8
-8.881e-04,-0.9,-0.98
-8.862e-04,-0.92,-0.84
-8.843e-04,-0.84,-0.92
-8.824e-04,-0.88,-0.76
-8.805e-04,-0.78,-0.92
-8.785e-04,-0.78,-0.72
-8.766e-04,-0.84,-0.96
-8.747e-04,-0.92,-0.8
-8.728e-04,-0.84,-0.9
-8.709e-04,-0.8,-0.74
-8.689e-04,-0.76,-0.86
-8.670e-04,-0.84,-0.72
-8.651e-04,-0.78,-0.86
-8.632e-04,-0.8,-0.7
-8.613e-04,-0.8,-0.88
-8.593e-04,-0.8,-0.74
-8.574e-04,-0.84,-0.92
-8.555e-04,-0.84,-0.76
-8.536e-04,-0.86,-0.94
-8.517e-04,-0.86,-0.76
-8.497e-04,-0.84,-0.9
-8.478e-04,-0.78,-0.74
-8.459e-04,-0.8,-0.84
-8.440e-04,-0.74,-0.7
-8.421e-04,-0.8,-0.88
-8.401e-04,-0.76,-0.7
-8.382e-04,-0.84,-0.88
-8.363e-04,-0.74,-0.66
-8.344e-04,-0.74,-0.88
-8.325e-04,-0.82,-0.68
-8.305e-04,-0.8,-0.9
-8.286e-04,-0.86,-0.76
-8.267e-04,-0.82,-0.92
-8.248e-04,-0.86,-0.8
-8.229e-04,-0.84,-0.96
-8.209e-04,-0.92,-0.74
-8.190e-04,-0.72,-0.84
-8.171e-04,-0.76,-0.66
-8.152e-04,-0.68,-0.78
-8.133e-04,-0.7,-0.64
-8.113e-04,-0.74,-0.9
-8.094e-04,-0.76,-0.68
-8.075e-04,-0.84,-0.92
-8.056e-04,-0.84,-0.76
-8.037e-04,-0.82,-0.92
-8.017e-04,-0.76,-0.72
-7.998e-04,-0.88,-0.9
-7.979e-04,-0.78,-0.72
-7.960e-04,-0.82,-0.84
-7.941e-04,-0.72,-0.7
-7.921e-04,-0.78,-0.88
-7.902e-04,-0.78,-0.7
-7.883e-04,-0.82,-0.88
-7.864e-04,-0.82,-0.7
-7.845e-04,-0.76,-0.82
-7.825e-04,-0.76,-0.68
-7.806e-04,-0.76,-0.88
-7.787e-04,-0.82,-0.7
-7.768e-04,-0.78,-0.9
-7.749e-04,-0.82,-0.76
-7.729e-04,-0.82,-0.9
-7.710e-04,-0.78,-0.66
-7.691e-04,-0.68,-0.88
-7.672e-04,-0.82,-0.66
-7.653e-04,-0.82,-0.88
-7.633e-04,-0.84,-0.66
-7.614e-04,-0.72,-0.8
-7.595e-04,-0.76,-0.64
-7.576e-04,-0.76,-0.92
-7.557e-04,-0.82,-0.72
-7.537e-04,-0.92,-0.96
-7.518e-04,-0.9,-0.8
-7.499e-04,-0.88,-0.92
-7.480e-04,-0.82,-0.78
-7.461e-04,-0.9,-0.96
-7.441e-04,-0.86,-0.8
-7.422e-04,-0.9,-0.94
-7.403e-04,-0.84,-0.8
-7.384e-04,-0.88,-0.94
-7.365e-04,-0.86,-0.82
-7.345e-04,-0.88,-0.98
-7.326e-04,-0.92,-0.82
-7.307e-04,-0.88,-0.92
-7.288e-04,-0.88,-0.7
-7.269e-04,-0.72,-0.86
-7.249e-04,-0.78,-0.68
-7.230e-04,-0.78,-0.96
-7.211e-04,-0.94,-0.76
-7.192e-04,-0.84,-0.96
-7.173e-04,-0.84,-0.72
-7.153e-04,-0.74,-0.84
-7.134e-04,-0.74,-0.7
-7.115e-04,-0.78,-0.88
-7.096e-04,-0.82,-0.74
-7.076e-04,-0.82,-0.92
-7.057e-04,-0.82,-0.78
-7.038e-04,-0.92,-0.94
-7.019e-04,-0.82,-0.76
-7.000e-04,-0.84,-0.92
-6.980e-04,-0.82,-0.76
-6.961e-04,-0.84,-0.88
-6.942e-04,-0.78,-0.74
-6.923e-04,-0.84,-0.94
-6.904e-04,-0.84,-0.8
-6.884e-04,-0.88,-0.94
-6.865e-04,-0.86,-0.8
-6.846e-04,-0.84,-0.9
-6.827e-04,-0.8,-0.72
-6.808e-04,-0.74,-0.92
-6.788e-04,-0.84,-0.7
-6.769e-04,-0.82,-0.9
-6.750e-04,-0.82,-0.74
-6.731e-04,-0.78,-0.9
-6.712e-04,-0.88,-0.76
-6.692e-04,-0.82,-1.1
-6.673e-04,-0.96,-0.78
-6.654e-04,-1.02,-1.1
-6.635e-04,-1,-0.9
-6.616e-04,-0.94,-0.98
-6.596e-04,-0.86,-0.78
-6.577e-04,-0.82,-0.86
-6.558e-04,-0.74,-0.7
-6.539e-04,-0.82,-0.94
-6.520e-04,-0.82,-0.78
-6.500e-04,-0.9,-0.92
-6.481e-04,-0.74,-0.7
-6.462e-04,-0.82,-0.9
-6.443e-04,-0.8,-0.76
-6.424e-04,-0.86,-0.9
-6.404e-04,-0.78,-0.72
-6.385e-04,-0.82,-0.88
-6.366e-04,-0.8,-0.74
-6.347e-04,-0.82,-0.9
-6.328e-04,-0.82,-0.7
-6.308e-04,-0.7,-0.82
-6.289e-04,-0.76,-0.66
-6.270e-04,-0.74,-0.92
-6.251e-04,-0.8,-0.68
-6.232e-04,-0.8,-0.88
-6.212e-04,-0.84,-0.72
-6.193e-04,-0.72,-0.92
-6.174e-04,-0.84,-0.7
-6.155e-04,-0.86,-0.92
-6.136e-04,-0.8,-0.74
-6.116e-04,-0.82,-0.9
-6.097e-04,-0.84,-0.72
-6.078e-04,-0.8,-0.86
-6.059e-04,-0.76,-0.72
-6.040e-04,-0.8,-0.88
-6.020e-04,-0.76,-0.74
-6.001e-04,-0.84,-0.9
-5.982e-04,-0.8,-0.76
-5.963e-04,-0.88,-0.9
-5.944e-04,-0.76,-0.66
-5.924e-04,-0.76,-0.8
-5.905e-04,-0.72,-0.66
-5.886e-04,-0.76,-0.88
-5.867e-04,-0.8,-0.7
-5.848e-04,-0.8,-0.94
-5.828e-04,-0.8,-0.72
-5.809e-04,-0.88,-1
-5.790e-04,-0.9,-0.76
-5.771e-04,-0.78,-0.86
-5.752e-04,-0.78,-0.66
-5.732e-04,-0.66,-0.76
-5.713e-04,-0.68,-0.58
-5.694e-04,-0.62,-0.96
-5.675e-04,-0.84,-0.6
-5.656e-04,-0.88,-0.98
-5.636e-04,-0.92,-0.8
-5.617e-04,-0.84,-0.92
-5.598e-04,-0.84,-0.78
-5.579e-04,-0.88,-0.92
-5.560e-04,-0.82,-0.78
-5.540e-04,-0.92,-0.94
-5.521e-04,-0.84,-0.78
-5.502e-04,-0.9,-1.04
-5.483e-04,-0.92,-0.84
-5.464e-04,-0.98,-1
-5.444e-04,-0.86,-0.84
-5.425e-04,-0.86,-0.92
-5.406e-04,-0.74,-0.7
-5.387e-04,-0.78,-0.92
-5.368e-04,-0.82,-0.72
-5.348e-04,-0.86,-0.94
-5.329e-04,-0.86,-0.8
-5.310e-04,-0.8,-0.92
-5.291e-04,-0.88,-0.78
-5.272e-04,-0.84,-0.92
-5.252e-04,-0.88,-0.8
-5.233e-04,-0.82,-0.88
-5.214e-04,-0.78,-0.64
-5.195e-04,-0.7,-0.86
-5.176e-04,-0.78,-0.68
-5.156e-04,-0.82,-0.94
-5.137e-04,-0.9,-0.74
-5.118e-04,-0.8,-0.82
-5.099e-04,-0.68,-0.66
-5.080e-04,-0.76,-0.86
-5.060e-04,-0.76,-0.68
-5.041e-04,-0.78,-1
-5.022e-04,-0.84,-0.72
-5.003e-04,-0.96,-1.02
-4.984e-04,-0.92,-0.86
-4.964e-04,-0.98,-1.06
-4.945e-04,-0.94,-0.86
-4.926e-04,-1.02,-1.04
-4.907e-04,-0.88,-0.8
-4.888e-04,-0.82,-0.96
-4.868e-04,-0.86,-0.76
-4.849e-04,-0.88,-0.94
-4.830e-04,-0.84,-0.76
-4.811e-04,-0.84,-0.94
-4.792e-04,-0.9,-0.74
-4.772e-04,-0.74,-0.88
-4.753e-04,-0.84,-0.74
-4.734e-04,-0.78,-0.9
-4.715e-04,-0.84,-0.76
-4.696e-04,-0.82,-0.9
-4.676e-04,-0.82,-0.72
-4.657e-04,-0.76,-0.84
-4.638e-04,-0.72,-0.64
-4.619e-04,-0.7,-0.88
-4.600e-04,-0.8,-0.66
-4.580e-04,-0.76,-0.8
-4.561e-04,-0.7,-0.66
-4.542e-04,-0.76,-0.84
-4.523e-04,-0.74,-0.66
-4.504e-04,-0.82,-0.84
-4.484e-04,-0.72,-0.7
-4.465e-04,-0.8,-0.9
-4.446e-04,-0.8,-0.76
-4.427e-04,-0.84,-0.9
-4.408e-04,-0.78,-0.72
-4.388e-04,-0.78,-0.88
-4.369e-04,-0.82,-0.74
-4.350e-04,-0.78,-0.86
-4.331e-04,-0.76,-0.66
-4.312e-04,-0.76,-0.88
-4.292e-04,-0.84,-0.74
-4.273e-04,-0.76,-0.9
-4.254e-04,-0.82,-0.74
-4.235e-04,-0.84,-0.9
-4.216e-04,-0.82,-0.74
-4.196e-04,-0.8,-0.84
-4.177e-04,-0.76,-0.6
-4.158e-04,-0.7,-0.8
-4.139e-04,-0.72,-0.64
-4.120e-04,-0.7,-0.82
-4.100e-04,-0.68,-0.62
-4.081e-04,-0.78,-0.82
-4.062e-04,-0.74,-0.7
-4.043e-04,-0.8,-0.84
-4.024e-04,-0.7,-0.66
-4.004e-04,-0.84,-0.92
-3.985e-04,-0.76,-0.74
-3.966e-04,-0.9,-0.94
-3.947e-04,-0.84,-0.78
-3.927e-04,-0.84,-0.86
-3.908e-04,-0.78,-0.7
-3.889e-04,-0.78,-0.88
-3.870e-04,-0.82,-0.74
-3.851e-04,-0.78,-0.9
-3.831e-04,-0.82,-0.68
-3.812e-04,-0.8,-0.96
-3.793e-04,-0.94,-0.78
-3.774e-04,-0.84,-0.92
-3.755e-04,-0.86,-0.76
-3.735e-04,-0.78,-0.9
-3.716e-04,-0.84,-0.76
-3.697e-04,-0.78,-0.86
-3.678e-04,-0.78,-0.72
-3.659e-04,-0.76,-0.9
-3.639e-04,-0.8,-0.72
-3.620e-04,-0.88,-0.94
-3.601e-04,-0.82,-0.72
-3.582e-04,-0.82,-0.88
-3.563e-04,-0.76,-0.74
-3.543e-04,-0.88,-1.02
-3.524e-04,-0.86,-0.8
-3.505e-04,-0.96,-1
-3.486e-04,-0.8,-0.76
-3.467e-04,-0.82,-0.88
-3.447e-04,-0.76,-0.7
-3.428e-04,-0.8,-0.92
-3.409e-04,-0.8,-0.74
-3.390e-04,-0.82,-0.9
-3.371e-04,-0.82,-0.74
-3.351e-04,-0.76,-0.92
-3.332e-04,-0.9,-0.72
-3.313e-04,-0.76,-0.96
-3.294e-04,-0.8,-0.74
-3.275e-04,-0.84,-0.94
-3.255e-04,-0.84,-0.74
-3.236e-04,-0.8,-0.88
-3.217e-04,-0.84,-0.72
-3.198e-04,-0.74,-0.82
-3.179e-04,-0.76,-0.66
-3.159e-04,-0.72,-0.82
-3.140e-04,-0.72,-0.68
-3.121e-04,-0.78,-0.9
-3.102e-04,-0.78,-0.72
-3.083e-04,-0.88,-0.94
-3.063e-04,-0.82,-0.8
-3.044e-04,-0.9,-0.92
-3.025e-04,-0.8,-0.74
-3.006e-04,-0.82,-0.86
-2.987e-04,-0.78,-0.72
-2.967e-04,-0.8,-0.84
-2.948e-04,-0.74,-0.62
-2.929e-04,-0.66,-0.76
-2.910e-04,-0.68,-0.6
-2.891e-04,-0.64,-0.82
-2.871e-04,-0.7,-0.6
-2.852e-04,-0.72,-0.84
-2.833e-04,-0.82,-0.68
-2.814e-04,-0.74,-0.88
-2.795e-04,-0.84,-0.7
-2.775e-04,-0.8,-1
-2.756e-04,-0.92,-0.78
-2.737e-04,-0.92,-0.98
-2.718e-04,-0.88,-0.84
-2.699e-04,-0.9,-0.96
-2.679e-04,-0.76,-0.7
-2.660e-04,-0.76,-0.8
-2.641e-04,-0.68,-0.62
-2.622e-04,-0.8,-0.84
-2.603e-04,-0.72,-0.66
-2.583e-04,-0.76,-0.76
-2.564e-04,-0.62,-0.58
-2.545e-04,-0.7,-0.9
-2.526e-04,-0.78,-0.64
-2.507e-04,-0.86,-0.9
-2.487e-04,-0.74,-0.72
-2.468e-04,-0.86,-0.9
-2.449e-04,-0.82,-0.68
-2.430e-04,-0.72,-0.86
-2.411e-04,-0.8,-0.68
-2.391e-04,-0.8,-0.84
-2.372e-04,-0.78,-0.7
-2.353e-04,-0.74,-0.86
-2.334e-04,-0.82,-0.7
-2.315e-04,-0.74,-0.9
-2.295e-04,-0.86,-0.7
-2.276e-04,-0.8,-0.88
-2.257e-04,-0.78,-0.68
-2.238e-04,-0.76,-0.84
-2.219e-04,-0.84,-0.7
-2.199e-04,-0.76,-0.92
-2.180e-04,-0.86,-0.7
-2.161e-04,-0.8,-0.88
-2.142e-04,-0.82,-0.74
-2.123e-04,-0.84,-0.94
-2.103e-04,-0.86,-0.78
-2.084e-04,-0.92,-0.94
-2.065e-04,-0.84,-0.78
-2.046e-04,-0.88,-0.9
-2.027e-04,-0.78,-0.76
-2.007e-04,-0.82,-0.86
-1.988e-04,-0.74,-0.7
-1.969e-04,-0.82,-0.9
-1.950e-04,-0.82,-0.72
-1.931e-04,-0.72,-0.78
-1.911e-04,-0.7,-0.64
-1.892e-04,-0.68,-0.9
-1.873e-04,-0.82,-0.68
-1.854e-04,-0.82,-0.9
-1.835e-04,-0.84,-0.76
-1.815e-04,-0.78,-0.92
-1.796e-04,-0.82,-0.72
-1.777e-04,-0.84,-0.94
-1.758e-04,-0.9,-0.78
-1.739e-04,-0.82,-0.92
-1.719e-04,-0.86,-0.74
-1.700e-04,-0.8,-0.92
-1.681e-04,-0.84,-0.76
-1.662e-04,-0.86,-0.9
-1.643e-04,-0.8,-0.76
-1.623e-04,-0.86,-1.06
-1.604e-04,-0.86,-0.78
-1.585e-04,-1.04,-1.12
-1.566e-04,-0.94,-0.92
-1.547e-04,-1.08,-1.12
-1.527e-04,-0.92,-0.78
-1.508e-04,-0.86,-0.88
-1.489e-04,-0.8,-0.72
-1.470e-04,-0.8,-0.86
-1.451e-04,-0.74,-0.7
-1.431e-04,-0.8,-0.88
-1.412e-04,-0.84,-0.76
-1.393e-04,-0.76,-0.8
-1.374e-04,-0.66,-0.6
-1.355e-04,-0.68,-0.9
-1.335e-04,-0.74,-0.64
-1.316e-04,-0.8,-0.92
-1.297e-04,-0.88,-0.7
-1.278e-04,-0.72,-0.82
-1.259e-04,-0.82,-0.68
-1.239e-04,-0.7,-0.78
-1.220e-04,-0.68,-0.6
-1.201e-04,-0.74,-0.86
-1.182e-04,-0.8,-0.7
-1.163e-04,-0.82,-0.94
-1.143e-04,-0.82,-0.78
-1.124e-04,-0.9,-0.94
-1.105e-04,-0.86,-0.8
-1.086e-04,-0.92,-1.02
-1.067e-04,-0.86,-0.82
-1.047e-04,-1,-1.04
-1.028e-04,-0.88,-0.8
-1.009e-04,-0.82,-0.88
-9.897e-05,-0.74,-0.7
-9.705e-05,-0.78,-1
-9.513e-05,-0.88,-0.76
-9.321e-05,-0.9,-0.94
-9.129e-05,-0.82,-0.74
-8.937e-05,-0.76,-0.86
-8.745e-05,-0.86,-0.74
-8.553e-05,-0.76,-0.9
-8.361e-05,-0.86,-0.72
-8.169e-05,-0.8,-0.92
-7.977e-05,-0.9,-0.78
-7.785e-05,-0.8,-0.94
-7.593e-05,-0.9,-0.76
-7.401e-05,-0.88,-0.94
-7.209e-05,-0.88,-0.78
-7.017e-05,-0.84,-0.88
-6.825e-05,-0.76,-0.7
-6.633e-05,-0.82,-0.92
-6.441e-05,-0.82,-0.76
-6.249e-05,-0.88,-0.92
-6.057e-05,-0.82,-0.78
-5.865e-05,-0.86,-0.92
-5.673e-05,-0.84,-0.76
-5.481e-05,-0.9,-0.92
-5.289e-05,-0.8,-0.72
-5.097e-05,-0.8,-0.84
-4.905e-05,-0.72,-0.68
-4.713e-05,-0.78,-0.92
-4.521e-05,-0.78,-0.72
-4.329e-05,-0.84,-0.9
-4.137e-05,-0.86,-0.72
-3.945e-05,-0.78,-0.96
-3.753e-05,-0.84,-0.74
-3.561e-05,-0.86,-0.94
-3.369e-05,-0.86,-0.74
-3.177e-05,-0.74,-0.88
-2.985e-05,-0.8,-0.72
-2.793e-05,-0.78,-0.92
-2.601e-05,-0.86,-0.78
-2.409e-05,-0.84,-0.96
-2.217e-05,-0.86,-0.82
-2.025e-05,-0.88,-0.96
-1.833e-05,-0.9,-0.8
-1.641e-05,-0.86,-0.88
-1.449e-05,-0.78,-0.7
-1.257e-05,-0.76,-0.86
-1.065e-05,-0.76,-0.68
-8.725e-06,-0.84,-0.86
-6.805e-06,-0.74,-0.7
-4.885e-06,-0.82,-0.92
-2.965e-06,-0.84,-0.74
-1.045e-06,-0.82,-0.86
8.756e-07,-0.74,-0.68
2.796e-06,-0.76,-1.16
4.716e-06,-0.86,-0.74
6.636e-06,-1.16,-2.92
8.556e-06,-1.88,-1.12
1.048e-05,-2.92,-2.92
1.240e-05,-2.92,-2.64
1.432e-05,-1.86,-2.64
1.624e-05,2.16,2.16
1.816e-05,2.16,2.16
2.008e-05,2.16,2.16
2.200e-05,2.16,2.16
2.392e-05,2.16,2.16
2.584e-05,2.16,2.16
2.776e-05,2.16,2.16
2.968e-05,2.16,-2.92
3.160e-05,-2.92,2.16
3.352e-05,-2.92,-2.92
3.544e-05,-2.92,-2.92
3.736e-05,-2.92,-2.92
3.928e-05,-2.92,-2.52
4.120e-05,-2.62,-2.8
4.312e-05,-2.72,-2.24
4.504e-05,-2.22,-2.26
4.696e-05,-0.82,0.48
4.888e-05,0.52,0.46
5.080e-05,1.22,1.36
5.272e-05,1.24,0.06
5.464e-05,0.68,1.26
5.656e-05,0.1,-0.3
5.848e-05,-0.2,0.14
6.040e-05,-0.2,-0.26
6.232e-05,-0.22,-0.08
6.424e-05,-0.08,-0.14
6.616e-05,-0.02,0.14
6.808e-05,0.12,-0.02
7.000e-05,0.06,0.12
7.192e-05,0.04,-0.1
7.384e-05,-0.04,0.06
7.576e-05,-0.02,-0.18
7.768e-05,-0.08,0.02
7.960e-05,-0.14,-0.28
8.152e-05,-0.14,-0.1
8.344e-05,-0.24,-0.26
8.536e-05,-0.02,0.02
8.728e-05,-0.12,-0.18
8.920e-05,-0.08,0.02
9.112e-05,-0.08,-0.3
9.304e-05,-0.1,4.76837e-09
9.496e-05,-0.26,-0.3
9.688e-05,-0.18,-0.1
9.880e-05,-0.18,-0.24
1.007e-04,-0.12,-0.08
1.026e-04,-0.18,-0.24
1.046e-04,-0.14,-0.06
1.065e-04,-0.12,-0.2
1.084e-04,-0.14,-0.06
1.103e-04,-0.08,-0.22
1.122e-04,-0.16,-0.08
1.142e-04,-0.12,-0.22
1.161e-04,-0.18,-0.06
1.180e-04,-0.1,-0.28
1.199e-04,-0.18,-0.04
1.218e-04,-0.18,-0.3
1.238e-04,-0.22,-0.14
1.257e-04,-0.26,-0.32
1.276e-04,-0.24,-0.06
1.295e-04,-0.12,-0.26
1.314e-04,-0.16,-0.08
1.334e-04,-0.22,-0.24
1.353e-04,-0.12,-0.04
1.372e-04,-0.12,-0.16
1.391e-04,-0.06,4.76837e-09
1.410e-04,-0.1,-0.26
1.430e-04,-0.06,4.76837e-09
1.449e-04,-0.22,-0.26
1.468e-04,-0.18,-0.1
1.487e-04,-0.16,-0.24
1.506e-04,-0.18,-0.08
1.526e-04,-0.14,-0.26
1.545e-04,-0.2,-0.1
1.564e-04,-0.18,-0.28
1.583e-04,-0.22,-0.12
1.602e-04,-0.16,-0.3
1.622e-04,-0.28,-0.14
1.641e-04,-0.22,-0.36
1.660e-04,-0.32,-0.16
1.679e-04,-0.16,-0.34
1.698e-04,-0.26,-0.14
1.718e-04,-0.24,-0.3
1.737e-04,-0.18,-0.1
1.756e-04,-0.16,-0.22
1.775e-04,-0.18,-0.06
1.794e-04,-0.2,-0.28
1.814e-04,-0.14,-0.1
1.833e-04,-0.3,-0.36
1.852e-04,-0.28,-0.22
1.871e-04,-0.3,-0.36
1.890e-04,-0.28,-0.2
1.910e-04,-0.36,-0.36
1.929e-04,-0.26,-0.14
1.948e-04,-0.22,-0.3
1.967e-04,-0.2,-0.12
1.986e-04,-0.28,-0.32
2.006e-04,-0.26,-0.18
2.025e-04,-0.22,-0.3
2.044e-04,-0.22,-0.14
2.063e-04,-0.18,-0.26
2.082e-04,-0.2,-0.12
2.102e-04,-0.16,-0.28
2.121e-04,-0.24,-0.14
2.140e-04,-0.18,-0.34
2.159e-04,-0.24,-0.14
2.178e-04,-0.28,-0.42
2.198e-04,-0.4,-0.24
2.217e-04,-0.32,-0.4
2.236e-04,-0.34,-0.22
2.255e-04,-0.28,-0.4
2.275e-04,-0.32,-0.22
2.294e-04,-0.32,-0.36
2.313e-04,-0.28,-0.22
2.332e-04,-0.28,-0.32
2.351e-04,-0.2,-0.16
2.371e-04,-0.26,-0.38
2.390e-04,-0.24,-0.18
2.409e-04,-0.36,-0.38
2.428e-04,-0.28,-0.24
2.447e-04,-0.32,-0.36
2.467e-04,-0.28,-0.22
2.486e-04,-0.28,-0.36
2.505e-04,-0.26,-0.18
2.524e-04,-0.3,-0.36
2.543e-04,-0.32,-0.2
2.563e-04,-0.28,-0.4
2.582e-04,-0.36,-0.26
2.601e-04,-0.32,-0.46
2.620e-04,-0.4,-0.26
2.639e-04,-0.3,-0.44
2.659e-04,-0.38,-0.26
2.678e-04,-0.38,-0.46
2.697e-04,-0.44,-0.32
2.716e-04,-0.38,-0.5
2.735e-04,-0.44,-0.34
2.755e-04,-0.44,-0.5
2.774e-04,-0.4,-0.3
2.793e-04,-0.42,-0.46
2.812e-04,-0.38,-0.32
2.831e-04,-0.4,-0.44
2.851e-04,-0.3,-0.26
2.870e-04,-0.42,-0.5
2.889e-04,-0.42,-0.34
2.908e-04,-0.46,-0.52
2.927e-04,-0.42,-0.36
2.947e-04,-0.46,-0.48
2.966e-04,-0.36,-0.32
2.985e-04,-0.42,-0.44
3.004e-04,-0.34,-0.28
3.023e-04,-0.36,-0.48
3.043e-04,-0.42,-0.32
3.062e-04,-0.38,-0.58
3.081e-04,-0.56,-0.36
3.100e-04,-0.44,-0.56
3.119e-04,-0.5,-0.38
3.139e-04,-0.46,-0.54
3.158e-04,-0.44,-0.28
3.177e-04,-0.32,-0.46
3.196e-04,-0.36,-0.3
3.215e-04,-0.42,-0.5
3.235e-04,-0.44,-0.38
3.254e-04,-0.46,-0.54
3.273e-04,-0.48,-0.38
3.292e-04,-0.48,-0.54
3.311e-04,-0.44,-0.36
3.331e-04,-0.48,-0.54
3.350e-04,-0.44,-0.4
3.369e-04,-0.5,-0.58
3.388e-04,-0.5,-0.42
3.407e-04,-0.48,-0.52
3.427e-04,-0.42,-0.38
3.446e-04,-0.44,-0.52
3.465e-04,-0.42,-0.34
3.484e-04,-0.38,-0.44
3.503e-04,-0.36,-0.26
3.523e-04,-0.26,-0.56
3.542e-04,-0.44,-0.26
3.561e-04,-0.5,-0.64
3.580e-04,-0.62,-0.48
3.599e-04,-0.54,-0.7
3.619e-04,-0.66,-0.52
3.638e-04,-0.56,-0.62
3.657e-04,-0.54,-0.44
3.676e-04,-0.52,-0.62
3.695e-04,-0.56,-0.46
3.715e-04,-0.56,-0.6
3.734e-04,-0.48,-0.44
3.753e-04,-0.5,-0.54
3.772e-04,-0.4,-0.36
3.791e-04,-0.5,-0.62
3.811e-04,-0.52,-0.42
3.830e-04,-0.6,-0.62
3.849e-04,-0.5,-0.42
3.868e-04,-0.48,-0.5
3.887e-04,-0.4,-0.34
3.907e-04,-0.48,-0.5
3.926e-04,-0.42,-0.36
3.945e-04,-0.44,-0.5
3.964e-04,-0.42,-0.34
3.983e-04,-0.46,-0.58
4.003e-04,-0.54,-0.4
4.022e-04,-0.56,-0.72
4.041e-04,-0.64,-0.5
4.060e-04,-0.58,-0.64
4.079e-04,-0.6,-0.48
4.099e-04,-0.5,-0.6
4.118e-04,-0.54,-0.46
4.137e-04,-0.52,-0.6
4.156e-04,-0.52,-0.4
4.175e-04,-0.46,-0.6
4.195e-04,-0.54,-0.42
4.214e-04,-0.56,-0.7
4.233e-04,-0.6,-0.52
4.252e-04,-0.66,-0.72
4.271e-04,-0.62,-0.52
4.291e-04,-0.62,-0.64
4.310e-04,-0.5,-0.42
4.329e-04,-0.5,-0.56
4.348e-04,-0.46,-0.4
4.367e-04,-0.46,-0.66
4.387e-04,-0.56,-0.4
4.406e-04,-0.6,-0.68
4.425e-04,-0.58,-0.52
4.444e-04,-0.58,-0.72
4.463e-04,-0.64,-0.54
4.483e-04,-0.62,-0.74
4.502e-04,-0.64,-0.48
4.521e-04,-0.52,-0.6
4.540e-04,-0.52,-0.4
4.559e-04,-0.42,-0.58
4.579e-04,-0.46,-0.38
4.598e-04,-0.48,-0.7
4.617e-04,-0.64,-0.46
4.636e-04,-0.58,-0.66
4.655e-04,-0.58,-0.48
4.675e-04,-0.54,-0.64
4.694e-04,-0.56,-0.44
4.713e-04,-0.5,-0.6
4.732e-04,-0.54,-0.44
4.751e-04,-0.54,-0.68
4.771e-04,-0.56,-0.46
4.790e-04,-0.64,-0.68
4.809e-04,-0.56,-0.52
4.828e-04,-0.62,-0.64
4.847e-04,-0.48,-0.46
4.867e-04,-0.62,-0.62
4.886e-04,-0.52,-0.46
4.905e-04,-0.56,-0.74
4.924e-04,-0.62,-0.5
4.943e-04,-0.68,-0.76
4.963e-04,-0.72,-0.6
4.982e-04,-0.62,-0.72
5.001e-04,-0.62,-0.54
5.020e-04,-0.66,-0.72
5.039e-04,-0.66,-0.56
5.059e-04,-0.58,-0.68
5.078e-04,-0.64,-0.5
5.097e-04,-0.52,-0.64
5.116e-04,-0.6,-0.5
5.135e-04,-0.54,-0.7
5.155e-04,-0.56,-0.5
