Raw_Data/B3_Ethanol_90.CSV

Model,DPO2002B
Firmware Version,1.52

Point Format,Y,
Horizontal Units,S,
Horizontal Scale,0.2,
Sample Interval,0.000384025,
Filter Frequency,7e+07,
Record Length,5207,
Gating,0.0% to 100.0%,
Probe Attenuation,10,
Vertical Units,V,
Vertical Offset,0.6,
Vertical Scale,0.5,
Label,,
TIME,CH1,CH1 Peak Detect
-3.6880e-01,-0.94,-1.16
-3.6842e-01,-0.98,-0.7
-3.6803e-01,-0.88,-1.16
-3.6765e-01,-0.88,-0.68
-3.6726e-01,-0.92,-1.18
-3.6688e-01,-1,-0.68
-3.6650e-01,-0.88,-1.14
-3.6611e-01,-0.9,-0.66
-3.6573e-01,-0.82,-1.16
-3.6534e-01,-1,-0.64
-3.6496e-01,-0.92,-1.18
-3.6458e-01,-0.96,-0.68
-3.6419e-01,-0.94,-1.18
-3.6381e-01,-0.92,-0.66
-3.6342e-01,-0.82,-1.18
-3.6304e-01,-0.94,-0.66
-3.6266e-01,-0.9,-1.16
-3.6227e-01,-0.9,-0.64
-3.6189e-01,-0.84,-1.22
-3.6150e-01,-0.92,-0.7
-3.6112e-01,-0.86,-1.22
-3.6074e-01,-0.86,-0.66
-3.6035e-01,-0.92,-1.18
-3.5997e-01,-0.98,-0.66
-3.5958e-01,-0.76,-1.16
-3.5920e-01,-0.92,-0.64
-3.5882e-01,-0.98,-1.18
-3.5843e-01,-0.98,-0.62
-3.5805e-01,-0.98,-1.16
-3.5766e-01,-0.84,-0.68
-3.5728e-01,-0.84,-1.14
-3.5690e-01,-0.96,-0.66
-3.5651e-01,-0.84,-1.16
-3.5613e-01,-0.82,-0.7
-3.5574e-01,-0.96,-1.18
-3.5536e-01,-0.98,-0.66
-3.5498e-01,-0.94,-1.18
-3.5459e-01,-0.94,-0.72
-3.5421e-01,-0.78,-1.18
-3.5382e-01,-0.88,-0.68
-3.5344e-01,-1.02,-1.18
-3.5305e-01,-1,-0.66
-3.5267e-01,-0.84,-1.14
-3.5229e-01,-0.88,-0.68
-3.5190e-01,-0.94,-1.14
-3.5152e-01,-0.88,-0.64
-3.5113e-01,-0.96,-1.2
-3.5075e-01,-0.94,-0.72
-3.5037e-01,-0.98,-1.16
-3.4998e-01,-0.88,-0.68
-3.4960e-01,-1,-1.12
-3.4921e-01,-0.94,-0.66
-3.4883e-01,-0.92,-1.16
-3.4845e-01,-0.98,-0.64
-3.4806e-01,-0.88,-1.18
-3.4768e-01,-0.94,-0.7
-3.4729e-01,-0.9,-1.14
-3.4691e-01,-0.94,-0.64
-3.4653e-01,-0.98,-1.12
-3.4614e-01,-0.96,-0.66
-3.4576e-01,-0.9,-1.18
-3.4537e-01,-1.04,-0.68
-3.4499e-01,-0.86,-1.2
-3.4461e-01,-0.88,-0.68
-3.4422e-01,-0.9,-1.18
-3.4384e-01,-0.84,-0.72
-3.4345e-01,-1.02,-1.16
-3.4307e-01,-0.88,-0.66
-3.4269e-01,-0.88,-1.16
-3.4230e-01,-0.78,-0.66
-3.4192e-01,-1,-1.18
-3.4153e-01,-0.94,-0.68
-3.4115e-01,-0.94,-1.16
-3.4077e-01,-0.98,-0.68
-3.4038e-01,-0.8,-1.16
-3.4000e-01,-0.94,-0.72
-3.3961e-01,-0.92,-1.16
-3.3923e-01,-0.96,-0.62
-3.3885e-01,-0.86,-1.14
-3.3846e-01,-0.94,-0.58
-3.3808e-01,-0.9,-1.16
-3.3769e-01,-0.88,-0.68
-3.3731e-01,-0.92,-1.24
-3.3693e-01,-1.02,-0.66
-3.3654e-01,-0.9,-1.18
-3.3616e-01,-0.76,-0.66
-3.3577e-01,-1,-1.16
-3.3539e-01,-0.88,-0.7
-3.3501e-01,-0.86,-1.16
-3.3462e-01,-0.98,-0.7
-3.3424e-01,-0.84,-1.14
-3.3385e-01,-0.82,-0.68
-3.3347e-01,-0.96,-1.24
-3.3309e-01,-0.82,-0.66
-3.3270e-01,-0.8,-1.14
-3.3232e-01,-0.84,-0.68
-3.3193e-01,-0.88,-1.14
-3.3155e-01,-0.84,-0.62
-3.3117e-01,-1.06,-1.2
-3.3078e-01,-0.96,-0.68
-3.3040e-01,-0.92,-1.14
-3.3001e-01,-0.9,-0.68
-3.2963e-01,-0.86,-1.16
-3.2925e-01,-0.96,-0.7
-3.2886e-01,-0.86,-1.16
-3.2848e-01,-0.82,-0.64
-3.2809e-01,-0.86,-1.18
-3.2771e-01,-1,-0.66
-3.2733e-01,-0.96,-1.16
-3.2694e-01,-0.9,-0.62
-3.2656e-01,-0.86,-1.18
-3.2617e-01,-0.88,-0.68
-3.2579e-01,-0.96,-1.16
-3.2541e-01,-0.9,-0.68
-3.2502e-01,-1.06,-1.18
-3.2464e-01,-0.82,-0.68
-3.2425e-01,-0.94,-1.14
-3.2387e-01,-1.06,-0.64
-3.2349e-01,-0.96,-1.14
-3.2310e-01,-0.96,-0.66
-3.2272e-01,-0.92,-1.22
-3.2233e-01,-0.92,-0.66
-3.2195e-01,-0.94,-1.18
-3.2156e-01,-0.94,-0.66
-3.2118e-01,-0.88,-1.16
-3.2080e-01,-0.9,-0.66
-3.2041e-01,-0.84,-1.2
-3.2003e-01,-0.8,-0.62
-3.1964e-01,-0.94,-1.26
-3.1926e-01,-0.98,-0.7
-3.1888e-01,-0.98,-1.14
-3.1849e-01,-0.82,-0.68
-3.1811e-01,-0.92,-1.22
-3.1772e-01,-1.04,-0.66
-3.1734e-01,-0.92,-1.2
-3.1696e-01,-0.92,-0.7
-3.1657e-01,-0.88,-1.18
-3.1619e-01,-0.84,-0.64
-3.1580e-01,-0.88,-1.14
-3.1542e-01,-0.9,-0.64
-3.1504e-01,-0.86,-1.18
-3.1465e-01,-0.98,-0.68
-3.1427e-01,-0.94,-1.14
-3.1388e-01,-0.92,-0.66
-3.1350e-01,-0.92,-1.14
-3.1312e-01,-0.86,-0.66
-3.1273e-01,-0.82,-1.16
-3.1235e-01,-0.8,-0.68
-3.1196e-01,-0.8,-1.18
-3.1158e-01,-0.96,-0.64
-3.1120e-01,-0.88,-1.14
-3.1081e-01,-0.84,-0.66
-3.1043e-01,-0.82,-1.14
-3.1004e-01,-0.94,-0.68
-3.0966e-01,-0.9,-1.12
-3.0928e-01,-0.96,-0.7
-3.0889e-01,-0.98,-1.2
-3.0851e-01,-0.94,-0.64
-3.0812e-01,-0.94,-1.18
-3.0774e-01,-0.84,-0.68
-3.0736e-01,-0.98,-1.18
-3.0697e-01,-0.86,-0.64
-3.0659e-01,-1,-1.24
-3.0620e-01,-0.96,-0.66
-3.0582e-01,-1,-1.16
-3.0544e-01,-0.8,-0.68
-3.0505e-01,-1.02,-1.18
-3.0467e-01,-0.86,-0.62
-3.0428e-01,-0.94,-1.22
-3.0390e-01,-1,-0.68
-3.0352e-01,-0.78,-1.2
-3.0313e-01,-0.86,-0.64
-3.0275e-01,-0.82,-1.18
-3.0236e-01,-0.92,-0.62
-3.0198e-01,-0.98,-1.16
-3.0160e-01,-1.02,-0.68
-3.0121e-01,-0.88,-1.22
-3.0083e-01,-0.86,-0.68
-3.0044e-01,-1.04,-1.16
-3.0006e-01,-0.9,-0.7
-2.9968e-01,-0.8,-1.18
-2.9929e-01,-0.92,-0.68
-2.9891e-01,-0.92,-1.12
-2.9852e-01,-0.92,-0.68
-2.9814e-01,-1.02,-1.2
-2.9776e-01,-0.92,-0.66
-2.9737e-01,-0.9,-1.16
-2.9699e-01,-1,-0.7
-2.9660e-01,-0.86,-1.16
-2.9622e-01,-0.82,-0.68
-2.9584e-01,-0.98,-1.24
-2.9545e-01,-0.94,-0.7
-2.9507e-01,-0.96,-1.16
-2.9468e-01,-0.98,-0.7
-2.9430e-01,-0.92,-1.16
-2.9392e-01,-0.94,-0.68
-2.9353e-01,-0.94,-1.2
-2.9315e-01,-0.92,-0.68
-2.9276e-01,-0.82,-1.2
-2.9238e-01,-0.92,-0.62
-2.9200e-01,-1,-1.14
-2.9161e-01,-1.02,-0.7
-2.9123e-01,-0.82,-1.14
-2.9084e-01,-0.88,-0.62
-2.9046e-01,-1.1,-1.14
-2.9007e-01,-0.8,-0.64
-2.8969e-01,-0.92,-1.18
-2.8931e-01,-0.82,-0.68
-2.8892e-01,-1,-1.18
-2.8854e-01,-0.96,-0.66
-2.8815e-01,-0.96,-1.18
-2.8777e-01,-0.8,-0.66
-2.8739e-01,-1,-1.14
-2.8700e-01,-0.86,-0.66
-2.8662e-01,-0.88,-1.14
-2.8623e-01,-0.88,-0.72
-2.8585e-01,-0.86,-1.16
-2.8547e-01,-0.9,-0.68
-2.8508e-01,-0.88,-1.18
-2.8470e-01,-0.78,-0.64
-2.8431e-01,-0.92,-1.14
-2.8393e-01,-1.02,-0.68
-2.8355e-01,-1,-1.14
-2.8316e-01,-0.76,-0.72
-2.8278e-01,-0.98,-1.18
-2.8239e-01,-0.9,-0.64
-2.8201e-01,-0.86,-1.18
-2.8163e-01,-1,-0.66
-2.8124e-01,-0.88,-1.14
-2.8086e-01,-1,-0.66
-2.8047e-01,-0.94,-1.14
-2.8009e-01,-1.06,-0.68
-2.7971e-01,-1.04,-1.14
-2.7932e-01,-0.92,-0.7
-2.7894e-01,-0.88,-1.18
-2.7855e-01,-0.86,-0.66
-2.7817e-01,-0.92,-1.16
-2.7779e-01,-0.98,-0.72
-2.7740e-01,-0.92,-1.22
-2.7702e-01,-0.92,-0.66
-2.7663e-01,-0.94,-1.18
-2.7625e-01,-0.8,-0.68
-2.7587e-01,-0.82,-1.2
-2.7548e-01,-0.86,-0.66
-2.7510e-01,-0.88,-1.16
-2.7471e-01,-0.92,-0.7
-2.7433e-01,-0.94,-1.14
-2.7395e-01,-1,-0.68
-2.7356e-01,-1,-1.2
-2.7318e-01,-0.92,-0.68
-2.7279e-01,-0.88,-1.18
-2.7241e-01,-0.92,-0.62
-2.7203e-01,-0.84,-1.22
-2.7164e-01,-0.96,-0.66
-2.7126e-01,-0.92,-1.16
-2.7087e-01,-0.82,-0.7
-2.7049e-01,-0.98,-1.18
-2.7011e-01,-0.84,-0.58
-2.6972e-01,-0.98,-1.18
-2.6934e-01,-0.88,-0.64
-2.6895e-01,-0.96,-1.16
-2.6857e-01,-0.94,-0.66
-2.6819e-01,-0.94,-1.18
-2.6780e-01,-0.96,-0.7
-2.6742e-01,-0.94,-1.16
-2.6703e-01,-1,-0.66
-2.6665e-01,-0.86,-1.14
-2.6627e-01,-1.04,-0.68
-2.6588e-01,-0.94,-1.16
-2.6550e-01,-0.88,-0.66
-2.6511e-01,-0.94,-1.22
-2.6473e-01,-0.78,-0.64
-2.6435e-01,-0.92,-1.14
-2.6396e-01,-0.9,-0.68
-2.6358e-01,-0.78,-1.16
-2.6319e-01,-0.72,-0.68
-2.6281e-01,-0.9,-1.22
-2.6243e-01,-0.92,-0.62
-2.6204e-01,-1,-1.18
-2.6166e-01,-0.9,-0.66
-2.6127e-01,-0.94,-1.18
-2.6089e-01,-0.84,-0.66
-2.6051e-01,-0.92,-1.16
-2.6012e-01,-1,-0.68
-2.5974e-01,-0.94,-1.16
-2.5935e-01,-0.9,-0.66
-2.5897e-01,-1,-1.18
-2.5858e-01,-0.88,-0.72
-2.5820e-01,-0.86,-1.16
-2.5782e-01,-0.8,-0.64
-2.5743e-01,-1,-1.16
-2.5705e-01,-0.9,-0.68
-2.5666e-01,-0.94,-1.18
-2.5628e-01,-0.92,-0.6
-2.5590e-01,-0.92,-1.18
-2.5551e-01,-0.96,-0.64
-2.5513e-01,-0.86,-1.2
-2.5474e-01,-0.96,-0.68
-2.5436e-01,-0.96,-1.18
-2.5398e-01,-0.8,-0.68
-2.5359e-01,-0.92,-1.22
-2.5321e-01,-0.84,-0.64
-2.5282e-01,-0.98,-1.14
-2.5244e-01,-0.82,-0.68
-2.5206e-01,-0.86,-1.2
-2.5167e-01,-0.98,-0.7
-2.5129e-01,-0.98,-1.18
-2.5090e-01,-1,-0.66
-2.5052e-01,-0.98,-1.14
-2.5014e-01,-0.86,-0.66
-2.4975e-01,-0.88,-1.14
-2.4937e-01,-0.92,-0.64
-2.4898e-01,-0.94,-1.22
-2.4860e-01,-1.12,-0.68
-2.4822e-01,-0.88,-1.2
-2.4783e-01,-0.88,-0.66
-2.4745e-01,-0.92,-1.16
-2.4706e-01,-0.88,-0.66
-2.4668e-01,-0.88,-1.16
-2.4630e-01,-0.84,-0.68
-2.4591e-01,-0.9,-1.2
-2.4553e-01,-0.88,-0.68
-2.4514e-01,-1.14,-1.16
-2.4476e-01,-1,-0.68
-2.4438e-01,-0.92,-1.16
-2.4399e-01,-0.9,-0.68
-2.4361e-01,-0.92,-1.16
-2.4322e-01,-0.96,-0.68
-2.4284e-01,-0.86,-1.2
-2.4246e-01,-0.86,-0.72
-2.4207e-01,-0.88,-1.18
-2.4169e-01,-0.92,-0.64
-2.4130e-01,-0.9,-1.14
-2.4092e-01,-0.9,-0.64
-2.4054e-01,-0.8,-1.16
-2.4015e-01,-0.92,-0.68
-2.3977e-01,-0.82,-1.18
-2.3938e-01,-0.98,-0.66
-2.3900e-01,-0.92,-1.2
-2.3862e-01,-1.06,-0.64
-2.3823e-01,-0.88,-1.18
-2.3785e-01,-0.9,-0.62
-2.3746e-01,-0.94,-1.2
-2.3708e-01,-0.86,-0.68
-2.3670e-01,-0.98,-1.16
-2.3631e-01,-0.82,-0.54
-2.3593e-01,-1,-1.16
-2.3554e-01,-0.86,-0.68
-2.3516e-01,-0.98,-1.14
-2.3478e-01,-0.8,-0.68
-2.3439e-01,-0.92,-1.14
-2.3401e-01,-0.78,-0.66
-2.3362e-01,-0.88,-1.16
-2.3324e-01,-0.88,-0.66
-2.3286e-01,-0.84,-1.16
-2.3247e-01,-0.88,-0.68
-2.3209e-01,-0.86,-1.16
-2.3170e-01,-0.98,-0.7
-2.3132e-01,-0.94,-1.16
-2.3094e-01,-0.9,-0.66
-2.3055e-01,-0.94,-1.22
-2.3017e-01,-0.84,-0.66
-2.2978e-01,-0.96,-1.14
-2.2940e-01,-0.94,-0.68
-2.2902e-01,-0.96,-1.16
-2.2863e-01,-0.96,-0.68
-2.2825e-01,-0.88,-1.14
-2.2786e-01,-0.9,-0.66
-2.2748e-01,-0.96,-1.2
-2.2709e-01,-1,-0.64
-2.2671e-01,-0.84,-1.18
-2.2633e-01,-0.82,-0.7
-2.2594e-01,-0.88,-1.16
-2.2556e-01,-1.08,-0.72
-2.2517e-01,-0.96,-1.18
-2.2479e-01,-0.94,-0.68
-2.2441e-01,-0.92,-1.14
-2.2402e-01,-0.92,-0.66
-2.2364e-01,-0.98,-1.2
-2.2325e-01,-0.86,-0.68
-2.2287e-01,-0.82,-1.14
-2.2249e-01,-0.92,-0.66
-2.2210e-01,-0.8,-1.22
-2.2172e-01,-0.9,-0.66
-2.2133e-01,-0.86,-1.14
-2.2095e-01,-0.96,-0.68
-2.2057e-01,-0.88,-1.2
-2.2018e-01,-0.92,-0.68
-2.1980e-01,-0.86,-1.18
-2.1941e-01,-0.82,-0.64
-2.1903e-01,-0.88,-1.18
-2.1865e-01,-0.92,-0.7
-2.1826e-01,-0.88,-1.18
-2.1788e-01,-0.92,-0.68
-2.1749e-01,-1,-1.18
-2.1711e-01,-0.88,-0.66
-2.1673e-01,-0.86,-1.16
-2.1634e-01,-0.9,-0.66
-2.1596e-01,-0.98,-1.2
-2.1557e-01,-0.88,-0.68
-2.1519e-01,-0.92,-1.18
-2.1481e-01,-0.86,-0.66
-2.1442e-01,-0.84,-1.14
-2.1404e-01,-0.94,-0.62
-2.1365e-01,-0.88,-1.22
-2.1327e-01,-0.9,-0.66
-2.1289e-01,-0.88,-1.22
-2.1250e-01,-0.86,-0.66
-2.1212e-01,-0.82,-1.2
-2.1173e-01,-1.12,-0.64
-2.1135e-01,-0.92,-1.16
-2.1097e-01,-0.9,-0.7
-2.1058e-01,-0.86,-1.2
-2.1020e-01,-1.02,-0.66
-2.0981e-01,-0.96,-1.2
-2.0943e-01,-1,-0.68
-2.0905e-01,-0.84,-1.12
-2.0866e-01,-0.84,-0.62
-2.0828e-01,-0.86,-1.16
-2.0789e-01,-0.94,-0.66
-2.0751e-01,-0.94,-1.24
-2.0713e-01,-0.94,-0.68
-2.0674e-01,-0.78,-1.18
-2.0636e-01,-0.86,-0.66
-2.0597e-01,-0.98,-1.22
-2.0559e-01,-0.94,-0.66
-2.0521e-01,-0.94,-1.14
-2.0482e-01,-0.84,-0.64
-2.0444e-01,-0.92,-1.16
-2.0405e-01,-0.94,-0.64
-2.0367e-01,-0.98,-1.14
-2.0329e-01,-0.98,-0.66
-2.0290e-01,-0.84,-1.18
-2.0252e-01,-0.88,-0.68
-2.0213e-01,-0.96,-1.14
-2.0175e-01,-0.94,-0.72
-2.0137e-01,-0.9,-1.18
-2.0098e-01,-0.76,-0.66
-2.0060e-01,-0.8,-1.2
-2.0021e-01,-0.98,-0.68
-1.9983e-01,-0.92,-1.12
-1.9945e-01,-0.96,-0.64
-1.9906e-01,-0.96,-1.14
-1.9868e-01,-0.9,-0.62
-1.9829e-01,-0.82,-1.18
-1.9791e-01,-0.96,-0.66
-1.9752e-01,-0.82,-1.2
-1.9714e-01,-0.88,-0.68
-1.9676e-01,-0.92,-1.22
-1.9637e-01,-0.92,-0.66
-1.9599e-01,-0.92,-1.14
-1.9560e-01,-0.9,-0.66
-1.9522e-01,-0.94,-1.2
-1.9484e-01,-0.96,-0.68
-1.9445e-01,-0.8,-1.18
-1.9407e-01,-1.02,-0.66
-1.9368e-01,-0.82,-1.18
-1.9330e-01,-0.92,-0.68
-1.9292e-01,-0.98,-1.22
-1.9253e-01,-0.86,-0.68
-1.9215e-01,-0.98,-1.16
-1.9176e-01,-0.92,-0.64
-1.9138e-01,-0.96,-1.12
-1.9100e-01,-0.96,-0.64
-1.9061e-01,-0.98,-1.18
-1.9023e-01,-0.92,-0.68
-1.8984e-01,-0.88,-1.18
-1.8946e-01,-0.84,-0.68
-1.8908e-01,-0.86,-1.14
-1.8869e-01,-0.92,-0.66
-1.8831e-01,-0.92,-1.2
-1.8792e-01,-0.98,-0.66
-1.8754e-01,-0.98,-1.2
-1.8716e-01,-0.94,-0.64
-1.8677e-01,-0.9,-1.2
-1.8639e-01,-1.04,-0.7
-1.8600e-01,-0.9,-1.24
-1.8562e-01,-0.84,-0.64
-1.8524e-01,-0.86,-1.2
-1.8485e-01,-0.98,-0.68
-1.8447e-01,-0.8,-1.18
-1.8408e-01,-0.96,-0.6
-1.8370e-01,-0.82,-1.18
-1.8332e-01,-0.82,-0.68
-1.8293e-01,-0.92,-1.16
-1.8255e-01,-0.94,-0.64
-1.8216e-01,-0.96,-1.2
-1.8178e-01,-0.98,-0.68
-1.8140e-01,-0.84,-1.22
-1.8101e-01,-0.8,-0.64
-1.8063e-01,-0.96,-1.18
-1.8024e-01,-0.98,-0.68
-1.7986e-01,-1.04,-1.16
-1.7948e-01,-0.9,-0.68
-1.7909e-01,-0.84,-1.14
-1.7871e-01,-0.94,-0.64
-1.7832e-01,-0.92,-1.18
-1.7794e-01,-0.92,-0.68
-1.7756e-01,-0.9,-1.16
-1.7717e-01,-0.82,-0.66
-1.7679e-01,-0.9,-1.22
-1.7640e-01,-0.94,-0.68
-1.7602e-01,-0.88,-1.24
-1.7564e-01,-0.9,-0.72
-1.7525e-01,-0.82,-1.18
-1.7487e-01,-0.98,-0.74
-1.7448e-01,-0.98,-1.2
-1.7410e-01,-0.94,-0.64
-1.7372e-01,-0.88,-1.22
-1.7333e-01,-0.82,-0.72
-1.7295e-01,-0.86,-1.16
-1.7256e-01,-0.94,-0.64
-1.7218e-01,-0.92,-1.16
-1.7180e-01,-1.06,-0.66
-1.7141e-01,-0.88,-1.22
-1.7103e-01,-0.9,-0.62
-1.7064e-01,-0.94,-1.2
-1.7026e-01,-0.92,-0.72
-1.6988e-01,-0.84,-1.16
-1.6949e-01,-0.94,-0.68
-1.6911e-01,-0.84,-1.18
-1.6872e-01,-0.88,-0.7
-1.6834e-01,-0.96,-1.2
-1.6796e-01,-0.88,-0.66
-1.6757e-01,-0.94,-1.18
-1.6719e-01,-1.02,-0.66
-1.6680e-01,-0.9,-1.18
-1.6642e-01,-0.96,-0.6
-1.6603e-01,-0.92,-1.18
-1.6565e-01,-0.8,-0.62
-1.6527e-01,-0.82,-1.18
-1.6488e-01,-1.06,-0.62
-1.6450e-01,-0.86,-1.16
-1.6411e-01,-0.92,-0.64
-1.6373e-01,-0.92,-1.14
-1.6335e-01,-0.92,-0.66
-1.6296e-01,-0.92,-1.24
-1.6258e-01,-1.08,-0.68
-1.6219e-01,-0.86,-1.16
-1.6181e-01,-0.78,-0.68
-1.6143e-01,-0.94,-1.18
-1.6104e-01,-0.96,-0.68
-1.6066e-01,-0.94,-1.18
-1.6027e-01,-1.02,-0.7
-1.5989e-01,-0.9,-1.2
-1.5951e-01,-0.94,-0.72
-1.5912e-01,-0.92,-1.16
-1.5874e-01,-0.98,-0.66
-1.5835e-01,-0.88,-1.16
-1.5797e-01,-0.94,-0.68
-1.5759e-01,-1,-1.16
-1.5720e-01,-0.86,-0.64
-1.5682e-01,-0.88,-1.14
-1.5643e-01,-1.08,-0.66
-1.5605e-01,-0.92,-1.16
-1.5567e-01,-0.9,-0.66
-1.5528e-01,-1,-1.16
-1.5490e-01,-0.8,-0.68
-1.5451e-01,-0.9,-1.18
-1.5413e-01,-0.9,-0.6
-1.5375e-01,-0.92,-1.18
-1.5336e-01,-0.84,-0.68
-1.5298e-01,-1.08,-1.16
-1.5259e-01,-0.9,-0.68
-1.5221e-01,-0.8,-1.2
-1.5183e-01,-0.9,-0.68
-1.5144e-01,-0.88,-1.18
-1.5106e-01,-0.9,-0.66
-1.5067e-01,-0.94,-1.14
-1.5029e-01,-0.94,-0.66
-1.4991e-01,-0.84,-1.2
-1.4952e-01,-1.02,-0.7
-1.4914e-01,-1.02,-1.14
-1.4875e-01,-0.98,-0.66
-1.4837e-01,-0.9,-1.18
-1.4799e-01,-0.84,-0.66
-1.4760e-01,-0.9,-1.18
-1.4722e-01,-0.88,-0.64
-1.4683e-01,-0.86,-1.2
-1.4645e-01,-1,-0.66
-1.4607e-01,-0.98,-1.22
-1.4568e-01,-0.84,-0.68
-1.4530e-01,-0.9,-1.18
-1.4491e-01,-1,-0.66
-1.4453e-01,-0.82,-1.22
-1.4415e-01,-1,-0.66
-1.4376e-01,-0.86,-1.16
-1.4338e-01,-1.02,-0.68
-1.4299e-01,-0.92,-1.16
-1.4261e-01,-0.82,-0.68
-1.4223e-01,-0.92,-1.18
-1.4184e-01,-0.86,-0.68
-1.4146e-01,-0.86,-1.14
-1.4107e-01,-0.88,-0.68
-1.4069e-01,-0.8,-1.18
-1.4031e-01,-0.92,-0.64
-1.3992e-01,-0.9,-1.14
-1.3954e-01,-0.94,-0.7
-1.3915e-01,-0.94,-1.16
-1.3877e-01,-0.94,-0.56
-1.3839e-01,-0.9,-1.18
-1.3800e-01,-0.72,-0.64
-1.3762e-01,-0.88,-1.14
-1.3723e-01,-0.82,-0.68
-1.3685e-01,-0.92,-1.18
-1.3647e-01,-0.96,-0.66
-1.3608e-01,-0.86,-1.14
-1.3570e-01,-0.82,-0.74
-1.3531e-01,-0.96,-1.2
-1.3493e-01,-0.96,-0.68
-1.3454e-01,-0.8,-1.18
-1.3416e-01,-0.9,-0.66
-1.3378e-01,-0.82,-1.14
-1.3339e-01,-0.9,-0.68
-1.3301e-01,-0.98,-1.14
-1.3262e-01,-0.8,-0.64
-1.3224e-01,-0.96,-1.22
-1.3186e-01,-0.98,-0.64
-1.3147e-01,-1.1,-1.12
-1.3109e-01,-0.94,-0.7
-1.3070e-01,-0.9,-1.16
-1.3032e-01,-0.98,-0.64
-1.2994e-01,-0.82,-1.16
-1.2955e-01,-0.88,-0.68
-1.2917e-01,-0.98,-1.18
-1.2878e-01,-0.96,-0.68
-1.2840e-01,-0.8,-1.2
-1.2802e-01,-1.08,-0.68
-1.2763e-01,-0.82,-1.16
-1.2725e-01,-0.98,-0.68
-1.2686e-01,-0.98,-1.22
-1.2648e-01,-0.9,-0.6
-1.2610e-01,-0.9,-1.22
-1.2571e-01,-0.9,-0.66
-1.2533e-01,-1.06,-1.18
-1.2494e-01,-0.96,-0.68
-1.2456e-01,-0.94,-1.18
-1.2418e-01,-0.82,-0.66
-1.2379e-01,-0.92,-1.18
-1.2341e-01,-0.9,-0.68
-1.2302e-01,-0.96,-1.2
-1.2264e-01,-0.86,-0.66
-1.2226e-01,-0.92,-1.16
-1.2187e-01,-0.84,-0.6
-1.2149e-01,-0.9,-1.14
-1.2110e-01,-1.04,-0.68
-1.2072e-01,-1,-1.14
-1.2034e-01,-0.88,-0.66
-1.1995e-01,-0.96,-1.16
-1.1957e-01,-0.92,-0.62
-1.1918e-01,-0.98,-1.2
-1.1880e-01,-0.86,-0.68
-1.1842e-01,-0.82,-1.18
-1.1803e-01,-0.8,-0.66
-1.1765e-01,-0.88,-1.12
-1.1726e-01,-0.92,-0.64
-1.1688e-01,-0.92,-1.16
-1.1650e-01,-0.84,-0.68
-1.1611e-01,-0.9,-1.16
-1.1573e-01,-0.9,-0.62
-1.1534e-01,-0.98,-1.14
-1.1496e-01,-0.82,-0.7
-1.1458e-01,-0.84,-1.14
-1.1419e-01,-0.92,-0.68
-1.1381e-01,-0.94,-1.14
-1.1342e-01,-0.86,-0.66
-1.1304e-01,-0.94,-1.18
-1.1266e-01,-0.8,-0.6
-1.1227e-01,-0.76,-1.16
-1.1189e-01,-0.9,-0.72
-1.1150e-01,-0.96,-1.14
-1.1112e-01,-0.86,-0.62
-1.1074e-01,-0.84,-1.14
-1.1035e-01,-1,-0.64
-1.0997e-01,-0.88,-1.16
-1.0958e-01,-0.96,-0.66
-1.0920e-01,-0.94,-1.22
-1.0882e-01,-0.86,-0.66
-1.0843e-01,-0.86,-1.18
-1.0805e-01,-0.82,-0.68
-1.0766e-01,-0.88,-1.18
-1.0728e-01,-0.82,-0.66
-1.0690e-01,-0.94,-1.18
-1.0651e-01,-0.92,-0.68
-1.0613e-01,-1,-1.2
-1.0574e-01,-0.98,-0.66
-1.0536e-01,-0.92,-1.14
-1.0498e-01,-0.9,-0.64
-1.0459e-01,-0.88,-1.14
-1.0421e-01,-0.82,-0.66
-1.0382e-01,-0.9,-1.16
-1.0344e-01,-0.92,-0.68
-1.0305e-01,-0.88,-1.18
-1.0267e-01,-0.84,-0.68
-1.0229e-01,-0.78,-1.18
-1.0190e-01,-0.98,-0.62
-1.0152e-01,-0.86,-1.22
-1.0113e-01,-0.88,-0.68
-1.0075e-01,-0.86,-1.16
-1.0037e-01,-0.96,-0.6
-9.9983e-02,-0.88,-1.16
-9.9599e-02,-0.88,-0.68
-9.9215e-02,-0.86,-1.14
-9.8831e-02,-0.86,-0.62
-9.8447e-02,-0.9,-1.16
-9.8063e-02,-0.96,-0.66
-9.7679e-02,-0.88,-1.14
-9.7295e-02,-0.88,-0.66
-9.6911e-02,-0.9,-1.14
-9.6527e-02,-0.86,-0.64
-9.6142e-02,-0.86,-1.16
-9.5758e-02,-1.12,-0.66
-9.5374e-02,-0.94,-1.14
-9.4990e-02,-0.92,-0.64
-9.4606e-02,-0.82,-1.16
-9.4222e-02,-0.86,-0.68
-9.3838e-02,-0.9,-1.18
-9.3454e-02,-0.9,-0.6
-9.3070e-02,-0.84,-1.16
-9.2686e-02,-0.9,-0.62
-9.2302e-02,-0.92,-1.18
-9.1918e-02,-1.04,-0.58
-9.1534e-02,-1.12,-1.18
-9.1150e-02,-0.86,-0.6
-9.0766e-02,-0.96,-1.16
-9.0382e-02,-0.88,-0.68
-8.9998e-02,-0.84,-1.18
-8.9614e-02,-0.86,-0.62
-8.9230e-02,-0.88,-1.14
-8.8846e-02,-0.88,-0.64
-8.8462e-02,-1.02,-1.16
-8.8078e-02,-0.9,-0.7
-8.7694e-02,-0.92,-1.14
-8.7310e-02,-0.94,-0.68
-8.6926e-02,-0.9,-1.16
-8.6542e-02,-0.88,-0.7
-8.6158e-02,-0.92,-1.14
-8.5774e-02,-1,-0.68
-8.5390e-02,-0.88,-1.14
-8.5006e-02,-0.86,-0.68
-8.4622e-02,-0.9,-1.1
-8.4238e-02,-0.96,-0.66
-8.3854e-02,-0.96,-1.2
-8.3470e-02,-0.94,-0.7
-8.3086e-02,-0.88,-1.18
-8.2702e-02,-0.9,-0.62
-8.2318e-02,-1.06,-1.18
-8.1934e-02,-0.96,-0.64
-8.1550e-02,-0.92,-1.14
-8.1166e-02,-0.82,-0.66
-8.0782e-02,-0.82,-1.18
-8.0397e-02,-0.94,-0.62
-8.0013e-02,-0.96,-1.16
-7.9629e-02,-0.94,-0.72
-7.9245e-02,-0.9,-1.18
-7.8861e-02,-0.98,-0.7
-7.8477e-02,-1,-1.18
-7.8093e-02,-0.96,-0.7
-7.7709e-02,-1,-1.22
-7.7325e-02,-0.92,-0.7
-7.6941e-02,-0.94,-1.22
-7.6557e-02,-0.84,-0.7
-7.6173e-02,-0.98,-1.18
-7.5789e-02,-0.96,-0.64
-7.5405e-02,-1.02,-1.18
-7.5021e-02,-0.92,-0.68
-7.4637e-02,-0.9,-1.16
-7.4253e-02,-0.94,-0.62
-7.3869e-02,-1,-1.14
-7.3485e-02,-0.84,-0.66
-7.3101e-02,-0.92,-1.22
-7.2717e-02,-0.9,-0.68
-7.2333e-02,-1,-1.14
-7.1949e-02,-0.9,-0.66
-7.1565e-02,-0.94,-1.16
-7.1181e-02,-0.88,-0.72
-7.0797e-02,-0.98,-1.2
-7.0413e-02,-1.02,-0.58
-7.0029e-02,-0.94,-1.2
-6.9645e-02,-0.94,-0.62
-6.9261e-02,-0.96,-1.2
-6.8877e-02,-0.84,-0.68
-6.8493e-02,-1.02,-1.2
-6.8109e-02,-1.08,-0.7
-6.7725e-02,-1.02,-1.16
-6.7341e-02,-0.84,-0.68
-6.6957e-02,-0.96,-1.16
-6.6573e-02,-0.94,-0.66
-6.6189e-02,-1.06,-1.18
-6.5805e-02,-1,-0.64
-6.5421e-02,-0.82,-1.18
-6.5037e-02,-0.86,-0.66
-6.4652e-02,-1,-1.2
-6.4268e-02,-0.86,-0.66
-6.3884e-02,-0.9,-1.22
-6.3500e-02,-0.86,-0.64
-6.3116e-02,-0.92,-1.16
-6.2732e-02,-0.92,-0.7
-6.2348e-02,-0.96,-1.2
-6.1964e-02,-0.96,-0.62
-6.1580e-02,-0.88,-1.16
-6.1196e-02,-0.9,-0.68
-6.0812e-02,-1,-1.24
-6.0428e-02,-0.98,-0.66
-6.0044e-02,-0.9,-1.18
-5.9660e-02,-0.86,-0.72
-5.9276e-02,-0.92,-1.18
-5.8892e-02,-0.96,-0.66
-5.8508e-02,-0.86,-1.18
-5.8124e-02,-0.92,-0.68
-5.7740e-02,-0.82,-1.14
-5.7356e-02,-0.96,-0.68
-5.6972e-02,-0.92,-1.16
-5.6588e-02,-0.84,-0.64
-5.6204e-02,-0.88,-1.16
-5.5820e-02,-1.06,-0.6
-5.5436e-02,-0.88,-1.24
-5.5052e-02,-0.9,-0.66
-5.4668e-02,-0.9,-1.14
-5.4284e-02,-1.04,-0.64
-5.3900e-02,-1,-1.14
-5.3516e-02,-0.8,-0.66
-5.3132e-02,-0.94,-1.16
-5.2748e-02,-0.96,-0.66
-5.2364e-02,-1,-1.2
-5.1980e-02,-0.88,-0.68
-5.1596e-02,-0.82,-1.16
-5.1212e-02,-0.92,-0.7
-5.0828e-02,-0.96,-1.16
-5.0444e-02,-0.88,-0.68
-5.0060e-02,-0.88,-1.12
-4.9676e-02,-0.94,-0.7
-4.9292e-02,-0.84,-1.16
-4.8907e-02,-0.98,-0.6
-4.8523e-02,-0.88,-1.16
-4.8139e-02,-0.82,-0.64
