Raw_Data/B4_DopedWaterCuSO4_P5.CSV

Model,DPO2002B
Firmware Version,1.52

Point Format,Y,
Horizontal Units,S,
Horizontal Scale,0.004,
Sample Interval,7.68049e-06,
Filter Frequency,7e+07,
Record Length,5207,
Gating,0.0% to 100.0%,
Probe Attenuation,10,
Vertical Units,V,
Vertical Offset,0.6,
Vertical Scale,0.5,
Label,,
TIME,CH1,CH1 Peak Detect
-7.3760e-03,-1.07,-1.07
-7.3683e-03,-0.97,-0.79
-7.3606e-03,-0.83,-1.01
-7.3530e-03,-0.93,-0.75
-7.3453e-03,-0.81,-0.99
-7.3376e-03,-0.91,-0.75
-7.3299e-03,-0.93,-1.03
-7.3222e-03,-0.97,-0.83
-7.3146e-03,-0.87,-0.99
-7.3069e-03,-0.91,-0.79
-7.2992e-03,-0.81,-1.03
-7.2915e-03,-0.85,-0.81
-7.2838e-03,-0.87,-0.97
-7.2762e-03,-0.93,-0.73
-7.2685e-03,-0.85,-1.03
-7.2608e-03,-0.91,-0.77
-7.2531e-03,-0.85,-1.17
-7.2454e-03,-0.93,-0.79
-7.2378e-03,-1.13,-1.19
-7.2301e-03,-1.01,-0.85
-7.2224e-03,-1.01,-1.07
-7.2147e-03,-1.01,-0.81
-7.2070e-03,-0.83,-1.07
-7.1993e-03,-0.73,-0.69
-7.1917e-03,-0.91,-1.07
-7.1840e-03,-0.95,-0.83
-7.1763e-03,-0.97,-1.09
-7.1686e-03,-0.97,-0.77
-7.1609e-03,-0.93,-1.09
-7.1533e-03,-0.91,-0.85
-7.1456e-03,-0.85,-1.03
-7.1379e-03,-0.91,-0.79
-7.1302e-03,-0.99,-1.01
-7.1225e-03,-0.83,-0.71
-7.1149e-03,-0.95,-1.05
-7.1072e-03,-0.91,-0.85
-7.0995e-03,-0.87,-1.07
-7.0918e-03,-0.97,-0.81
-7.0841e-03,-0.93,-1.03
-7.0765e-03,-0.93,-0.77
-7.0688e-03,-0.95,-1.07
-7.0611e-03,-0.85,-0.83
-7.0534e-03,-0.89,-1.01
-7.0457e-03,-0.91,-0.81
-7.0381e-03,-0.95,-1.07
-7.0304e-03,-1.03,-0.85
-7.0227e-03,-0.97,-1.11
-7.0150e-03,-1.03,-0.87
-7.0073e-03,-0.93,-1.09
-6.9997e-03,-0.95,-0.77
-6.9920e-03,-0.91,-0.99
-6.9843e-03,-0.91,-0.81
-6.9766e-03,-0.99,-1.11
-6.9689e-03,-1.01,-0.81
-6.9613e-03,-0.83,-1.11
-6.9536e-03,-0.97,-0.77
-6.9459e-03,-0.85,-1.07
-6.9382e-03,-0.95,-0.81
-6.9305e-03,-1.03,-1.11
-6.9228e-03,-1.01,-0.77
-6.9152e-03,-0.81,-1.03
-6.9075e-03,-0.93,-0.79
-6.8998e-03,-0.93,-1.07
-6.8921e-03,-0.99,-0.87
-6.8844e-03,-0.99,-1.03
-6.8768e-03,-0.87,-0.79
-6.8691e-03,-0.99,-1.07
-6.8614e-03,-0.91,-0.83
-6.8537e-03,-0.87,-1.13
-6.8460e-03,-1.01,-0.85
-6.8384e-03,-1.07,-1.09
-6.8307e-03,-0.89,-0.79
-6.8230e-03,-0.87,-1.11
-6.8153e-03,-0.99,-0.77
-6.8076e-03,-0.79,-1.05
-6.8000e-03,-0.81,-0.67
-6.7923e-03,-0.99,-1.03
-6.7846e-03,-0.93,-0.81
-6.7769e-03,-0.91,-0.99
-6.7692e-03,-0.89,-0.73
-6.7616e-03,-0.75,-1.07
-6.7539e-03,-0.93,-0.73
-6.7462e-03,-0.93,-1.07
-6.7385e-03,-0.95,-0.83
-6.7308e-03,-0.99,-1.13
-6.7232e-03,-0.91,-0.85
-6.7155e-03,-1.09,-1.17
-6.7078e-03,-0.87,-0.79
-6.7001e-03,-0.85,-1.05
-6.6924e-03,-0.91,-0.77
-6.6848e-03,-0.93,-1.13
-6.6771e-03,-0.93,-0.79
-6.6694e-03,-0.97,-1.09
-6.6617e-03,-0.95,-0.83
-6.6540e-03,-0.83,-1.09
-6.6464e-03,-1.05,-0.79
-6.6387e-03,-0.85,-0.95
-6.6310e-03,-0.87,-0.75
-6.6233e-03,-0.83,-1.07
-6.6156e-03,-0.93,-0.73
-6.6079e-03,-0.77,-1.03
-6.6003e-03,-0.91,-0.71
-6.5926e-03,-0.91,-0.99
-6.5849e-03,-0.91,-0.79
-6.5772e-03,-0.95,-1.09
-6.5695e-03,-0.95,-0.89
-6.5619e-03,-1.01,-1.09
-6.5542e-03,-0.89,-0.81
-6.5465e-03,-0.93,-1.03
-6.5388e-03,-0.95,-0.75
-6.5311e-03,-1.05,-1.11
-6.5235e-03,-1.01,-0.85
-6.5158e-03,-0.91,-1.07
-6.5081e-03,-0.87,-0.85
-6.5004e-03,-1.03,-1.07
-6.4927e-03,-0.97,-0.77
-6.4851e-03,-0.95,-1.03
-6.4774e-03,-0.87,-0.79
-6.4697e-03,-0.93,-1.09
-6.4620e-03,-0.89,-0.79
-6.4543e-03,-0.81,-1.01
-6.4467e-03,-0.89,-0.75
-6.4390e-03,-0.91,-1.07
-6.4313e-03,-1.01,-0.67
-6.4236e-03,-0.71,-0.97
-6.4159e-03,-0.79,-0.67
-6.4083e-03,-0.85,-1.01
-6.4006e-03,-0.97,-0.83
-6.3929e-03,-0.95,-1.03
-6.3852e-03,-0.89,-0.79
-6.3775e-03,-0.95,-1.15
-6.3699e-03,-1.03,-0.89
-6.3622e-03,-0.93,-1.05
-6.3545e-03,-0.85,-0.79
-6.3468e-03,-0.97,-1.13
-6.3391e-03,-1.05,-0.89
-6.3315e-03,-1.01,-1.03
-6.3238e-03,-0.85,-0.81
-6.3161e-03,-0.93,-1.03
-6.3084e-03,-0.91,-0.85
-6.3007e-03,-0.97,-1.13
-6.2930e-03,-1.09,-0.85
-6.2854e-03,-0.95,-1.09
-6.2777e-03,-0.97,-0.85
-6.2700e-03,-0.91,-0.99
-6.2623e-03,-0.83,-0.67
-6.2546e-03,-0.85,-1.05
-6.2470e-03,-1.01,-0.77
-6.2393e-03,-0.91,-1.07
-6.2316e-03,-0.95,-0.85
-6.2239e-03,-0.97,-1.15
-6.2162e-03,-1.05,-0.87
-6.2086e-03,-0.95,-1.07
-6.2009e-03,-0.97,-0.89
-6.1932e-03,-0.99,-1.07
-6.1855e-03,-1.01,-0.87
-6.1778e-03,-0.97,-1.07
-6.1702e-03,-0.93,-0.83
-6.1625e-03,-0.91,-0.99
-6.1548e-03,-0.83,-0.77
-6.1471e-03,-0.99,-1.03
-6.1394e-03,-0.97,-0.81
-6.1318e-03,-0.87,-1.03
-6.1241e-03,-0.87,-0.79
-6.1164e-03,-0.89,-0.99
-6.1087e-03,-0.81,-0.75
-6.1010e-03,-0.95,-0.97
-6.0934e-03,-0.87,-0.73
-6.0857e-03,-0.99,-1.03
-6.0780e-03,-0.91,-0.79
-6.0703e-03,-0.93,-1.07
-6.0626e-03,-0.87,-0.79
-6.0550e-03,-0.91,-1.19
-6.0473e-03,-1.03,-0.83
-6.0396e-03,-1.17,-1.19
-6.0319e-03,-0.95,-0.87
-6.0242e-03,-0.89,-1.17
-6.0166e-03,-0.95,-0.87
-6.0089e-03,-1.09,-1.15
-6.0012e-03,-0.93,-0.81
-5.9935e-03,-1.01,-1.05
-5.9858e-03,-0.89,-0.81
-5.9781e-03,-0.93,-1.07
-5.9705e-03,-0.81,-0.79
-5.9628e-03,-0.93,-1.01
-5.9551e-03,-0.85,-0.77
-5.9474e-03,-0.89,-1.01
-5.9397e-03,-0.85,-0.77
-5.9321e-03,-0.81,-1.05
-5.9244e-03,-0.93,-0.77
-5.9167e-03,-0.97,-1.13
-5.9090e-03,-1.09,-0.89
-5.9013e-03,-1.03,-1.09
-5.8937e-03,-0.99,-0.87
-5.8860e-03,-0.93,-1.07
-5.8783e-03,-0.97,-0.83
-5.8706e-03,-0.89,-1.09
-5.8629e-03,-0.99,-0.79
-5.8553e-03,-0.93,-1.03
-5.8476e-03,-0.95,-0.83
-5.8399e-03,-0.91,-1.07
-5.8322e-03,-0.85,-0.79
-5.8245e-03,-0.93,-1.01
-5.8169e-03,-0.91,-0.81
-5.8092e-03,-0.99,-1.17
-5.8015e-03,-1.05,-0.91
-5.7938e-03,-1.03,-1.07
-5.7861e-03,-0.95,-0.77
-5.7785e-03,-0.81,-1.03
-5.7708e-03,-0.85,-0.77
-5.7631e-03,-0.91,-1.03
-5.7554e-03,-1.03,-0.85
-5.7477e-03,-0.97,-1.09
-5.7401e-03,-0.93,-0.83
-5.7324e-03,-1.03,-1.09
-5.7247e-03,-0.89,-0.85
-5.7170e-03,-0.99,-1.19
-5.7093e-03,-1.09,-0.91
-5.7017e-03,-0.97,-1.01
-5.6940e-03,-0.91,-0.83
-5.6863e-03,-0.91,-1.07
-5.6786e-03,-0.89,-0.83
-5.6709e-03,-0.87,-1.03
-5.6632e-03,-0.85,-0.77
-5.6556e-03,-0.97,-1.03
-5.6479e-03,-0.97,-0.83
-5.6402e-03,-1.01,-1.05
-5.6325e-03,-0.91,-0.83
-5.6248e-03,-0.81,-1.15
-5.6172e-03,-0.89,-0.71
-5.6095e-03,-1.11,-1.15
-5.6018e-03,-1.03,-0.81
-5.5941e-03,-0.97,-1.09
-5.5864e-03,-0.95,-0.89
-5.5788e-03,-0.95,-1.07
-5.5711e-03,-0.91,-0.87
-5.5634e-03,-0.99,-1.05
-5.5557e-03,-0.97,-0.77
-5.5480e-03,-0.87,-1.13
-5.5404e-03,-1.03,-0.79
-5.5327e-03,-1.05,-1.15
-5.5250e-03,-0.83,-0.75
-5.5173e-03,-0.87,-1.01
-5.5096e-03,-0.93,-0.81
-5.5020e-03,-0.95,-1.09
-5.4943e-03,-0.97,-0.85
-5.4866e-03,-0.95,-1.09
-5.4789e-03,-0.93,-0.81
-5.4712e-03,-1.03,-1.09
-5.4636e-03,-0.91,-0.79
-5.4559e-03,-0.93,-1.01
-5.4482e-03,-0.97,-0.77
-5.4405e-03,-0.93,-1.09
-5.4328e-03,-1.01,-0.81
-5.4252e-03,-0.83,-0.99
-5.4175e-03,-0.95,-0.75
-5.4098e-03,-1.01,-1.15
-5.4021e-03,-0.95,-0.87
-5.3944e-03,-0.97,-1.09
-5.3868e-03,-0.93,-0.79
-5.3791e-03,-0.99,-1.09
-5.3714e-03,-0.99,-0.83
-5.3637e-03,-0.99,-1.21
-5.3560e-03,-1.07,-0.91
-5.3483e-03,-0.99,-1.05
-5.3407e-03,-0.95,-0.83
-5.3330e-03,-0.89,-1.05
-5.3253e-03,-0.93,-0.81
-5.3176e-03,-0.87,-1.07
-5.3099e-03,-0.97,-0.75
-5.3023e-03,-0.99,-1.05
-5.2946e-03,-0.97,-0.83
-5.2869e-03,-0.87,-1.03
-5.2792e-03,-0.95,-0.81
-5.2715e-03,-0.93,-1.05
-5.2639e-03,-0.95,-0.79
-5.2562e-03,-0.97,-1.13
-5.2485e-03,-0.87,-0.77
-5.2408e-03,-1.07,-1.15
-5.2331e-03,-0.87,-0.83
-5.2255e-03,-1.03,-1.11
-5.2178e-03,-1.05,-0.89
-5.2101e-03,-1.05,-1.15
-5.2024e-03,-0.99,-0.87
-5.1947e-03,-0.97,-1.09
-5.1871e-03,-0.93,-0.87
-5.1794e-03,-0.97,-1.09
-5.1717e-03,-0.87,-0.81
-5.1640e-03,-1.05,-1.05
-5.1563e-03,-0.85,-0.75
-5.1487e-03,-0.89,-1.07
-5.1410e-03,-0.77,-0.73
-5.1333e-03,-0.99,-1.09
-5.1256e-03,-0.91,-0.83
-5.1179e-03,-1.01,-1.15
-5.1103e-03,-0.97,-0.87
-5.1026e-03,-1.11,-1.13
-5.0949e-03,-0.99,-0.89
-5.0872e-03,-0.99,-1.09
-5.0795e-03,-0.95,-0.81
-5.0719e-03,-0.95,-1.09
-5.0642e-03,-1.07,-0.85
-5.0565e-03,-1.03,-1.07
-5.0488e-03,-0.99,-0.85
-5.0411e-03,-0.97,-1.09
-5.0334e-03,-1.03,-0.87
-5.0258e-03,-0.89,-1.15
-5.0181e-03,-1.11,-0.79
-5.0104e-03,-0.93,-1.03
-5.0027e-03,-0.87,-0.77
-4.9950e-03,-0.87,-1.07
-4.9874e-03,-0.79,-0.75
-4.9797e-03,-0.89,-0.97
-4.9720e-03,-0.87,-0.71
-4.9643e-03,-0.95,-1.03
-4.9566e-03,-0.97,-0.79
-4.9490e-03,-0.91,-1.05
-4.9413e-03,-0.81,-0.75
-4.9336e-03,-0.95,-1.13
-4.9259e-03,-1.01,-0.85
-4.9182e-03,-0.97,-1.09
-4.9106e-03,-1.01,-0.85
-4.9029e-03,-0.93,-1.07
-4.8952e-03,-0.95,-0.83
-4.8875e-03,-0.89,-1.09
-4.8798e-03,-0.99,-0.85
-4.8722e-03,-0.99,-1.05
-4.8645e-03,-0.93,-0.79
-4.8568e-03,-0.87,-1.13
-4.8491e-03,-1.01,-0.79
-4.8414e-03,-0.99,-1.17
-4.8338e-03,-0.95,-0.85
-4.8261e-03,-1.03,-1.07
-4.8184e-03,-0.99,-0.83
-4.8107e-03,-0.91,-1.11
-4.8030e-03,-0.95,-0.83
-4.7954e-03,-1.05,-1.15
-4.7877e-03,-1.07,-0.85
-4.7800e-03,-0.87,-1.13
-4.7723e-03,-1.11,-0.81
-4.7646e-03,-0.99,-1.15
-4.7570e-03,-0.97,-0.87
-4.7493e-03,-1.05,-1.11
-4.7416e-03,-0.93,-0.87
-4.7339e-03,-0.89,-1.17
-4.7262e-03,-0.93,-0.83
-4.7185e-03,-1.13,-1.15
-4.7109e-03,-0.81,-0.73
-4.7032e-03,-0.97,-1.05
-4.6955e-03,-0.91,-0.83
-4.6878e-03,-0.85,-1.11
-4.6801e-03,-0.79,-0.69
-4.6725e-03,-0.97,-1.13
-4.6648e-03,-0.97,-0.81
-4.6571e-03,-0.87,-1.15
-4.6494e-03,-0.95,-0.83
-4.6417e-03,-0.99,-1.09
-4.6341e-03,-0.93,-0.85
-4.6264e-03,-0.95,-1.05
-4.6187e-03,-0.97,-0.79
-4.6110e-03,-0.93,-1.15
-4.6033e-03,-1.05,-0.79
-4.5957e-03,-0.85,-1.07
-4.5880e-03,-0.87,-0.79
-4.5803e-03,-0.99,-1.09
-4.5726e-03,-0.99,-0.87
-4.5649e-03,-1.05,-1.11
-4.5573e-03,-1.01,-0.95
-4.5496e-03,-1.01,-1.13
-4.5419e-03,-0.97,-0.87
-4.5342e-03,-1.01,-1.05
-4.5265e-03,-0.81,-0.67
-4.5189e-03,-1.03,-1.15
-4.5112e-03,-1.01,-0.83
-4.5035e-03,-1.01,-1.07
-4.4958e-03,-0.87,-0.85
-4.4881e-03,-0.95,-1.05
-4.4805e-03,-1.01,-0.79
-4.4728e-03,-0.89,-1.11
-4.4651e-03,-0.89,-0.79
-4.4574e-03,-1.07,-1.11
-4.4497e-03,-0.99,-0.83
-4.4421e-03,-0.89,-1.03
-4.4344e-03,-0.91,-0.81
-4.4267e-03,-0.93,-1.09
-4.4190e-03,-1.05,-0.83
-4.4113e-03,-0.97,-1.07
-4.4036e-03,-0.87,-0.83
-4.3960e-03,-0.95,-1.09
-4.3883e-03,-0.95,-0.85
-4.3806e-03,-0.97,-1.05
-4.3729e-03,-0.99,-0.89
-4.3652e-03,-0.97,-1.11
-4.3576e-03,-0.95,-0.89
-4.3499e-03,-0.95,-1.09
-4.3422e-03,-0.95,-0.83
-4.3345e-03,-0.83,-1.11
-4.3268e-03,-0.95,-0.77
-4.3192e-03,-0.99,-1.13
-4.3115e-03,-1.09,-0.87
-4.3038e-03,-0.91,-1.03
-4.2961e-03,-0.83,-0.77
-4.2884e-03,-0.97,-1.07
-4.2808e-03,-0.97,-0.87
-4.2731e-03,-1.01,-1.09
-4.2654e-03,-1.01,-0.89
-4.2577e-03,-0.89,-0.97
-4.2500e-03,-0.83,-0.77
-4.2424e-03,-0.89,-1.01
-4.2347e-03,-0.89,-0.77
-4.2270e-03,-0.91,-1.13
-4.2193e-03,-1.05,-0.83
-4.2116e-03,-1.03,-1.07
-4.2040e-03,-0.91,-0.83
-4.1963e-03,-0.93,-1.13
-4.1886e-03,-1.07,-0.91
-4.1809e-03,-1.03,-1.05
-4.1732e-03,-0.93,-0.79
-4.1656e-03,-0.99,-1.09
-4.1579e-03,-0.83,-0.73
-4.1502e-03,-0.75,-0.99
-4.1425e-03,-0.81,-0.75
-4.1348e-03,-0.93,-1.05
-4.1272e-03,-0.83,-0.75
-4.1195e-03,-1.01,-1.07
-4.1118e-03,-0.99,-0.87
-4.1041e-03,-0.97,-1.09
-4.0964e-03,-0.99,-0.85
-4.0887e-03,-0.97,-1.13
-4.0811e-03,-1.07,-0.85
-4.0734e-03,-0.97,-1.09
-4.0657e-03,-1.01,-0.87
-4.0580e-03,-0.89,-1.07
-4.0503e-03,-0.93,-0.87
-4.0427e-03,-0.93,-1.07
-4.0350e-03,-0.97,-0.79
-4.0273e-03,-0.99,-1.13
-4.0196e-03,-1.03,-0.87
-4.0119e-03,-0.89,-1.05
-4.0043e-03,-0.93,-0.79
-3.9966e-03,-0.95,-1.09
-3.9889e-03,-0.85,-0.77
-3.9812e-03,-1.05,-1.13
-3.9735e-03,-1.07,-0.83
-3.9659e-03,-0.91,-1.11
-3.9582e-03,-1.01,-0.89
-3.9505e-03,-0.99,-1.15
-3.9428e-03,-1.03,-0.87
-3.9351e-03,-1.05,-1.15
-3.9275e-03,-1.03,-0.93
-3.9198e-03,-0.99,-1.07
-3.9121e-03,-0.79,-0.73
-3.9044e-03,-0.97,-1.13
-3.8967e-03,-1.03,-0.87
-3.8891e-03,-0.95,-1.11
-3.8814e-03,-1.03,-0.87
-3.8737e-03,-0.99,-1.05
-3.8660e-03,-0.91,-0.87
-3.8583e-03,-0.99,-1.09
-3.8507e-03,-0.89,-0.81
-3.8430e-03,-0.93,-1.01
-3.8353e-03,-0.95,-0.81
-3.8276e-03,-0.93,-1.05
-3.8199e-03,-0.97,-0.79
-3.8123e-03,-0.83,-1.05
-3.8046e-03,-0.91,-0.75
-3.7969e-03,-0.97,-1.09
-3.7892e-03,-0.99,-0.83
-3.7815e-03,-0.97,-1.09
-3.7738e-03,-0.99,-0.83
-3.7662e-03,-0.95,-1.07
-3.7585e-03,-0.79,-0.77
-3.7508e-03,-0.99,-1.19
-3.7431e-03,-1.03,-0.91
-3.7354e-03,-1.11,-1.15
-3.7278e-03,-1.09,-0.89
-3.7201e-03,-0.91,-1.07
-3.7124e-03,-0.87,-0.81
-3.7047e-03,-0.99,-1.09
-3.6970e-03,-0.89,-0.81
-3.6894e-03,-1.05,-1.09
-3.6817e-03,-0.99,-0.83
-3.6740e-03,-0.93,-1.09
-3.6663e-03,-0.89,-0.77
-3.6586e-03,-0.83,-1.05
-3.6510e-03,-0.95,-0.81
-3.6433e-03,-0.99,-1.09
-3.6356e-03,-1.05,-0.79
-3.6279e-03,-0.91,-1.07
-3.6202e-03,-0.89,-0.79
-3.6126e-03,-0.97,-1.11
-3.6049e-03,-1.03,-0.91
-3.5972e-03,-0.97,-1.13
-3.5895e-03,-1.07,-0.87
-3.5818e-03,-1.09,-1.15
-3.5742e-03,-0.97,-0.87
-3.5665e-03,-0.91,-1.03
-3.5588e-03,-0.91,-0.81
-3.5511e-03,-0.85,-1.01
-3.5434e-03,-0.93,-0.79
-3.5358e-03,-0.93,-1.11
-3.5281e-03,-1.07,-0.83
-3.5204e-03,-0.95,-1.11
-3.5127e-03,-1.01,-0.83
-3.5050e-03,-0.81,-1.01
-3.4974e-03,-0.89,-0.79
-3.4897e-03,-0.93,-0.95
-3.4820e-03,-0.85,-0.75
-3.4743e-03,-0.91,-1.01
-3.4666e-03,-0.81,-0.75
-3.4589e-03,-0.91,-1.05
-3.4513e-03,-0.79,-0.75
-3.4436e-03,-1.03,-1.09
-3.4359e-03,-1.01,-0.83
-3.4282e-03,-1.03,-1.15
-3.4205e-03,-1.05,-0.89
-3.4129e-03,-1.05,-1.15
-3.4052e-03,-1.01,-0.95
-3.3975e-03,-1.13,-1.19
-3.3898e-03,-0.99,-0.79
-3.3821e-03,-0.87,-1.07
-3.3745e-03,-0.89,-0.73
-3.3668e-03,-0.97,-1.11
-3.3591e-03,-0.87,-0.83
-3.3514e-03,-1.07,-1.19
-3.3437e-03,-1.05,-0.81
-3.3361e-03,-0.91,-1.03
-3.3284e-03,-0.91,-0.81
-3.3207e-03,-0.97,-1.05
-3.3130e-03,-0.87,-0.83
-3.3053e-03,-0.91,-1.05
-3.2977e-03,-1.01,-0.83
-3.2900e-03,-1.01,-1.09
-3.2823e-03,-0.95,-0.81
-3.2746e-03,-0.87,-1.13
-3.2669e-03,-0.93,-0.85
-3.2593e-03,-1.09,-1.17
-3.2516e-03,-0.95,-0.81
-3.2439e-03,-0.95,-1.01
-3.2362e-03,-0.99,-0.81
-3.2285e-03,-0.91,-1.07
-3.2209e-03,-0.93,-0.85
-3.2132e-03,-0.85,-1.03
-3.2055e-03,-0.93,-0.79
-3.1978e-03,-0.85,-1.09
-3.1901e-03,-0.89,-0.75
-3.1825e-03,-1.01,-1.15
-3.1748e-03,-0.97,-0.81
-3.1671e-03,-0.99,-1.11
-3.1594e-03,-0.95,-0.81
-3.1517e-03,-0.97,-1.07
-3.1440e-03,-0.87,-0.77
-3.1364e-03,-0.97,-1.07
-3.1287e-03,-0.97,-0.85
-3.1210e-03,-0.91,-1.13
-3.1133e-03,-1.07,-0.89
-3.1056e-03,-0.95,-1.05
-3.0980e-03,-0.95,-0.81
-3.0903e-03,-0.99,-1.07
-3.0826e-03,-0.97,-0.81
-3.0749e-03,-1.01,-1.15
-3.0672e-03,-0.81,-0.79
-3.0596e-03,-0.95,-1.11
-3.0519e-03,-0.97,-0.85
-3.0442e-03,-0.91,-1.07
-3.0365e-03,-0.95,-0.77
-3.0288e-03,-1.03,-1.11
-3.0212e-03,-0.95,-0.89
-3.0135e-03,-0.99,-1.13
-3.0058e-03,-1.07,-0.87
-2.9981e-03,-0.99,-1.03
-2.9904e-03,-0.95,-0.79
-2.9828e-03,-0.89,-1.05
-2.9751e-03,-0.97,-0.83
-2.9674e-03,-0.85,-1.01
-2.9597e-03,-0.91,-0.81
-2.9520e-03,-1.01,-1.07
-2.9444e-03,-1.01,-0.89
-2.9367e-03,-0.95,-1.05
-2.9290e-03,-0.85,-0.81
-2.9213e-03,-0.95,-1.05
-2.9136e-03,-0.93,-0.81
-2.9060e-03,-0.85,-1.05
-2.8983e-03,-0.99,-0.71
-2.8906e-03,-1.03,-1.15
-2.8829e-03,-0.99,-0.89
-2.8752e-03,-1.05,-1.13
-2.8676e-03,-0.89,-0.83
-2.8599e-03,-0.91,-1.05
-2.8522e-03,-0.91,-0.73
-2.8445e-03,-0.99,-1.07
-2.8368e-03,-0.91,-0.81
-2.8291e-03,-0.89,-0.97
-2.8215e-03,-0.87,-0.79
-2.8138e-03,-0.85,-1.03
-2.8061e-03,-0.95,-0.81
-2.7984e-03,-0.93,-1.15
-2.7907e-03,-1.09,-0.83
-2.7831e-03,-0.95,-1.09
-2.7754e-03,-0.83,-0.81
-2.7677e-03,-0.93,-1.03
-2.7600e-03,-0.95,-0.83
-2.7523e-03,-0.97,-1.07
-2.7447e-03,-1.03,-0.89
-2.7370e-03,-0.95,-1.03
-2.7293e-03,-0.87,-0.81
-2.7216e-03,-0.87,-1.11
-2.7139e-03,-1.01,-0.77
-2.7063e-03,-0.93,-1.09
-2.6986e-03,-0.99,-0.83
-2.6909e-03,-0.93,-1.17
-2.6832e-03,-0.93,-0.89
-2.6755e-03,-0.93,-1.07
-2.6679e-03,-0.89,-0.79
-2.6602e-03,-0.97,-1.03
-2.6525e-03,-0.83,-0.75
-2.6448e-03,-0.91,-1.11
-2.6371e-03,-0.99,-0.79
-2.6295e-03,-0.81,-1.13
-2.6218e-03,-0.95,-0.79
-2.6141e-03,-1.03,-1.13
-2.6064e-03,-1.01,-0.85
-2.5987e-03,-0.93,-1.07
-2.5911e-03,-1.01,-0.85
-2.5834e-03,-0.91,-1.09
-2.5757e-03,-0.95,-0.89
-2.5680e-03,-0.93,-1.07
-2.5603e-03,-0.81,-0.75
-2.5527e-03,-0.93,-1.05
-2.5450e-03,-1.01,-0.79
-2.5373e-03,-0.89,-1.05
-2.5296e-03,-0.91,-0.81
-2.5219e-03,-0.99,-1.07
-2.5142e-03,-0.93,-0.77
-2.5066e-03,-0.97,-1.01
-2.4989e-03,-0.89,-0.75
-2.4912e-03,-0.97,-1.03
-2.4835e-03,-0.87,-0.79
-2.4758e-03,-0.89,-1.07
-2.4682e-03,-1.01,-0.87
-2.4605e-03,-0.93,-1.11
-2.4528e-03,-1.05,-0.81
-2.4451e-03,-0.95,-1.09
-2.4374e-03,-0.89,-0.75
-2.4298e-03,-0.91,-1.05
-2.4221e-03,-0.95,-0.81
-2.4144e-03,-0.85,-1.17
-2.4067e-03,-1.09,-0.79
-2.3990e-03,-1.05,-1.09
-2.3914e-03,-0.97,-0.85
-2.3837e-03,-1.01,-1.09
-2.3760e-03,-0.91,-0.83
-2.3683e-03,-0.93,-1.03
-2.3606e-03,-0.89,-0.83
-2.3530e-03,-1.01,-1.07
-2.3453e-03,-0.89,-0.81
-2.3376e-03,-0.83,-1.07
-2.3299e-03,-0.93,-0.79
-2.3222e-03,-1.03,-1.13
-2.3146e-03,-0.91,-0.81
-2.3069e-03,-0.87,-0.99
-2.2992e-03,-0.95,-0.79
-2.2915e-03,-0.91,-1.15
-2.2838e-03,-1.05,-0.87
-2.2762e-03,-0.95,-1.09
-2.2685e-03,-0.95,-0.87
-2.2608e-03,-1.09,-1.11
-2.2531e-03,-0.93,-0.87
-2.2454e-03,-1.07,-1.15
-2.2378e-03,-0.93,-0.83
-2.2301e-03,-0.85,-1.07
-2.2224e-03,-0.83,-0.79
-2.2147e-03,-1.01,-1.07
-2.2070e-03,-0.91,-0.79
-2.1993e-03,-0.99,-1.11
-2.1917e-03,-0.91,-0.83
-2.1840e-03,-1.01,-1.13
-2.1763e-03,-0.93,-0.89
-2.1686e-03,-1.03,-1.07
-2.1609e-03,-0.87,-0.75
-2.1533e-03,-0.89,-1.03
-2.1456e-03,-0.93,-0.79
-2.1379e-03,-0.85,-1.13
-2.1302e-03,-1.03,-0.85
-2.1225e-03,-1.05,-1.13
-2.1149e-03,-1.03,-0.87
-2.1072e-03,-1.05,-1.07
-2.0995e-03,-0.97,-0.87
-2.0918e-03,-0.97,-1.11
-2.0841e-03,-0.97,-0.89
-2.0765e-03,-0.97,-1.09
-2.0688e-03,-0.99,-0.83
-2.0611e-03,-0.91,-1.05
-2.0534e-03,-0.95,-0.81
-2.0457e-03,-1.03,-1.13
-2.0381e-03,-0.87,-0.83
-2.0304e-03,-0.95,-1.05
-2.0227e-03,-1.01,-0.83
-2.0150e-03,-0.91,-1.05
-2.0073e-03,-0.83,-0.75
-1.9997e-03,-0.93,-1.09
-1.9920e-03,-0.89,-0.69
-1.9843e-03,-0.77,-1.09
-1.9766e-03,-1.01,-0.73
-1.9689e-03,-0.93,-1.07
-1.9613e-03,-0.87,-0.77
-1.9536e-03,-1.09,-1.13
-1.9459e-03,-1.03,-0.81
-1.9382e-03,-0.89,-1.09
-1.9305e-03,-0.89,-0.79
-1.9228e-03,-1.05,-1.11
-1.9152e-03,-1.07,-0.81
-1.9075e-03,-0.89,-1.09
-1.8998e-03,-0.93,-0.79
-1.8921e-03,-0.87,-0.97
-1.8844e-03,-0.77,-0.73
-1.8768e-03,-0.85,-1.09
-1.8691e-03,-0.97,-0.79
-1.8614e-03,-0.99,-1.11
-1.8537e-03,-1.03,-0.81
-1.8460e-03,-0.83,-1.01
-1.8384e-03,-0.83,-0.77
-1.8307e-03,-0.87,-1.09
-1.8230e-03,-0.97,-0.81
-1.8153e-03,-1.05,-1.07
-1.8076e-03,-0.89,-0.77
-1.8000e-03,-0.93,-1.21
-1.7923e-03,-1.07,-0.89
-1.7846e-03,-1.01,-1.11
-1.7769e-03,-0.87,-0.77
-1.7692e-03,-1.05,-1.17
-1.7616e-03,-1.05,-0.79
-1.7539e-03,-0.85,-1.03
-1.7462e-03,-0.89,-0.81
-1.7385e-03,-0.93,-1.05
-1.7308e-03,-0.79,-0.75
-1.7232e-03,-0.91,-0.95
-1.7155e-03,-0.87,-0.69
-1.7078e-03,-0.77,-1.07
-1.7001e-03,-0.93,-0.71
-1.6924e-03,-0.95,-1.13
-1.6848e-03,-0.79,-0.77
-1.6771e-03,-1.09,-1.13
-1.6694e-03,-0.91,-0.79
-1.6617e-03,-1.03,-1.09
-1.6540e-03,-0.93,-0.81
-1.6464e-03,-0.87,-1.03
-1.6387e-03,-0.93,-0.79
-1.6310e-03,-0.91,-0.97
-1.6233e-03,-0.91,-0.77
-1.6156e-03,-0.95,-1.05
-1.6079e-03,-0.99,-0.81
-1.6003e-03,-0.89,-1.11
-1.5926e-03,-1.01,-0.87
-1.5849e-03,-0.89,-1.17
-1.5772e-03,-0.99,-0.73
-1.5695e-03,-0.89,-1.11
-1.5619e-03,-1.01,-0.81
-1.5542e-03,-1.05,-1.09
-1.5465e-03,-0.95,-0.81
-1.5388e-03,-0.95,-1.11
-1.5311e-03,-0.93,-0.83
-1.5235e-03,-1.01,-1.11
-1.5158e-03,-1.07,-0.75
-1.5081e-03,-0.81,-1.13
-1.5004e-03,-1.03,-0.75
-1.4927e-03,-0.99,-1.11
-1.4851e-03,-0.97,-0.83
-1.4774e-03,-0.99,-1.05
-1.4697e-03,-0.93,-0.83
-1.4620e-03,-1.01,-1.07
-1.4543e-03,-0.89,-0.77
-1.4467e-03,-0.83,-0.95
-1.4390e-03,-0.85,-0.73
-1.4313e-03,-0.89,-1.11
-1.4236e-03,-1.05,-0.83
-1.4159e-03,-1.03,-1.13
-1.4083e-03,-1.01,-0.87
-1.4006e-03,-0.97,-1.07
-1.3929e-03,-0.87,-0.79
-1.3852e-03,-0.95,-1.03
-1.3775e-03,-0.91,-0.81
-1.3699e-03,-0.87,-1.13
-1.3622e-03,-0.95,-0.79
-1.3545e-03,-0.93,-1.07
-1.3468e-03,-0.95,-0.87
-1.3391e-03,-0.93,-1.01
-1.3315e-03,-0.83,-0.75
-1.3238e-03,-0.91,-1.01
-1.3161e-03,-0.95,-0.83
-1.3084e-03,-0.89,-1.13
-1.3007e-03,-1.03,-0.77
-1.2930e-03,-0.91,-1.13
-1.2854e-03,-0.91,-0.81
-1.2777e-03,-1.07,-1.13
-1.2700e-03,-1.07,-0.83
-1.2623e-03,-0.95,-1.03
-1.2546e-03,-0.89,-0.75
-1.2470e-03,-0.81,-1.03
-1.2393e-03,-0.95,-0.77
-1.2316e-03,-0.99,-1.11
-1.2239e-03,-1.01,-0.87
-1.2162e-03,-0.95,-1.07
-1.2086e-03,-0.99,-0.77
-1.2009e-03,-0.79,-1.07
-1.1932e-03,-0.97,-0.77
-1.1855e-03,-1.01,-1.13
-1.1778e-03,-1.09,-0.89
-1.1702e-03,-1.03,-1.05
-1.1625e-03,-0.85,-0.79
-1.1548e-03,-0.89,-1.03
-1.1471e-03,-0.85,-0.83
-1.1394e-03,-0.89,-1.17
-1.1318e-03,-1.09,-0.83
-1.1241e-03,-0.97,-1.13
-1.1164e-03,-0.93,-0.83
-1.1087e-03,-0.93,-1.17
-1.1010e-03,-1.07,-0.87
-1.0934e-03,-0.95,-1.11
-1.0857e-03,-0.91,-0.85
