Raw_Data/B4_Ethanol_P5.CSV

Model,DPO2002B
Firmware Version,1.52

Point Format,Y,
Horizontal Units,S,
Horizontal Scale,0.2,
Sample Interval,0.000384025,
Filter Frequency,7e+07,
Record Length,5208,
Gating,0.0% to 100.0%,
Probe Attenuation,10,
Vertical Units,V,
Vertical Offset,0.6,
Vertical Scale,0.5,
Label,,
TIME,CH1,CH1 Peak Detect
-2.0480e-01,-0.9,-1.24
-2.0442e-01,-0.92,-0.72
-2.0403e-01,-0.96,-1.24
-2.0365e-01,-1.02,-0.76
-2.0326e-01,-0.98,-1.24
-2.0288e-01,-0.98,-0.76
-2.0250e-01,-0.98,-1.24
-2.0211e-01,-1.12,-0.76
-2.0173e-01,-0.82,-1.3
-2.0134e-01,-0.92,-0.68
-2.0096e-01,-0.9,-1.26
-2.0058e-01,-1.04,-0.74
-2.0019e-01,-1.1,-1.3
-1.9981e-01,-0.96,-0.76
-1.9942e-01,-1,-1.24
-1.9904e-01,-1.06,-0.72
-1.9866e-01,-1.08,-1.22
-1.9827e-01,-1.02,-0.76
-1.9789e-01,-0.98,-1.3
-1.9750e-01,-0.9,-0.78
-1.9712e-01,-0.94,-1.24
-1.9674e-01,-1.1,-0.78
-1.9635e-01,-1.02,-1.22
-1.9597e-01,-0.94,-0.74
-1.9558e-01,-0.86,-1.22
-1.9520e-01,-1.02,-0.76
-1.9482e-01,-1.06,-1.26
-1.9443e-01,-1.02,-0.74
-1.9405e-01,-0.96,-1.32
-1.9366e-01,-0.98,-0.7
-1.9328e-01,-0.96,-1.26
-1.9290e-01,-0.98,-0.76
-1.9251e-01,-1.04,-1.3
-1.9213e-01,-1.02,-0.72
-1.9174e-01,-0.98,-1.2
-1.9136e-01,-0.96,-0.76
-1.9098e-01,-0.98,-1.2
-1.9059e-01,-0.92,-0.74
-1.9021e-01,-0.92,-1.2
-1.8982e-01,-0.92,-0.72
-1.8944e-01,-0.86,-1.24
-1.8905e-01,-0.98,-0.72
-1.8867e-01,-1.04,-1.24
-1.8829e-01,-0.98,-0.74
-1.8790e-01,-0.98,-1.22
-1.8752e-01,-1.06,-0.78
-1.8713e-01,-1.1,-1.22
-1.8675e-01,-1.02,-0.78
-1.8637e-01,-0.98,-1.24
-1.8598e-01,-0.94,-0.74
-1.8560e-01,-0.92,-1.26
-1.8521e-01,-1.08,-0.8
-1.8483e-01,-1.16,-1.28
-1.8445e-01,-1.08,-0.78
-1.8406e-01,-1.02,-1.2
-1.8368e-01,-0.98,-0.74
-1.8329e-01,-1.02,-1.22
-1.8291e-01,-1.1,-0.76
-1.8253e-01,-1.02,-1.22
-1.8214e-01,-0.94,-0.74
-1.8176e-01,-0.9,-1.3
-1.8137e-01,-0.9,-0.76
-1.8099e-01,-1.1,-1.26
-1.8061e-01,-0.92,-0.76
-1.8022e-01,-1.02,-1.26
-1.7984e-01,-1.04,-0.7
-1.7945e-01,-0.96,-1.22
-1.7907e-01,-0.94,-0.76
-1.7869e-01,-0.94,-1.26
-1.7830e-01,-1.1,-0.78
-1.7792e-01,-0.92,-1.26
-1.7753e-01,-1.02,-0.78
-1.7715e-01,-0.96,-1.28
-1.7677e-01,-1,-0.78
-1.7638e-01,-0.9,-1.22
-1.7600e-01,-1,-0.78
-1.7561e-01,-0.94,-1.26
-1.7523e-01,-0.96,-0.76
-1.7485e-01,-1.08,-1.28
-1.7446e-01,-0.9,-0.76
-1.7408e-01,-0.98,-1.26
-1.7369e-01,-0.88,-0.74
-1.7331e-01,-1.04,-1.22
-1.7293e-01,-1.04,-0.72
-1.7254e-01,-1.08,-1.28
-1.7216e-01,-0.94,-0.74
-1.7177e-01,-0.9,-1.24
-1.7139e-01,-1.14,-0.76
-1.7101e-01,-1.06,-1.18
-1.7062e-01,-1.08,-0.78
-1.7024e-01,-1,-1.24
-1.6985e-01,-0.96,-0.72
-1.6947e-01,-0.9,-1.24
-1.6909e-01,-1.02,-0.76
-1.6870e-01,-1.04,-1.26
-1.6832e-01,-1.04,-0.74
-1.6793e-01,-1.04,-1.24
-1.6755e-01,-1.02,-0.78
-1.6717e-01,-1.08,-1.26
-1.6678e-01,-1.16,-0.74
-1.6640e-01,-1.06,-1.28
-1.6601e-01,-0.9,-0.76
-1.6563e-01,-1.06,-1.24
-1.6525e-01,-1,-0.74
-1.6486e-01,-0.94,-1.24
-1.6448e-01,-0.88,-0.78
-1.6409e-01,-1,-1.26
-1.6371e-01,-0.94,-0.74
-1.6333e-01,-0.96,-1.26
-1.6294e-01,-1.08,-0.74
-1.6256e-01,-1.02,-1.2
-1.6217e-01,-0.98,-0.76
-1.6179e-01,-0.98,-1.2
-1.6141e-01,-1.06,-0.74
-1.6102e-01,-0.94,-1.28
-1.6064e-01,-1.08,-0.78
-1.6025e-01,-1.04,-1.26
-1.5987e-01,-0.82,-0.76
-1.5949e-01,-1.1,-1.22
-1.5910e-01,-1.08,-0.76
-1.5872e-01,-0.96,-1.22
-1.5833e-01,-0.96,-0.76
-1.5795e-01,-0.94,-1.3
-1.5756e-01,-0.96,-0.76
-1.5718e-01,-1.12,-1.26
-1.5680e-01,-1,-0.78
-1.5641e-01,-0.88,-1.28
-1.5603e-01,-1.04,-0.76
-1.5564e-01,-0.92,-1.22
-1.5526e-01,-1.04,-0.74
-1.5488e-01,-1.02,-1.24
-1.5449e-01,-0.96,-0.72
-1.5411e-01,-0.9,-1.22
-1.5372e-01,-0.9,-0.72
-1.5334e-01,-1.06,-1.26
-1.5296e-01,-1.02,-0.76
-1.5257e-01,-1.1,-1.26
-1.5219e-01,-0.92,-0.76
-1.5180e-01,-0.96,-1.26
-1.5142e-01,-1.04,-0.74
-1.5104e-01,-1.06,-1.32
-1.5065e-01,-1.02,-0.76
-1.5027e-01,-1.04,-1.3
-1.4988e-01,-1.16,-0.74
-1.4950e-01,-1.08,-1.28
-1.4912e-01,-1.1,-0.74
-1.4873e-01,-1.06,-1.26
-1.4835e-01,-0.98,-0.78
-1.4796e-01,-0.98,-1.22
-1.4758e-01,-0.94,-0.74
-1.4720e-01,-0.98,-1.22
-1.4681e-01,-1.04,-0.74
-1.4643e-01,-0.98,-1.26
-1.4604e-01,-0.86,-0.72
-1.4566e-01,-1,-1.26
-1.4528e-01,-0.96,-0.76
-1.4489e-01,-1.04,-1.24
-1.4451e-01,-0.98,-0.74
-1.4412e-01,-1,-1.26
-1.4374e-01,-0.88,-0.74
-1.4336e-01,-0.96,-1.24
-1.4297e-01,-1.04,-0.8
-1.4259e-01,-0.96,-1.22
-1.4220e-01,-1.08,-0.76
-1.4182e-01,-0.94,-1.22
-1.4144e-01,-1.06,-0.76
-1.4105e-01,-1,-1.3
-1.4067e-01,-0.9,-0.8
-1.4028e-01,-1.02,-1.3
-1.3990e-01,-1.08,-0.72
-1.3952e-01,-1.02,-1.22
-1.3913e-01,-1,-0.8
-1.3875e-01,-0.9,-1.22
-1.3836e-01,-0.96,-0.74
-1.3798e-01,-0.98,-1.26
-1.3760e-01,-0.94,-0.74
-1.3721e-01,-1,-1.24
-1.3683e-01,-1.04,-0.76
-1.3644e-01,-1.02,-1.24
-1.3606e-01,-1,-0.7
-1.3568e-01,-0.98,-1.26
-1.3529e-01,-0.88,-0.74
-1.3491e-01,-1.08,-1.22
-1.3452e-01,-1,-0.76
-1.3414e-01,-1.06,-1.26
-1.3376e-01,-1,-0.78
-1.3337e-01,-0.98,-1.24
-1.3299e-01,-0.88,-0.74
-1.3260e-01,-0.96,-1.22
-1.3222e-01,-0.98,-0.76
-1.3184e-01,-1.02,-1.24
-1.3145e-01,-1.02,-0.74
-1.3107e-01,-1.04,-1.26
-1.3068e-01,-0.96,-0.7
-1.3030e-01,-0.98,-1.26
-1.2992e-01,-0.9,-0.72
-1.2953e-01,-1.02,-1.28
-1.2915e-01,-0.96,-0.74
-1.2876e-01,-0.96,-1.28
-1.2838e-01,-0.94,-0.74
-1.2800e-01,-0.94,-1.22
-1.2761e-01,-1.06,-0.76
-1.2723e-01,-1.02,-1.28
-1.2684e-01,-0.94,-0.76
-1.2646e-01,-0.96,-1.24
-1.2607e-01,-1.08,-0.76
-1.2569e-01,-1.04,-1.24
-1.2531e-01,-1,-0.74
-1.2492e-01,-0.92,-1.32
-1.2454e-01,-0.98,-0.72
-1.2415e-01,-1.28,-1.3
-1.2377e-01,-0.96,-0.74
-1.2339e-01,-1.1,-1.24
-1.2300e-01,-0.78,-0.74
-1.2262e-01,-0.94,-1.22
-1.2223e-01,-1.06,-0.74
-1.2185e-01,-1.06,-1.28
-1.2147e-01,-1,-0.76
-1.2108e-01,-0.9,-1.26
-1.2070e-01,-1.08,-0.72
-1.2031e-01,-0.94,-1.26
-1.1993e-01,-1.04,-0.74
-1.1955e-01,-1.02,-1.28
-1.1916e-01,-0.84,-0.7
-1.1878e-01,-0.92,-1.26
-1.1839e-01,-1.02,-0.76
-1.1801e-01,-1,-1.22
-1.1763e-01,-1.04,-0.76
-1.1724e-01,-0.94,-1.32
-1.1686e-01,-0.92,-0.76
-1.1647e-01,-0.94,-1.22
-1.1609e-01,-0.92,-0.74
-1.1571e-01,-1,-1.22
-1.1532e-01,-0.96,-0.74
-1.1494e-01,-1.06,-1.26
-1.1455e-01,-0.94,-0.72
-1.1417e-01,-1.12,-1.26
-1.1379e-01,-1.06,-0.74
-1.1340e-01,-0.88,-1.22
-1.1302e-01,-0.98,-0.76
-1.1263e-01,-0.96,-1.26
-1.1225e-01,-0.92,-0.76
-1.1187e-01,-0.98,-1.26
-1.1148e-01,-0.98,-0.78
-1.1110e-01,-1.02,-1.26
-1.1071e-01,-1.04,-0.78
-1.1033e-01,-1.14,-1.26
-1.0995e-01,-1.06,-0.8
-1.0956e-01,-0.82,-1.24
-1.0918e-01,-0.94,-0.76
-1.0879e-01,-0.94,-1.28
-1.0841e-01,-1.04,-0.74
-1.0803e-01,-0.94,-1.3
-1.0764e-01,-0.88,-0.76
-1.0726e-01,-1.12,-1.22
-1.0687e-01,-1.06,-0.7
-1.0649e-01,-0.9,-1.26
-1.0611e-01,-1.08,-0.74
-1.0572e-01,-1.04,-1.3
-1.0534e-01,-1.04,-0.78
-1.0495e-01,-0.94,-1.24
-1.0457e-01,-1,-0.72
-1.0419e-01,-0.98,-1.26
-1.0380e-01,-1,-0.78
-1.0342e-01,-1.06,-1.32
-1.0303e-01,-0.96,-0.78
-1.0265e-01,-1,-1.32
-1.0227e-01,-1.02,-0.76
-1.0188e-01,-1.02,-1.28
-1.0150e-01,-1.06,-0.78
-1.0111e-01,-0.86,-1.26
-1.0073e-01,-0.98,-0.76
-1.0035e-01,-1.16,-1.28
-9.9961e-02,-0.98,-0.78
-9.9577e-02,-1,-1.26
-9.9193e-02,-1.04,-0.74
-9.8809e-02,-1,-1.24
-9.8425e-02,-1.04,-0.74
-9.8041e-02,-1.06,-1.24
-9.7657e-02,-1.02,-0.76
-9.7273e-02,-1,-1.24
-9.6889e-02,-0.98,-0.74
-9.6505e-02,-0.96,-1.24
-9.6121e-02,-1.04,-0.74
-9.5737e-02,-1.02,-1.26
-9.5353e-02,-0.96,-0.8
-9.4969e-02,-0.96,-1.28
-9.4585e-02,-1.24,-0.74
-9.4201e-02,-0.94,-1.22
-9.3817e-02,-1.06,-0.8
-9.3433e-02,-1.1,-1.24
-9.3049e-02,-1.02,-0.76
-9.2665e-02,-1.02,-1.24
-9.2281e-02,-1.08,-0.76
-9.1897e-02,-0.98,-1.22
-9.1513e-02,-0.96,-0.78
-9.1129e-02,-0.86,-1.22
-9.0745e-02,-1.12,-0.76
-9.0361e-02,-1.06,-1.22
-8.9977e-02,-0.9,-0.76
-8.9593e-02,-0.92,-1.32
-8.9209e-02,-1.08,-0.8
-8.8825e-02,-1,-1.26
-8.8441e-02,-1.02,-0.76
-8.8057e-02,-0.96,-1.22
-8.7673e-02,-0.94,-0.78
-8.7288e-02,-0.92,-1.22
-8.6904e-02,-0.88,-0.74
-8.6520e-02,-1.16,-1.26
-8.6136e-02,-1.08,-0.78
-8.5752e-02,-0.98,-1.3
-8.5368e-02,-0.94,-0.76
-8.4984e-02,-1,-1.24
-8.4600e-02,-1.04,-0.74
-8.4216e-02,-0.94,-1.32
-8.3832e-02,-0.96,-0.78
-8.3448e-02,-1.06,-1.28
-8.3064e-02,-1.06,-0.74
-8.2680e-02,-1.04,-1.24
-8.2296e-02,-1.02,-0.76
-8.1912e-02,-0.96,-1.22
-8.1528e-02,-0.92,-0.78
-8.1144e-02,-1.02,-1.24
-8.0760e-02,-0.94,-0.72
-8.0376e-02,-0.96,-1.24
-7.9992e-02,-1,-0.76
-7.9608e-02,-1.06,-1.26
-7.9224e-02,-1.16,-0.78
-7.8840e-02,-1.02,-1.26
-7.8456e-02,-1.06,-0.78
-7.8072e-02,-1.02,-1.24
-7.7688e-02,-0.96,-0.76
-7.7304e-02,-0.96,-1.28
-7.6920e-02,-1.02,-0.76
-7.6536e-02,-1,-1.26
-7.6152e-02,-0.96,-0.78
-7.5768e-02,-0.98,-1.26
-7.5384e-02,-0.98,-0.76
-7.5000e-02,-0.96,-1.24
-7.4616e-02,-1.02,-0.72
-7.4232e-02,-1,-1.24
-7.3848e-02,-0.96,-0.76
-7.3464e-02,-0.98,-1.22
-7.3080e-02,-1.06,-0.64
-7.2696e-02,-0.94,-1.22
-7.2312e-02,-0.92,-0.72
-7.1927e-02,-1.06,-1.22
-7.1543e-02,-1,-0.7
-7.1159e-02,-1.08,-1.22
-7.0775e-02,-1.02,-0.8
-7.0391e-02,-0.9,-1.24
-7.0007e-02,-0.94,-0.72
-6.9623e-02,-1.06,-1.24
-6.9239e-02,-0.88,-0.74
-6.8855e-02,-0.84,-1.26
-6.8471e-02,-0.88,-0.74
-6.8087e-02,-0.92,-1.22
-6.7703e-02,-1.04,-0.8
-6.7319e-02,-1.02,-1.3
-6.6935e-02,-1.1,-0.76
-6.6551e-02,-1,-1.26
-6.6167e-02,-1.1,-0.72
-6.5783e-02,-1,-1.24
-6.5399e-02,-1,-0.76
-6.5015e-02,-0.92,-1.24
-6.4631e-02,-0.98,-0.76
-6.4247e-02,-1,-1.26
-6.3863e-02,-1.04,-0.7
-6.3479e-02,-1.06,-1.2
-6.3095e-02,-1.02,-0.72
-6.2711e-02,-0.98,-1.28
-6.2327e-02,-0.98,-0.78
-6.1943e-02,-1.04,-1.28
-6.1559e-02,-0.98,-0.72
-6.1175e-02,-1.14,-1.24
-6.0791e-02,-1,-0.78
-6.0407e-02,-0.92,-1.34
-6.0023e-02,-1.04,-0.78
-5.9639e-02,-0.9,-1.26
-5.9255e-02,-0.96,-0.72
-5.8871e-02,-1.1,-1.22
-5.8487e-02,-0.92,-0.76
-5.8103e-02,-0.86,-1.22
-5.7719e-02,-0.94,-0.72
-5.7335e-02,-1,-1.2
-5.6951e-02,-1.06,-0.76
-5.6567e-02,-1,-1.26
-5.6182e-02,-0.96,-0.7
-5.5798e-02,-1,-1.26
-5.5414e-02,-0.94,-0.76
-5.5030e-02,-1.06,-1.24
-5.4646e-02,-1,-0.68
-5.4262e-02,-1.02,-1.28
-5.3878e-02,-1.08,-0.76
-5.3494e-02,-1.04,-1.28
-5.3110e-02,-0.98,-0.74
-5.2726e-02,-0.94,-1.28
-5.2342e-02,-0.9,-0.74
-5.1958e-02,-0.9,-1.28
-5.1574e-02,-0.98,-0.72
-5.1190e-02,-0.96,-1.24
-5.0806e-02,-1.1,-0.68
-5.0422e-02,-1,-1.22
-5.0038e-02,-0.98,-0.74
-4.9654e-02,-1.1,-1.22
-4.9270e-02,-1.1,-0.76
-4.8886e-02,-1,-1.24
-4.8502e-02,-0.92,-0.74
-4.8118e-02,-0.8,-1.26
-4.7734e-02,-0.98,-0.76
-4.7350e-02,-1.06,-1.22
-4.6966e-02,-0.92,-0.72
-4.6582e-02,-0.96,-1.22
-4.6198e-02,-1.06,-0.74
-4.5814e-02,-1,-1.28
-4.5430e-02,-1.08,-0.74
-4.5046e-02,-1.12,-1.24
-4.4662e-02,-1,-0.76
-4.4278e-02,-1,-1.22
-4.3894e-02,-1.02,-0.74
-4.3510e-02,-1.02,-1.26
-4.3126e-02,-0.92,-0.76
-4.2742e-02,-1,-1.26
-4.2358e-02,-0.98,-0.74
-4.1974e-02,-0.98,-1.22
-4.1590e-02,-1.1,-0.72
-4.1206e-02,-0.98,-1.3
-4.0822e-02,-0.96,-0.78
-4.0437e-02,-1.12,-1.24
-4.0053e-02,-1.1,-0.76
-3.9669e-02,-0.94,-1.22
-3.9285e-02,-0.96,-0.74
-3.8901e-02,-0.98,-1.24
-3.8517e-02,-1.02,-0.74
-3.8133e-02,-1,-1.28
-3.7749e-02,-1.04,-0.72
-3.7365e-02,-1.12,-1.26
-3.6981e-02,-0.96,-0.76
-3.6597e-02,-1.02,-1.22
-3.6213e-02,-1.04,-0.76
-3.5829e-02,-1.08,-1.22
-3.5445e-02,-0.96,-0.76
-3.5061e-02,-0.92,-1.24
-3.4677e-02,-1.02,-0.72
-3.4293e-02,-0.96,-1.24
-3.3909e-02,-0.96,-0.74
-3.3525e-02,-1.1,-1.24
-3.3141e-02,-0.96,-0.72
-3.2757e-02,-1.04,-1.2
-3.2373e-02,-0.98,-0.76
-3.1989e-02,-1,-1.28
-3.1605e-02,-0.96,-0.74
-3.1221e-02,-0.94,-1.26
-3.0837e-02,-1.04,-0.76
-3.0453e-02,-1.02,-1.26
-3.0069e-02,-1.04,-0.72
-2.9685e-02,-1,-1.24
-2.9301e-02,-0.98,-0.72
-2.8917e-02,-1.04,-1.24
-2.8533e-02,-0.98,-0.7
-2.8149e-02,-1,-1.24
-2.7765e-02,-1.02,-0.78
-2.7381e-02,-1.08,-1.22
-2.6997e-02,-1.08,-0.74
-2.6613e-02,-0.92,-1.26
-2.6229e-02,-0.96,-0.7
-2.5845e-02,-1,-1.24
-2.5461e-02,-1,-0.74
-2.5076e-02,-1,-1.22
-2.4692e-02,-0.96,-0.72
-2.4308e-02,-0.98,-1.24
-2.3924e-02,-1.14,-0.78
-2.3540e-02,-1.06,-1.22
-2.3156e-02,-1.04,-0.72
-2.2772e-02,-0.88,-1.28
-2.2388e-02,-0.88,-0.74
-2.2004e-02,-1.04,-1.2
-2.1620e-02,-0.96,-0.74
-2.1236e-02,-0.92,-1.26
-2.0852e-02,-1.06,-0.76
-2.0468e-02,-0.98,-1.26
-2.0084e-02,-1,-0.74
-1.9700e-02,-1.02,-1.26
-1.9316e-02,-0.98,-0.82
-1.8932e-02,-1,-1.28
-1.8548e-02,-0.92,-0.76
-1.8164e-02,-1,-1.24
-1.7780e-02,-1.02,-0.76
-1.7396e-02,-1.02,-1.24
-1.7012e-02,-0.92,-0.78
-1.6628e-02,-0.98,-1.24
-1.6244e-02,-1.14,-0.7
-1.5860e-02,-1.1,-1.24
-1.5476e-02,-1.04,-0.74
-1.5092e-02,-0.86,-1.28
-1.4708e-02,-1.02,-0.78
-1.4324e-02,-1.02,-1.28
-1.3940e-02,-1.04,-0.72
-1.3556e-02,-0.98,-1.24
-1.3172e-02,-0.98,-0.74
-1.2788e-02,-0.88,-1.32
-1.2404e-02,-1.06,-0.78
-1.2020e-02,-1.04,-1.24
-1.1636e-02,-1.02,-0.76
-1.1252e-02,-1.02,-1.24
-1.0868e-02,-1.08,-0.8
-1.0484e-02,-0.92,-1.24
-1.0100e-02,-1.04,-0.72
-9.7155e-03,-1.02,-1.28
-9.3315e-03,-1.08,-0.76
-8.9475e-03,-0.92,-1.28
-8.5634e-03,-0.94,-0.76
-8.1794e-03,-1.02,-1.26
-7.7954e-03,-1,-0.78
-7.4114e-03,-0.94,-1.2
-7.0273e-03,-1.08,-0.76
-6.6433e-03,-1.04,-1.24
-6.2593e-03,-1.06,-0.72
-5.8753e-03,-0.92,-1.2
-5.4912e-03,-0.94,-0.76
-5.1072e-03,-0.82,-1.22
-4.7232e-03,-0.94,-0.72
-4.3392e-03,-0.94,-1.28
-3.9551e-03,-1.14,-0.74
-3.5711e-03,-0.92,-1.26
-3.1871e-03,-0.9,-0.76
-2.8031e-03,-0.96,-1.22
-2.4190e-03,-1.08,-0.76
-2.0350e-03,-1.04,-1.28
-1.6510e-03,-1.04,-0.74
-1.2670e-03,-0.98,-1.26
-8.8295e-04,-1,-0.74
-4.9892e-04,-0.96,-3.52
-1.1490e-04,1.56,1.56
2.6912e-04,-0.98,-1.2
6.5315e-04,-0.96,-0.62
1.0372e-03,-0.98,-1.14
1.4212e-03,-1.06,-0.64
1.8052e-03,-0.96,-1.28
2.1892e-03,-0.9,-0.66
2.5733e-03,-0.9,-1.22
2.9573e-03,-0.88,-0.68
3.3413e-03,-1,-1.2
3.7253e-03,-1.02,-0.74
4.1094e-03,-1,-1.22
4.4934e-03,-0.82,-0.72
4.8774e-03,-1.02,-1.24
5.2614e-03,-0.94,-0.76
5.6455e-03,-0.98,-1.24
6.0295e-03,-0.94,-0.74
6.4135e-03,-1.08,-1.26
6.7975e-03,-0.88,-0.64
7.1816e-03,-0.98,-1.28
7.5656e-03,-1.1,-0.72
7.9496e-03,-0.94,-1.22
8.3336e-03,-0.86,-0.72
8.7177e-03,-1.1,-1.26
9.1017e-03,-0.92,-0.78
9.4857e-03,-1.04,-1.18
9.8697e-03,-1,-0.72
1.0254e-02,-0.98,-1.22
1.0638e-02,-0.92,-0.74
1.1022e-02,-0.92,-1.26
1.1406e-02,-0.86,-0.7
1.1790e-02,-1.06,-1.22
1.2174e-02,-0.96,-0.74
1.2558e-02,-0.98,-1.26
1.2942e-02,-0.96,-0.74
1.3326e-02,-0.98,-1.24
1.3710e-02,-0.96,-0.74
1.4094e-02,-0.98,-1.28
1.4478e-02,-1,-0.7
1.4862e-02,-0.9,-1.22
1.5246e-02,-1.14,-0.7
1.5630e-02,-1,-1.26
1.6014e-02,-0.98,-0.76
1.6398e-02,-1,-1.28
1.6782e-02,-1.14,-0.72
1.7166e-02,-0.96,-1.22
1.7550e-02,-0.88,-0.7
1.7934e-02,-1.04,-1.22
1.8318e-02,-0.94,-0.74
1.8702e-02,-0.96,-1.26
1.9086e-02,-0.94,-0.7
1.9470e-02,-1.02,-1.26
1.9854e-02,-1.02,-0.7
2.0238e-02,-0.98,-1.24
2.0622e-02,-0.92,-0.72
2.1006e-02,-0.86,-1.18
2.1390e-02,-1.06,-0.76
2.1775e-02,-0.82,-1.24
2.2159e-02,-0.92,-0.7
2.2543e-02,-1.06,-1.2
2.2927e-02,-0.88,-0.74
2.3311e-02,-0.94,-1.26
2.3695e-02,-0.96,-0.78
2.4079e-02,-0.92,-1.22
2.4463e-02,-0.94,-0.74
2.4847e-02,-1.14,-1.22
2.5231e-02,-1.04,-0.76
2.5615e-02,-0.98,-1.24
2.5999e-02,-0.92,-0.76
2.6383e-02,-1.04,-1.22
2.6767e-02,-1,-0.66
2.7151e-02,-1.1,-1.22
2.7535e-02,-1.08,-0.74
2.7919e-02,-0.9,-1.22
2.8303e-02,-1,-0.74
2.8687e-02,-0.96,-1.22
2.9071e-02,-0.96,-0.74
2.9455e-02,-1.1,-1.28
2.9839e-02,-0.98,-0.66
3.0223e-02,-0.92,-1.22
3.0607e-02,-1.04,-0.7
3.0991e-02,-1.1,-1.26
3.1375e-02,-0.96,-0.7
3.1759e-02,-1,-1.24
3.2143e-02,-0.92,-0.68
3.2527e-02,-1,-1.2
3.2911e-02,-1.12,-0.72
3.3295e-02,-1.06,-1.24
3.3679e-02,-0.94,-0.72
3.4063e-02,-0.9,-1.24
3.4447e-02,-1.02,-0.78
3.4831e-02,-1,-1.2
3.5215e-02,-0.98,-0.74
3.5599e-02,-1.04,-1.2
3.5983e-02,-0.9,-0.72
3.6367e-02,-0.98,-1.18
3.6751e-02,-0.98,-0.72
3.7135e-02,-1.08,-1.26
3.7520e-02,-0.96,-0.76
3.7904e-02,-0.88,-1.2
3.8288e-02,-0.96,-0.72
3.8672e-02,-1,-1.24
3.9056e-02,-1.02,-0.76
3.9440e-02,-0.98,-1.22
3.9824e-02,-0.88,-0.76
4.0208e-02,-0.88,-1.22
4.0592e-02,-1.06,-0.72
4.0976e-02,-1,-1.22
4.1360e-02,-0.9,-0.74
4.1744e-02,-0.96,-1.26
4.2128e-02,-0.94,-0.7
4.2512e-02,-0.92,-1.22
4.2896e-02,-0.94,-0.7
4.3280e-02,-0.92,-1.26
4.3664e-02,-1.04,-0.7
4.4048e-02,-0.88,-1.22
4.4432e-02,-0.94,-0.68
4.4816e-02,-0.94,-1.24
4.5200e-02,-0.92,-0.76
4.5584e-02,-1.08,-1.22
4.5968e-02,-0.92,-0.66
4.6352e-02,-1,-1.26
4.6736e-02,-0.86,-0.74
4.7120e-02,-1.04,-1.24
4.7504e-02,-1,-0.74
4.7888e-02,-0.86,-1.22
4.8272e-02,-1.04,-0.76
4.8656e-02,-1,-1.28
4.9040e-02,-1.06,-0.76
4.9424e-02,-1,-1.24
4.9808e-02,-0.9,-0.76
5.0192e-02,-0.98,-1.22
5.0576e-02,-1.02,-0.74
5.0960e-02,-0.94,-1.22
5.1344e-02,-0.9,-0.72
5.1728e-02,-0.88,-1.22
5.2112e-02,-0.84,-0.72
5.2496e-02,-1,-1.18
5.2880e-02,-1.02,-0.74
5.3265e-02,-0.94,-1.2
5.3649e-02,-0.94,-0.7
5.4033e-02,-1,-1.22
5.4417e-02,-0.96,-0.74
5.4801e-02,-0.92,-1.26
5.5185e-02,-0.9,-0.68
5.5569e-02,-1.06,-1.24
5.5953e-02,-0.92,-0.72
5.6337e-02,-0.98,-1.26
5.6721e-02,-1,-0.74
5.7105e-02,-1,-1.26
5.7489e-02,-1.08,-0.76
5.7873e-02,-0.96,-1.22
5.8257e-02,-1.02,-0.74
5.8641e-02,-0.96,-1.24
5.9025e-02,-0.9,-0.7
5.9409e-02,-0.96,-1.22
5.9793e-02,-1,-0.68
6.0177e-02,-1,-1.24
6.0561e-02,-1.12,-0.7
6.0945e-02,-0.96,-1.22
6.1329e-02,-0.88,-0.74
6.1713e-02,-0.86,-1.22
6.2097e-02,-0.94,-0.72
6.2481e-02,-1.04,-1.22
6.2865e-02,-0.98,-0.7
6.3249e-02,-1.12,-1.24
6.3633e-02,-0.98,-0.74
6.4017e-02,-0.9,-1.24
6.4401e-02,-1.1,-0.72
6.4785e-02,-1.08,-1.22
6.5169e-02,-1.06,-0.74
6.5553e-02,-0.94,-1.22
6.5937e-02,-0.94,-0.76
6.6321e-02,-0.96,-1.22
6.6705e-02,-1.06,-0.68
6.7089e-02,-0.94,-1.2
6.7473e-02,-1.02,-0.72
6.7857e-02,-1.08,-1.24
6.8241e-02,-1.06,-0.72
6.8625e-02,-1.02,-1.2
6.9010e-02,-0.94,-0.72
6.9394e-02,-1.08,-1.2
6.9778e-02,-0.96,-0.68
7.0162e-02,-1.02,-1.2
7.0546e-02,-0.98,-0.72
7.0930e-02,-1.04,-1.22
7.1314e-02,-1,-0.68
7.1698e-02,-0.94,-1.26
7.2082e-02,-1.02,-0.66
7.2466e-02,-0.98,-1.22
7.2850e-02,-0.96,-0.76
7.3234e-02,-0.82,-1.22
7.3618e-02,-0.84,-0.7
7.4002e-02,-1.02,-1.22
7.4386e-02,-0.86,-0.66
7.4770e-02,-0.96,-1.24
7.5154e-02,-1.02,-0.74
7.5538e-02,-0.92,-1.2
7.5922e-02,-0.94,-0.72
7.6306e-02,-1.04,-1.18
7.6690e-02,-1.08,-0.66
7.7074e-02,-0.82,-1.2
7.7458e-02,-0.9,-0.72
7.7842e-02,-0.98,-1.18
7.8226e-02,-0.96,-0.74
7.8610e-02,-1.02,-1.26
7.8994e-02,-0.9,-0.72
7.9378e-02,-0.96,-1.28
7.9762e-02,-0.94,-0.74
8.0146e-02,-1.08,-1.28
8.0530e-02,-1,-0.76
8.0914e-02,-1.02,-1.24
8.1298e-02,-0.94,-0.7
8.1682e-02,-1.08,-1.22
8.2066e-02,-1.02,-0.74
8.2450e-02,-1,-1.24
8.2834e-02,-0.94,-0.74
8.3218e-02,-1,-1.22
8.3602e-02,-0.96,-0.74
8.3986e-02,-1.1,-1.22
8.4371e-02,-1.04,-0.72
8.4755e-02,-0.9,-1.18
8.5139e-02,-0.92,-0.72
8.5523e-02,-0.98,-1.24
8.5907e-02,-1.02,-0.7
8.6291e-02,-0.98,-1.24
8.6675e-02,-0.96,-0.72
8.7059e-02,-0.9,-1.22
8.7443e-02,-0.94,-0.7
8.7827e-02,-0.94,-1.2
8.8211e-02,-0.92,-0.7
8.8595e-02,-0.88,-1.18
8.8979e-02,-0.96,-0.76
8.9363e-02,-0.96,-1.26
8.9747e-02,-1,-0.74
9.0131e-02,-0.9,-1.2
9.0515e-02,-0.86,-0.66
9.0899e-02,-0.92,-1.22
9.1283e-02,-0.92,-0.72
9.1667e-02,-1.02,-1.2
9.2051e-02,-0.98,-0.68
9.2435e-02,-1.02,-1.2
9.2819e-02,-0.94,-0.74
9.3203e-02,-0.88,-1.22
9.3587e-02,-0.96,-0.72
9.3971e-02,-1.08,-1.22
9.4355e-02,-0.92,-0.74
9.4739e-02,-0.88,-1.24
9.5123e-02,-0.78,-0.72
9.5507e-02,-0.88,-1.2
9.5891e-02,-0.94,-0.74
9.6275e-02,-0.86,-1.22
9.6659e-02,-0.96,-0.72
9.7043e-02,-0.9,-1.22
9.7427e-02,-0.96,-0.72
9.7811e-02,-0.86,-1.24
9.8195e-02,-0.92,-0.76
9.8579e-02,-1,-1.22
9.8963e-02,-0.88,-0.72
9.9347e-02,-0.94,-1.2
9.9731e-02,-1.04,-0.74
1.0012e-01,-0.92,-1.2
1.0050e-01,-0.92,-0.76
1.0088e-01,-0.96,-1.22
1.0127e-01,-1.04,-0.74
1.0165e-01,-1.06,-1.26
1.0204e-01,-1,-0.72
1.0242e-01,-0.94,-1.22
1.0280e-01,-0.98,-0.7
1.0319e-01,-0.94,-1.18
1.0357e-01,-0.88,-0.74
1.0396e-01,-0.96,-1.2
1.0434e-01,-0.92,-0.74
1.0472e-01,-1.04,-1.24
1.0511e-01,-0.88,-0.74
1.0549e-01,-0.96,-1.22
1.0588e-01,-1.02,-0.7
1.0626e-01,-1.02,-1.32
1.0664e-01,-0.94,-0.78
1.0703e-01,-0.98,-1.26
1.0741e-01,-1,-0.74
1.0780e-01,-0.92,-1.2
1.0818e-01,-1,-0.72
1.0856e-01,-1.02,-1.18
1.0895e-01,-0.98,-0.72
1.0933e-01,-1.02,-1.2
1.0972e-01,-1.16,-0.74
1.1010e-01,-0.98,-1.24
1.1048e-01,-0.9,-0.76
1.1087e-01,-0.98,-1.22
1.1125e-01,-1.02,-0.74
1.1164e-01,-0.98,-1.22
1.1202e-01,-1.1,-0.62
1.1240e-01,-0.96,-1.2
1.1279e-01,-1.08,-0.74
1.1317e-01,-1.04,-1.22
1.1356e-01,-1.02,-0.74
1.1394e-01,-1.02,-1.2
1.1432e-01,-0.96,-0.72
1.1471e-01,-0.94,-1.26
1.1509e-01,-1.14,-0.72
1.1548e-01,-1.14,-1.2
1.1586e-01,-0.98,-0.76
1.1624e-01,-1.22,-1.3
1.1663e-01,-0.94,-0.7
1.1701e-01,-0.9,-1.22
1.1740e-01,-1.04,-0.7
1.1778e-01,-1,-1.2
1.1816e-01,-0.88,-0.7
1.1855e-01,-0.92,-1.24
1.1893e-01,-0.98,-0.68
1.1932e-01,-0.92,-1.22
1.1970e-01,-0.98,-0.68
1.2008e-01,-0.88,-1.26
1.2047e-01,-0.92,-0.74
1.2085e-01,-1,-1.22
1.2124e-01,-0.92,-0.7
1.2162e-01,-0.98,-1.26
1.2200e-01,-0.84,-0.74
