Raw_Data/B4_Rubber_P2.CSV

Model,DPO2002B
Firmware Version,1.52

Point Format,Y,
Horizontal Units,S,
Horizontal Scale,0.01,
Sample Interval,1.92012e-05,
Filter Frequency,7e+07,
Record Length,5208,
Gating,0.0% to 100.0%,
Probe Attenuation,10,
Vertical Units,V,
Vertical Offset,0.6,
Vertical Scale,0.5,
Label,,
TIME,CH1,CH1 Peak Detect
-1.024e-02,-0.92,-1.08
-1.022e-02,-0.88,-0.8
-1.020e-02,-1,-1.16
-1.018e-02,-1.06,-0.88
-1.016e-02,-0.98,-1.18
-1.014e-02,-1.1,-0.94
-1.012e-02,-0.96,-1.14
-1.011e-02,-0.98,-0.88
-1.009e-02,-1.02,-1.16
-1.007e-02,-0.92,-0.86
-1.005e-02,-1.08,-1.16
-1.003e-02,-0.82,-0.76
-1.001e-02,-1.02,-1.28
-9.990e-03,-1.16,-0.82
-9.971e-03,-0.88,-1.14
-9.952e-03,-1,-0.84
-9.933e-03,-1,-1.14
-9.914e-03,-0.86,-0.78
-9.894e-03,-1.08,-1.2
-9.875e-03,-1,-0.8
-9.856e-03,-0.98,-1.2
-9.837e-03,-1.08,-0.88
-9.818e-03,-0.98,-1.22
-9.798e-03,-1.14,-0.82
-9.779e-03,-1,-1.2
-9.760e-03,-1.02,-0.84
-9.741e-03,-1,-1.24
-9.722e-03,-1,-0.84
-9.702e-03,-0.98,-1.14
-9.683e-03,-0.98,-0.9
-9.664e-03,-1.04,-1.12
-9.645e-03,-1,-0.8
-9.626e-03,-1.04,-1.2
-9.606e-03,-1,-0.8
-9.587e-03,-1.12,-1.2
-9.568e-03,-0.94,-0.88
-9.549e-03,-1.02,-1.28
-9.530e-03,-1.06,-0.88
-9.510e-03,-0.96,-1.18
-9.491e-03,-1.1,-0.8
-9.472e-03,-1.08,-1.2
-9.453e-03,-1.06,-0.9
-9.434e-03,-1.06,-1.18
-9.414e-03,-0.94,-0.82
-9.395e-03,-1,-1.18
-9.376e-03,-0.96,-0.92
-9.357e-03,-1.02,-1.06
-9.338e-03,-0.92,-0.84
-9.318e-03,-1.04,-1.18
-9.299e-03,-1,-0.92
-9.280e-03,-1.04,-1.22
-9.261e-03,-0.98,-0.84
-9.242e-03,-0.82,-1.22
-9.222e-03,-0.94,-0.78
-9.203e-03,-0.9,-1.08
-9.184e-03,-0.94,-0.74
-9.165e-03,-0.98,-1.16
-9.146e-03,-1.06,-0.8
-9.126e-03,-0.9,-1.2
-9.107e-03,-1.06,-0.82
-9.088e-03,-0.94,-1.12
-9.069e-03,-0.98,-0.78
-9.050e-03,-1.02,-1.2
-9.030e-03,-0.92,-0.82
-9.011e-03,-1.16,-1.2
-8.992e-03,-1,-0.94
-8.973e-03,-1.08,-1.16
-8.954e-03,-1.02,-0.86
-8.934e-03,-0.98,-1.1
-8.915e-03,-1,-0.88
-8.896e-03,-1.06,-1.16
-8.877e-03,-0.96,-0.86
-8.858e-03,-1,-1.1
-8.838e-03,-0.96,-0.86
-8.819e-03,-0.94,-1.12
-8.800e-03,-0.94,-0.84
-8.781e-03,-1.06,-1.22
-8.762e-03,-1.12,-0.9
-8.742e-03,-0.94,-1.18
-8.723e-03,-1.02,-0.84
-8.704e-03,-0.98,-1.14
-8.685e-03,-1.06,-0.88
-8.665e-03,-0.98,-1.26
-8.646e-03,-0.9,-0.86
-8.627e-03,-0.98,-1.2
-8.608e-03,-1.2,-0.82
-8.589e-03,-0.92,-1.1
-8.569e-03,-1.04,-0.82
-8.550e-03,-0.88,-1.08
-8.531e-03,-0.96,-0.82
-8.512e-03,-1.12,-1.18
-8.493e-03,-1,-0.84
-8.473e-03,-1.08,-1.22
-8.454e-03,-0.98,-0.9
-8.435e-03,-1.14,-1.2
-8.416e-03,-1.06,-0.8
-8.397e-03,-1,-1.16
-8.377e-03,-1,-0.82
-8.358e-03,-1.06,-1.2
-8.339e-03,-0.96,-0.8
-8.320e-03,-0.98,-1.3
-8.301e-03,-1.08,-0.8
-8.281e-03,-0.96,-1.16
-8.262e-03,-1.12,-0.86
-8.243e-03,-1.08,-1.2
-8.224e-03,-1.04,-0.88
-8.205e-03,-0.96,-1.14
-8.185e-03,-1.04,-0.78
-8.166e-03,-1.06,-1.16
-8.147e-03,-1.02,-0.78
-8.128e-03,-0.92,-1.14
-8.109e-03,-0.94,-0.78
-8.089e-03,-1.02,-1.12
-8.070e-03,-1.06,-0.86
-8.051e-03,-0.88,-1.22
-8.032e-03,-0.92,-0.8
-8.013e-03,-1.06,-1.2
-7.993e-03,-1.02,-0.88
-7.974e-03,-1.02,-1.18
-7.955e-03,-0.88,-0.84
-7.936e-03,-1.04,-1.2
-7.917e-03,-1.02,-0.82
-7.897e-03,-0.96,-1.18
-7.878e-03,-1.04,-0.86
-7.859e-03,-0.94,-1.14
-7.840e-03,-0.9,-0.82
-7.821e-03,-0.98,-1.24
-7.801e-03,-0.96,-0.84
-7.782e-03,-0.98,-1.1
-7.763e-03,-0.86,-0.84
-7.744e-03,-0.96,-1.18
-7.725e-03,-1.12,-0.9
-7.705e-03,-1.02,-1.18
-7.686e-03,-1.12,-0.84
-7.667e-03,-0.96,-1.12
-7.648e-03,-0.96,-0.84
-7.629e-03,-1.04,-1.16
-7.609e-03,-0.96,-0.82
-7.590e-03,-0.9,-1.16
-7.571e-03,-0.98,-0.78
-7.552e-03,-1.02,-1.2
-7.533e-03,-0.98,-0.9
-7.513e-03,-0.92,-1.16
-7.494e-03,-0.94,-0.84
-7.475e-03,-0.92,-1.3
-7.456e-03,-1.02,-0.84
-7.437e-03,-0.96,-1.16
-7.417e-03,-0.96,-0.82
-7.398e-03,-1.02,-1.2
-7.379e-03,-1.06,-0.8
-7.360e-03,-0.88,-1.18
-7.341e-03,-1.06,-0.84
-7.321e-03,-1.06,-1.2
-7.302e-03,-0.92,-0.84
-7.283e-03,-0.96,-1.16
-7.264e-03,-0.96,-0.74
-7.245e-03,-1.02,-1.22
-7.225e-03,-1.12,-0.82
-7.206e-03,-1.08,-1.18
-7.187e-03,-1.02,-0.84
-7.168e-03,-1.02,-1.16
-7.149e-03,-1.04,-0.84
-7.129e-03,-1.06,-1.12
-7.110e-03,-0.96,-0.86
-7.091e-03,-1.02,-1.16
-7.072e-03,-1.02,-0.88
-7.053e-03,-0.98,-1.16
-7.033e-03,-0.96,-0.84
-7.014e-03,-1,-1.14
-6.995e-03,-1.02,-0.86
-6.976e-03,-1.02,-1.14
-6.957e-03,-0.96,-0.82
-6.937e-03,-1.1,-1.12
-6.918e-03,-0.96,-0.8
-6.899e-03,-1.06,-1.14
-6.880e-03,-1.02,-0.84
-6.861e-03,-1.04,-1.16
-6.841e-03,-1.1,-0.88
-6.822e-03,-0.98,-1.18
-6.803e-03,-1.1,-0.78
-6.784e-03,-0.94,-1.14
-6.765e-03,-0.98,-0.8
-6.745e-03,-1.04,-1.16
-6.726e-03,-1,-0.88
-6.707e-03,-1.02,-1.12
-6.688e-03,-1.1,-0.88
-6.669e-03,-1.04,-1.2
-6.649e-03,-1.08,-0.78
-6.630e-03,-0.86,-1.16
-6.611e-03,-1.04,-0.82
-6.592e-03,-0.98,-1.2
-6.573e-03,-1.06,-0.78
-6.553e-03,-1.02,-1.2
-6.534e-03,-0.94,-0.86
-6.515e-03,-1.08,-1.16
-6.496e-03,-0.98,-0.88
-6.477e-03,-1.06,-1.2
-6.457e-03,-0.96,-0.86
-6.438e-03,-0.96,-1.18
-6.419e-03,-1.04,-0.82
-6.400e-03,-1.1,-1.16
-6.381e-03,-0.96,-0.84
-6.361e-03,-1.16,-1.26
-6.342e-03,-0.98,-0.8
-6.323e-03,-0.84,-1.2
-6.304e-03,-1.12,-0.76
-6.285e-03,-1,-1.12
-6.265e-03,-0.96,-0.78
-6.246e-03,-1.08,-1.16
-6.227e-03,-0.94,-0.84
-6.208e-03,-1.1,-1.2
-6.189e-03,-1.1,-0.92
-6.169e-03,-1,-1.22
-6.150e-03,-1.04,-0.86
-6.131e-03,-1.06,-1.16
-6.112e-03,-0.98,-0.84
-6.093e-03,-1.02,-1.22
-6.073e-03,-0.88,-0.8
-6.054e-03,-1.16,-1.2
-6.035e-03,-0.94,-0.84
-6.016e-03,-1.04,-1.14
-5.997e-03,-1,-0.78
-5.977e-03,-0.9,-1.16
-5.958e-03,-1.1,-0.84
-5.939e-03,-1.02,-1.16
-5.920e-03,-1.02,-0.84
-5.901e-03,-1.14,-1.18
-5.881e-03,-0.92,-0.82
-5.862e-03,-0.94,-1.2
-5.843e-03,-1.02,-0.82
-5.824e-03,-0.98,-1.16
-5.805e-03,-1.1,-0.78
-5.785e-03,-0.92,-1.14
-5.766e-03,-1,-0.84
-5.747e-03,-0.92,-1.14
-5.728e-03,-1.02,-0.76
-5.709e-03,-1.1,-1.18
-5.689e-03,-1.08,-0.92
-5.670e-03,-1.08,-1.2
-5.651e-03,-0.96,-0.88
-5.632e-03,-1.08,-1.16
-5.613e-03,-1.04,-0.86
-5.593e-03,-1.06,-1.16
-5.574e-03,-1.06,-0.88
-5.555e-03,-1.06,-1.2
-5.536e-03,-0.98,-0.82
-5.516e-03,-1.1,-1.16
-5.497e-03,-0.86,-0.84
-5.478e-03,-1.04,-1.24
-5.459e-03,-1.12,-0.74
-5.440e-03,-0.82,-1.16
-5.420e-03,-1.06,-0.78
-5.401e-03,-0.96,-1.08
-5.382e-03,-0.82,-0.76
-5.363e-03,-1.04,-1.22
-5.344e-03,-0.94,-0.88
-5.324e-03,-0.96,-1.18
-5.305e-03,-0.96,-0.88
-5.286e-03,-1.1,-1.2
-5.267e-03,-1.18,-0.86
-5.248e-03,-0.96,-1.16
-5.228e-03,-1.02,-0.88
-5.209e-03,-1.12,-1.22
-5.190e-03,-1.02,-0.92
-5.171e-03,-1.1,-1.16
-5.152e-03,-0.98,-0.84
-5.132e-03,-1.06,-1.14
-5.113e-03,-1,-0.8
-5.094e-03,-0.82,-1.1
-5.075e-03,-0.98,-0.74
-5.056e-03,-0.9,-1.2
-5.036e-03,-1,-0.84
-5.017e-03,-1.02,-1.14
-4.998e-03,-0.92,-0.86
-4.979e-03,-1.1,-1.18
-4.960e-03,-0.94,-0.78
-4.940e-03,-1,-1.26
-4.921e-03,-1.06,-0.84
-4.902e-03,-1.22,-1.3
-4.883e-03,-0.96,-0.84
-4.864e-03,-0.98,-1.12
-4.844e-03,-0.9,-0.82
-4.825e-03,-1.04,-1.14
-4.806e-03,-0.88,-0.74
-4.787e-03,-1.04,-1.1
-4.768e-03,-1.02,-0.78
-4.748e-03,-0.94,-1.18
-4.729e-03,-1.04,-0.88
-4.710e-03,-0.88,-1.14
-4.691e-03,-0.96,-0.82
-4.672e-03,-1.1,-1.14
-4.652e-03,-0.88,-0.8
-4.633e-03,-0.92,-1.14
-4.614e-03,-0.9,-0.8
-4.595e-03,-0.98,-1.18
-4.576e-03,-1.08,-0.82
-4.556e-03,-0.88,-1.22
-4.537e-03,-1.1,-0.84
-4.518e-03,-1.1,-1.16
-4.499e-03,-0.96,-0.86
-4.480e-03,-1.02,-1.08
-4.460e-03,-0.9,-0.82
-4.441e-03,-0.84,-1.18
-4.422e-03,-1.02,-0.8
-4.403e-03,-0.9,-1.22
-4.384e-03,-0.98,-0.8
-4.364e-03,-1,-1.14
-4.345e-03,-0.92,-0.84
-4.326e-03,-1.06,-1.18
-4.307e-03,-0.84,-0.8
-4.288e-03,-1.02,-1.12
-4.268e-03,-0.94,-0.82
-4.249e-03,-1.06,-1.16
-4.230e-03,-1,-0.86
-4.211e-03,-0.88,-1.12
-4.192e-03,-0.94,-0.86
-4.172e-03,-1.02,-1.16
-4.153e-03,-1.02,-0.92
-4.134e-03,-1.02,-1.12
-4.115e-03,-1.02,-0.84
-4.096e-03,-0.98,-1.12
-4.076e-03,-1.02,-0.8
-4.057e-03,-1,-1.18
-4.038e-03,-1.12,-0.86
-4.019e-03,-0.88,-1.18
-4.000e-03,-0.96,-0.84
-3.980e-03,-0.96,-1.1
-3.961e-03,-1.02,-0.84
-3.942e-03,-1.04,-1.1
-3.923e-03,-0.9,-0.76
-3.904e-03,-0.98,-1.12
-3.884e-03,-1.08,-0.86
-3.865e-03,-0.92,-1.14
-3.846e-03,-1.02,-0.86
-3.827e-03,-0.98,-1.1
-3.808e-03,-1,-0.82
-3.788e-03,-1,-1.14
-3.769e-03,-1,-0.86
-3.750e-03,-0.96,-1.2
-3.731e-03,-0.94,-0.84
-3.712e-03,-1.14,-1.18
-3.692e-03,-1.06,-0.88
-3.673e-03,-0.92,-1.22
-3.654e-03,-1.12,-0.84
-3.635e-03,-0.94,-1.14
-3.616e-03,-0.92,-0.82
-3.596e-03,-1.04,-1.18
-3.577e-03,-0.94,-0.88
-3.558e-03,-1.06,-1.2
-3.539e-03,-1.08,-0.84
-3.520e-03,-1.08,-1.2
-3.500e-03,-1.16,-0.84
-3.481e-03,-0.96,-1.2
-3.462e-03,-1.08,-0.88
-3.443e-03,-0.98,-1.18
-3.424e-03,-1.02,-0.88
-3.404e-03,-0.98,-1.14
-3.385e-03,-0.94,-0.76
-3.366e-03,-1.04,-1.24
-3.347e-03,-0.98,-0.78
-3.328e-03,-0.92,-1.14
-3.308e-03,-1,-0.8
-3.289e-03,-0.96,-1.1
-3.270e-03,-0.84,-0.76
-3.251e-03,-0.94,-1.2
-3.232e-03,-0.92,-0.8
-3.212e-03,-0.98,-1.18
-3.193e-03,-1.12,-0.86
-3.174e-03,-1,-1.18
-3.155e-03,-1,-0.86
-3.136e-03,-1.08,-1.16
-3.116e-03,-0.94,-0.78
-3.097e-03,-0.9,-1.2
-3.078e-03,-0.92,-0.72
-3.059e-03,-1.14,-1.16
-3.040e-03,-1.02,-0.86
-3.020e-03,-0.94,-1.2
-3.001e-03,-1.1,-0.78
-2.982e-03,-0.92,-1.08
-2.963e-03,-1,-0.8
-2.944e-03,-1.1,-1.16
-2.924e-03,-1.04,-0.84
-2.905e-03,-1.02,-1.12
-2.886e-03,-0.9,-0.88
-2.867e-03,-1.06,-1.16
-2.848e-03,-1.02,-0.74
-2.828e-03,-0.98,-1.2
-2.809e-03,-0.92,-0.78
-2.790e-03,-1.04,-1.14
-2.771e-03,-0.94,-0.84
-2.752e-03,-1.08,-1.2
-2.732e-03,-1.08,-0.86
-2.713e-03,-1.06,-1.16
-2.694e-03,-1.06,-0.9
-2.675e-03,-1.08,-1.16
-2.656e-03,-1.02,-0.84
-2.636e-03,-0.94,-1.16
-2.617e-03,-1.02,-0.78
-2.598e-03,-0.96,-1.2
-2.579e-03,-1.06,-0.88
-2.560e-03,-1,-1.12
-2.540e-03,-0.94,-0.84
-2.521e-03,-1.1,-1.22
-2.502e-03,-1.02,-0.82
-2.483e-03,-0.98,-1.1
-2.464e-03,-1.02,-0.8
-2.444e-03,-0.92,-1.22
-2.425e-03,-1.12,-0.84
-2.406e-03,-1.02,-1.2
-2.387e-03,-0.92,-0.88
-2.367e-03,-0.96,-1.18
-2.348e-03,-0.98,-0.82
-2.329e-03,-1.04,-1.16
-2.310e-03,-1,-0.86
-2.291e-03,-0.98,-1.18
-2.271e-03,-1.1,-0.86
-2.252e-03,-0.98,-1.18
-2.233e-03,-0.96,-0.88
-2.214e-03,-1.1,-1.18
-2.195e-03,-0.8,-0.78
-2.175e-03,-1,-1.14
-2.156e-03,-1.04,-0.86
-2.137e-03,-0.98,-1.18
-2.118e-03,-1.14,-0.86
-2.099e-03,-0.94,-1.16
-2.079e-03,-1.08,-0.88
-2.060e-03,-0.96,-1.14
-2.041e-03,-0.94,-0.88
-2.022e-03,-1.08,-1.18
-2.003e-03,-1.06,-0.84
-1.983e-03,-0.96,-1.14
-1.964e-03,-1,-0.86
-1.945e-03,-0.92,-1.16
-1.926e-03,-1,-0.86
-1.907e-03,-1.08,-1.16
-1.887e-03,-0.92,-0.86
-1.868e-03,-1.02,-1.12
-1.849e-03,-0.96,-0.88
-1.830e-03,-1.08,-1.12
-1.811e-03,-1.04,-0.74
-1.791e-03,-0.94,-1.12
-1.772e-03,-1.06,-0.82
-1.753e-03,-0.94,-1.18
-1.734e-03,-1.06,-0.86
-1.715e-03,-1.06,-1.16
-1.695e-03,-1.06,-0.88
-1.676e-03,-1,-1.08
-1.657e-03,-0.88,-0.8
-1.638e-03,-0.96,-1.16
-1.619e-03,-0.92,-0.82
-1.599e-03,-1.04,-1.2
-1.580e-03,-0.92,-0.84
-1.561e-03,-1.1,-1.2
-1.542e-03,-1.1,-0.82
-1.523e-03,-0.88,-1.22
-1.503e-03,-0.92,-0.8
-1.484e-03,-0.96,-1.14
-1.465e-03,-1.06,-0.86
-1.446e-03,-0.96,-1.12
-1.427e-03,-1.08,-0.82
-1.407e-03,-0.98,-1.24
-1.388e-03,-1.04,-0.8
-1.369e-03,-0.94,-1.18
-1.350e-03,-1.02,-0.8
-1.331e-03,-0.94,-1.16
-1.311e-03,-0.96,-0.86
-1.292e-03,-0.96,-1.18
-1.273e-03,-0.82,-0.78
-1.254e-03,-1.06,-1.2
-1.235e-03,-1.02,-0.92
-1.215e-03,-1.02,-1.22
-1.196e-03,-0.96,-0.86
-1.177e-03,-0.98,-1.14
-1.158e-03,-0.96,-0.82
-1.139e-03,-1.02,-1.1
-1.119e-03,-0.92,-0.82
-1.100e-03,-0.94,-1.24
-1.081e-03,-1.04,-0.84
-1.062e-03,-0.92,-1.16
-1.043e-03,-1,-0.84
-1.023e-03,-1.1,-1.2
-1.004e-03,-1.1,-0.9
-9.850e-04,-1.02,-1.14
-9.658e-04,-0.9,-0.84
-9.466e-04,-0.94,-1.16
-9.274e-04,-1.04,-0.84
-9.082e-04,-1,-1.14
-8.890e-04,-0.98,-0.9
-8.698e-04,-0.96,-1.16
-8.506e-04,-1.08,-0.84
-8.314e-04,-0.92,-1.2
-8.122e-04,-0.98,-0.88
-7.930e-04,-1.06,-1.14
-7.738e-04,-0.98,-0.88
-7.546e-04,-1.02,-1.24
-7.354e-04,-1,-0.86
-7.162e-04,-1.14,-1.22
-6.970e-04,-1.12,-0.86
-6.778e-04,-0.98,-1.12
-6.586e-04,-0.86,-0.8
-6.394e-04,-1.06,-1.14
-6.202e-04,-0.96,-0.82
-6.010e-04,-0.96,-1.12
-5.818e-04,-1.04,-0.84
-5.626e-04,-1.08,-1.18
-5.434e-04,-1,-0.86
-5.242e-04,-0.92,-1.14
-5.050e-04,-1.06,-0.84
-4.858e-04,-0.98,-1.2
-4.666e-04,-1.02,-0.86
-4.474e-04,-1.04,-1.18
-4.282e-04,-1.06,-0.82
-4.090e-04,-1.04,-1.16
-3.898e-04,-1.08,-0.9
-3.706e-04,-1.06,-1.26
-3.514e-04,-1.14,-0.8
-3.322e-04,-0.96,-1.16
-3.130e-04,-1.1,-0.88
-2.938e-04,-1.06,-1.18
-2.746e-04,-1,-0.82
-2.554e-04,-0.94,-1.14
-2.362e-04,-0.94,-0.78
-2.170e-04,-1.06,-1.12
-1.978e-04,-1.04,-0.78
-1.786e-04,-0.92,-1.12
-1.594e-04,-0.98,-0.82
-1.402e-04,-1,-1.12
-1.210e-04,-0.98,-0.76
-1.018e-04,-0.98,-1.2
-8.255e-05,-1,-0.8
-6.335e-05,-1.02,-1.2
-4.415e-05,-1.04,-0.84
-2.495e-05,-0.92,-3.52
-5.745e-06,-0.98,1.56
1.346e-05,1.56,-3.52
3.266e-05,-3.52,1.56
5.186e-05,0.44,-1.02
7.106e-05,-0.8,0.72
9.026e-05,-0.7,-0.98
1.095e-04,-0.9,-0.62
1.287e-04,-0.88,-1.04
1.479e-04,-0.92,-0.78
1.671e-04,-0.84,-1.04
1.863e-04,-0.92,-0.78
2.055e-04,-1,-1.18
2.247e-04,-0.86,-0.8
2.439e-04,-1,-1.16
2.631e-04,-1.02,-0.84
2.823e-04,-1,-1.22
3.015e-04,-1.06,-0.86
3.207e-04,-0.92,-1.16
3.399e-04,-0.96,-0.74
3.591e-04,-1.04,-1.16
3.783e-04,-1.1,-0.86
3.975e-04,-0.9,-1.2
4.167e-04,-1.02,-0.86
4.359e-04,-1.02,-1.18
4.551e-04,-1.02,-0.86
4.743e-04,-0.96,-1.16
4.935e-04,-1.08,-0.88
5.127e-04,-1.06,-1.24
5.319e-04,-1.02,-0.88
5.511e-04,-1.02,-1.2
5.703e-04,-1.04,-0.92
5.895e-04,-1.06,-1.16
6.087e-04,-1,-0.84
6.279e-04,-1,-1.16
6.471e-04,-1.02,-0.88
6.663e-04,-0.92,-1.16
6.855e-04,-0.94,-0.82
7.047e-04,-1.06,-1.16
7.239e-04,-1.08,-0.92
7.431e-04,-1.02,-1.14
7.623e-04,-1,-0.78
7.815e-04,-1.06,-1.12
8.007e-04,-0.98,-0.78
8.199e-04,-0.96,-1.16
8.391e-04,-1.08,-0.84
8.583e-04,-0.96,-1.14
8.775e-04,-0.96,-0.82
8.967e-04,-0.96,-1.12
9.159e-04,-0.96,-0.8
9.351e-04,-0.98,-1.08
9.543e-04,-0.94,-0.74
9.735e-04,-0.96,-1.14
9.927e-04,-1.02,-0.86
1.012e-03,-1.04,-1.16
1.031e-03,-0.96,-0.82
1.050e-03,-0.9,-1.16
1.070e-03,-1.08,-0.88
1.089e-03,-1.08,-1.14
1.108e-03,-0.96,-0.84
1.127e-03,-0.98,-1.16
1.146e-03,-1.04,-0.84
1.166e-03,-0.94,-1.18
1.185e-03,-1,-0.8
1.204e-03,-0.94,-1.2
1.223e-03,-1.04,-0.88
1.242e-03,-1,-1.14
1.262e-03,-1,-0.72
1.281e-03,-1.02,-1.14
1.300e-03,-1,-0.8
1.319e-03,-1.04,-1.16
1.338e-03,-0.88,-0.76
1.358e-03,-0.86,-1.16
1.377e-03,-1.04,-0.8
1.396e-03,-0.96,-1.1
1.415e-03,-1,-0.8
1.434e-03,-0.96,-1.1
1.454e-03,-0.94,-0.76
1.473e-03,-1.1,-1.2
1.492e-03,-0.84,-0.78
1.511e-03,-1.08,-1.14
1.530e-03,-1.02,-0.86
1.550e-03,-1.02,-1.18
1.569e-03,-1.02,-0.84
1.588e-03,-0.98,-1.08
1.607e-03,-1.02,-0.76
1.626e-03,-0.92,-1.14
1.646e-03,-0.96,-0.84
1.665e-03,-0.98,-1.16
1.684e-03,-0.92,-0.86
1.703e-03,-0.98,-1.16
1.722e-03,-0.96,-0.86
1.742e-03,-1.04,-1.18
1.761e-03,-1.06,-0.9
1.780e-03,-0.96,-1.08
1.799e-03,-0.96,-0.86
1.818e-03,-1.04,-1.14
1.838e-03,-1,-0.84
1.857e-03,-0.98,-1.14
1.876e-03,-1,-0.82
1.895e-03,-1.08,-1.14
1.914e-03,-1,-0.84
1.934e-03,-0.92,-1.22
1.953e-03,-0.94,-0.84
1.972e-03,-0.98,-1.06
1.991e-03,-0.9,-0.82
2.010e-03,-1.02,-1.18
2.030e-03,-1.02,-0.8
2.049e-03,-0.96,-1.2
2.068e-03,-1.02,-0.86
2.087e-03,-1,-1.12
2.106e-03,-1.06,-0.78
2.126e-03,-0.96,-1.18
2.145e-03,-1.06,-0.82
2.164e-03,-0.9,-1.12
2.183e-03,-0.96,-0.76
2.202e-03,-0.96,-1.18
2.222e-03,-1,-0.86
2.241e-03,-1.04,-1.14
2.260e-03,-0.98,-0.82
2.279e-03,-1.02,-1.14
2.298e-03,-1,-0.8
2.318e-03,-1.06,-1.1
2.337e-03,-0.92,-0.82
2.356e-03,-0.98,-1.18
2.375e-03,-1.02,-0.82
2.394e-03,-1.04,-1.2
2.414e-03,-1.06,-0.88
2.433e-03,-0.9,-1.12
2.452e-03,-0.98,-0.76
2.471e-03,-0.94,-1.16
2.490e-03,-0.96,-0.8
2.510e-03,-1.02,-1.1
2.529e-03,-0.94,-0.82
2.548e-03,-1,-1.12
2.567e-03,-0.82,-0.78
2.586e-03,-0.96,-1.12
2.606e-03,-0.98,-0.76
2.625e-03,-0.92,-1.14
2.644e-03,-0.98,-0.8
2.663e-03,-0.98,-1.14
2.682e-03,-0.96,-0.84
2.702e-03,-0.98,-1.14
2.721e-03,-0.94,-0.82
2.740e-03,-0.88,-1.14
2.759e-03,-1.06,-0.8
2.778e-03,-0.98,-1.24
2.798e-03,-0.96,-0.72
2.817e-03,-0.86,-1.18
2.836e-03,-1,-0.72
2.855e-03,-0.98,-1.12
2.874e-03,-0.92,-0.84
2.894e-03,-0.96,-1.16
2.913e-03,-0.96,-0.86
2.932e-03,-1.02,-1.14
2.951e-03,-1,-0.86
2.970e-03,-1.02,-1.12
2.990e-03,-0.98,-0.82
3.009e-03,-0.94,-1.12
3.028e-03,-0.96,-0.82
3.047e-03,-0.92,-1.22
3.066e-03,-0.94,-0.84
3.086e-03,-1.02,-1.18
3.105e-03,-1.06,-0.82
3.124e-03,-0.92,-1.16
3.143e-03,-1.08,-0.86
3.162e-03,-0.92,-1.18
3.182e-03,-0.9,-0.8
3.201e-03,-0.96,-1.12
3.220e-03,-0.94,-0.82
3.239e-03,-1.08,-1.12
3.258e-03,-0.98,-0.76
3.278e-03,-0.94,-1.16
3.297e-03,-1.1,-0.86
3.316e-03,-0.94,-1.12
3.335e-03,-0.96,-0.76
3.354e-03,-1,-1.18
3.374e-03,-1.02,-0.88
3.393e-03,-1.1,-1.16
3.412e-03,-1.02,-0.74
3.431e-03,-0.94,-1.14
3.450e-03,-0.88,-0.82
3.470e-03,-0.96,-1.16
3.489e-03,-1.02,-0.86
3.508e-03,-0.92,-1.12
3.527e-03,-0.92,-0.84
3.546e-03,-0.94,-1.16
3.566e-03,-0.88,-0.82
3.585e-03,-1,-1.12
3.604e-03,-0.86,-0.84
3.623e-03,-1.1,-1.16
3.642e-03,-0.94,-0.78
3.662e-03,-0.94,-1.14
3.681e-03,-1.1,-0.86
3.700e-03,-1.06,-1.16
3.719e-03,-1,-0.84
3.738e-03,-1.06,-1.14
3.758e-03,-1.06,-0.84
3.777e-03,-1.06,-1.18
3.796e-03,-0.98,-0.84
3.815e-03,-0.94,-1.22
3.835e-03,-1.06,-0.78
3.854e-03,-0.98,-1.18
3.873e-03,-0.94,-0.8
3.892e-03,-1.02,-1.12
3.911e-03,-0.82,-0.76
3.931e-03,-1.04,-1.14
3.950e-03,-0.82,-0.72
3.969e-03,-0.88,-1.12
3.988e-03,-0.86,-0.8
4.007e-03,-1.02,-1.14
4.027e-03,-0.94,-0.76
4.046e-03,-1.02,-1.14
4.065e-03,-1.06,-0.78
4.084e-03,-0.84,-1.16
4.103e-03,-0.86,-0.78
4.123e-03,-1.06,-1.18
4.142e-03,-0.98,-0.8
4.161e-03,-0.92,-1.06
4.180e-03,-0.98,-0.82
4.199e-03,-0.92,-1.16
4.219e-03,-1.04,-0.86
4.238e-03,-1.04,-1.14
4.257e-03,-0.84,-0.76
4.276e-03,-1.08,-1.16
4.295e-03,-1.06,-0.84
4.315e-03,-0.94,-1.16
4.334e-03,-1.08,-0.88
4.353e-03,-0.9,-1.26
4.372e-03,-1.04,-0.86
4.391e-03,-0.9,-1.18
4.411e-03,-0.86,-0.82
4.430e-03,-0.98,-1.16
4.449e-03,-0.96,-0.82
4.468e-03,-0.98,-1.14
4.487e-03,-0.96,-0.84
4.507e-03,-1.04,-1.16
4.526e-03,-1.12,-0.9
4.545e-03,-1.02,-1.14
4.564e-03,-1.04,-0.82
4.583e-03,-0.98,-1.08
4.603e-03,-0.92,-0.78
4.622e-03,-0.9,-1.14
4.641e-03,-0.92,-0.82
4.660e-03,-1.04,-1.16
4.679e-03,-0.94,-0.84
4.699e-03,-0.9,-1.14
4.718e-03,-1.02,-0.86
4.737e-03,-0.96,-1.16
4.756e-03,-0.88,-0.74
4.775e-03,-1.08,-1.16
4.795e-03,-0.88,-0.86
4.814e-03,-1.08,-1.16
4.833e-03,-1.02,-0.8
4.852e-03,-1,-1.16
4.871e-03,-1.06,-0.88
4.891e-03,-0.88,-1.14
4.910e-03,-1.08,-0.82
4.929e-03,-0.96,-1.14
4.948e-03,-1.02,-0.78
4.967e-03,-1.04,-1.16
4.987e-03,-1.08,-0.86
5.006e-03,-1.02,-1.08
5.025e-03,-0.92,-0.74
5.044e-03,-0.98,-1.18
5.063e-03,-0.96,-0.8
5.083e-03,-1.02,-1.14
5.102e-03,-0.98,-0.9
5.121e-03,-1.04,-1.12
5.140e-03,-0.98,-0.8
5.159e-03,-0.9,-1.12
5.179e-03,-1.04,-0.82
5.198e-03,-0.92,-1.14
5.217e-03,-1.02,-0.82
5.236e-03,-0.98,-1.12
5.255e-03,-1.06,-0.86
5.275e-03,-0.96,-1.1
5.294e-03,-0.96,-0.82
5.313e-03,-1.04,-1.12
5.332e-03,-1,-0.84
5.351e-03,-1,-1.12
5.371e-03,-1,-0.78
5.390e-03,-0.92,-1.18
5.409e-03,-1.06,-0.8
5.428e-03,-0.86,-1.1
5.447e-03,-0.94,-0.82
5.467e-03,-0.98,-1.16
5.486e-03,-1.02,-0.8
5.505e-03,-1.04,-1.14
5.524e-03,-0.82,-0.74
5.543e-03,-0.9,-1.16
5.563e-03,-1.12,-0.74
5.582e-03,-0.98,-1.18
5.601e-03,-1.04,-0.8
5.620e-03,-0.88,-1.18
5.639e-03,-0.96,-0.8
5.659e-03,-1.08,-1.22
5.678e-03,-1.1,-0.84
5.697e-03,-1,-1.14
5.716e-03,-1,-0.86
5.735e-03,-0.98,-1.16
5.755e-03,-1,-0.76
5.774e-03,-0.98,-1.2
5.793e-03,-1,-0.86
5.812e-03,-0.96,-1.18
5.831e-03,-0.86,-0.82
5.851e-03,-0.96,-1.3
5.870e-03,-1.2,-0.8
5.889e-03,-0.96,-1.12
5.908e-03,-0.94,-0.82
5.927e-03,-0.86,-1.12
5.947e-03,-1.08,-0.82
5.966e-03,-0.92,-1.14
5.985e-03,-0.92,-0.88
6.004e-03,-0.96,-1.12
6.023e-03,-1.02,-0.82
6.043e-03,-0.92,-1.18
6.062e-03,-0.88,-0.8
6.081e-03,-0.96,-1.12
6.100e-03,-1.02,-0.86
6.119e-03,-0.92,-1.14
6.139e-03,-1.06,-0.8
6.158e-03,-0.92,-1.2
6.177e-03,-0.9,-0.86
6.196e-03,-1.08,-1.18
6.215e-03,-1.02,-0.86
6.235e-03,-0.9,-1.1
6.254e-03,-1.06,-0.78
6.273e-03,-0.9,-1.16
6.292e-03,-1.1,-0.78
6.311e-03,-0.88,-1.2
6.331e-03,-1.04,-0.82
6.350e-03,-1.04,-1.16
6.369e-03,-1.04,-0.82
6.388e-03,-0.98,-1.26
6.407e-03,-0.9,-0.8
6.427e-03,-0.92,-1.2
6.446e-03,-1.18,-0.76
6.465e-03,-0.9,-1.18
6.484e-03,-1.04,-0.86
6.503e-03,-0.98,-1.14
6.523e-03,-0.96,-0.82
6.542e-03,-0.94,-1.12
6.561e-03,-0.94,-0.8
6.580e-03,-1.06,-1.1
6.599e-03,-0.94,-0.76
6.619e-03,-0.88,-1.14
6.638e-03,-1.02,-0.84
6.657e-03,-0.88,-1.18
6.676e-03,-0.98,-0.84
6.695e-03,-1,-1.14
6.715e-03,-0.9,-0.86
6.734e-03,-1,-1.12
6.753e-03,-0.94,-0.82
6.772e-03,-1.02,-1.18
6.791e-03,-0.96,-0.82
6.811e-03,-1.04,-1.18
6.830e-03,-1,-0.84
6.849e-03,-0.94,-1.18
6.868e-03,-0.88,-0.86
6.887e-03,-1.02,-1.1
