Raw_Data/B5_DopesWaterCuSO4_P4.CSV

Model,DPO2002B
Firmware Version,1.52

Point Format,Y,
Horizontal Units,S,
Horizontal Scale,0.002,
Sample Interval,3.84025e-06,
Filter Frequency,7e+07,
Record Length,5208,
Gating,0.0% to 100.0%,
Probe Attenuation,10,
Vertical Units,V,
Vertical Offset,0.6,
Vertical Scale,0.5,
Label,,
TIME,CH1,CH1 Peak Detect
-2.0480e-03,-0.94,-1
-2.0442e-03,-0.88,-0.84
-2.0403e-03,-0.88,-1
-2.0365e-03,-0.9,-0.76
-2.0326e-03,-0.94,-1.1
-2.0288e-03,-1,-0.9
-2.0250e-03,-1.02,-1.14
-2.0211e-03,-1.06,-0.94
-2.0173e-03,-1.06,-1.16
-2.0134e-03,-1.1,-0.88
-2.0096e-03,-0.98,-1.02
-2.0058e-03,-0.98,-0.86
-2.0019e-03,-0.92,-1
-1.9981e-03,-0.9,-0.78
-1.9942e-03,-0.94,-1.1
-1.9904e-03,-1,-0.9
-1.9866e-03,-1.02,-1.16
-1.9827e-03,-0.98,-0.94
-1.9789e-03,-0.96,-1.04
-1.9750e-03,-0.94,-0.88
-1.9712e-03,-0.98,-1.08
-1.9674e-03,-0.98,-0.86
-1.9635e-03,-0.94,-0.96
-1.9597e-03,-0.9,-0.74
-1.9558e-03,-0.9,-1.1
-1.9520e-03,-0.94,-0.84
-1.9482e-03,-1.02,-1.08
-1.9443e-03,-0.96,-0.88
-1.9405e-03,-0.92,-1
-1.9366e-03,-0.9,-0.82
-1.9328e-03,-0.94,-1
-1.9290e-03,-0.92,-0.82
-1.9251e-03,-0.92,-1.04
-1.9213e-03,-0.96,-0.86
-1.9174e-03,-0.94,-1.06
-1.9136e-03,-0.98,-0.84
-1.9098e-03,-1.08,-1.2
-1.9059e-03,-1.06,-0.96
-1.9021e-03,-1.14,-1.16
-1.8982e-03,-1.06,-0.98
-1.8944e-03,-1.08,-1.14
-1.8905e-03,-0.98,-0.88
-1.8867e-03,-0.86,-1.04
-1.8829e-03,-0.94,-0.86
-1.8790e-03,-0.94,-1.04
-1.8752e-03,-0.96,-0.82
-1.8713e-03,-0.9,-0.96
-1.8675e-03,-0.82,-0.76
-1.8637e-03,-0.86,-0.98
-1.8598e-03,-0.86,-0.78
-1.8560e-03,-0.94,-1.1
-1.8521e-03,-1.02,-0.86
-1.8483e-03,-1,-1.08
-1.8445e-03,-0.94,-0.92
-1.8406e-03,-0.98,-1.08
-1.8368e-03,-0.96,-0.86
-1.8329e-03,-0.88,-1.02
-1.8291e-03,-0.86,-0.76
-1.8253e-03,-0.96,-1.16
-1.8214e-03,-1.1,-0.92
-1.8176e-03,-1.06,-1.1
-1.8137e-03,-1,-0.92
-1.8099e-03,-1.06,-1.08
-1.8061e-03,-1.02,-0.92
-1.8022e-03,-1.04,-1.16
-1.7984e-03,-1.06,-0.9
-1.7945e-03,-0.94,-1.06
-1.7907e-03,-0.96,-0.9
-1.7869e-03,-0.98,-1.06
-1.7830e-03,-0.9,-0.82
-1.7792e-03,-0.86,-0.96
-1.7753e-03,-0.92,-0.8
-1.7715e-03,-0.88,-1.04
-1.7677e-03,-1.02,-0.82
-1.7638e-03,-0.96,-1.14
-1.7600e-03,-1,-0.9
-1.7561e-03,-1.12,-1.18
-1.7523e-03,-1.04,-0.88
-1.7485e-03,-0.96,-1.06
-1.7446e-03,-0.94,-0.9
-1.7408e-03,-0.92,-1.12
-1.7369e-03,-0.98,-0.9
-1.7331e-03,-1.02,-1.1
-1.7293e-03,-0.92,-0.82
-1.7254e-03,-0.9,-1
-1.7216e-03,-0.96,-0.82
-1.7177e-03,-0.96,-1.1
-1.7139e-03,-1.08,-0.9
-1.7101e-03,-1.08,-1.12
-1.7062e-03,-1.02,-0.92
-1.7024e-03,-1.02,-1.08
-1.6985e-03,-0.98,-0.86
-1.6947e-03,-0.88,-1.12
-1.6909e-03,-0.92,-0.84
-1.6870e-03,-1.06,-1.14
-1.6832e-03,-0.92,-0.88
-1.6793e-03,-0.98,-1.2
-1.6755e-03,-1.06,-0.92
-1.6717e-03,-1.1,-1.2
-1.6678e-03,-1.16,-1
-1.6640e-03,-1.06,-1.1
-1.6601e-03,-0.94,-0.84
-1.6563e-03,-0.96,-1.14
-1.6525e-03,-1.04,-0.86
-1.6486e-03,-1.08,-1.28
-1.6448e-03,-1.12,-1.06
-1.6409e-03,-1.08,-1.16
-1.6371e-03,-1.02,-0.96
-1.6333e-03,-0.98,-1.14
-1.6294e-03,-1.06,-0.94
-1.6256e-03,-1,-1.12
-1.6217e-03,-1.06,-0.88
-1.6179e-03,-0.96,-1.06
-1.6141e-03,-1.04,-0.86
-1.6102e-03,-0.94,-1.08
-1.6064e-03,-0.96,-0.9
-1.6025e-03,-1.04,-1.16
-1.5987e-03,-0.98,-0.88
-1.5949e-03,-0.9,-1.1
-1.5910e-03,-0.94,-0.86
-1.5872e-03,-1.02,-1.12
-1.5833e-03,-0.94,-0.9
-1.5795e-03,-0.96,-1.16
-1.5756e-03,-0.98,-0.9
-1.5718e-03,-1.12,-1.14
-1.5680e-03,-1.04,-0.96
-1.5641e-03,-1.06,-1.14
-1.5603e-03,-1.06,-0.88
-1.5564e-03,-0.96,-1.1
-1.5526e-03,-1.02,-0.9
-1.5488e-03,-0.96,-1.06
-1.5449e-03,-0.86,-0.82
-1.5411e-03,-0.94,-1.12
-1.5372e-03,-0.96,-0.9
-1.5334e-03,-1.04,-1.12
-1.5296e-03,-0.96,-0.9
-1.5257e-03,-0.98,-1.1
-1.5219e-03,-1.02,-0.9
-1.5180e-03,-1.12,-1.12
-1.5142e-03,-0.98,-0.86
-1.5104e-03,-0.94,-1.02
-1.5065e-03,-0.94,-0.84
-1.5027e-03,-0.88,-1
-1.4988e-03,-0.9,-0.82
-1.4950e-03,-0.88,-1
-1.4912e-03,-0.86,-0.8
-1.4873e-03,-0.94,-1.14
-1.4835e-03,-0.92,-0.88
-1.4796e-03,-1.1,-1.16
-1.4758e-03,-0.98,-0.92
-1.4720e-03,-1.04,-1.12
-1.4681e-03,-1.08,-0.94
-1.4643e-03,-1.08,-1.12
-1.4604e-03,-1.08,-0.86
-1.4566e-03,-0.92,-1.12
-1.4528e-03,-0.98,-0.86
-1.4489e-03,-1.06,-1.22
-1.4451e-03,-1.14,-1
-1.4412e-03,-1.06,-1.14
-1.4374e-03,-0.94,-0.9
-1.4336e-03,-1.02,-1.2
-1.4297e-03,-1.1,-0.98
-1.4259e-03,-1.12,-1.14
-1.4220e-03,-1,-0.92
-1.4182e-03,-1,-1.08
-1.4144e-03,-1.04,-0.88
-1.4105e-03,-0.96,-1.08
-1.4067e-03,-1.02,-0.9
-1.4028e-03,-0.96,-1.1
-1.3990e-03,-0.98,-0.94
-1.3952e-03,-1,-1.08
-1.3913e-03,-0.94,-0.9
-1.3875e-03,-0.96,-1.08
-1.3836e-03,-0.98,-0.9
-1.3798e-03,-1.02,-1.1
-1.3760e-03,-0.96,-0.76
-1.3721e-03,-0.84,-1
-1.3683e-03,-0.92,-0.76
-1.3644e-03,-0.92,-1.04
-1.3606e-03,-0.9,-0.84
-1.3568e-03,-0.9,-1
-1.3529e-03,-0.92,-0.84
-1.3491e-03,-0.9,-0.98
-1.3452e-03,-0.9,-0.82
-1.3414e-03,-0.88,-1.06
-1.3376e-03,-0.98,-0.86
-1.3337e-03,-0.96,-1.06
-1.3299e-03,-0.92,-0.84
-1.3260e-03,-0.98,-1.04
-1.3222e-03,-1,-0.88
-1.3184e-03,-0.98,-1.06
-1.3145e-03,-1,-0.9
-1.3107e-03,-1.02,-1.14
-1.3068e-03,-1,-0.94
-1.3030e-03,-1.04,-1.12
-1.2992e-03,-0.98,-0.94
-1.2953e-03,-0.98,-1.1
-1.2915e-03,-0.94,-0.9
-1.2876e-03,-0.98,-1.06
-1.2838e-03,-1,-0.9
-1.2800e-03,-0.96,-1.1
-1.2761e-03,-1.04,-0.86
-1.2723e-03,-1,-1.02
-1.2684e-03,-0.84,-0.76
-1.2646e-03,-0.92,-1.16
-1.2607e-03,-0.98,-0.84
-1.2569e-03,-1.1,-1.14
-1.2531e-03,-1.06,-0.92
-1.2492e-03,-0.94,-1.02
-1.2454e-03,-0.9,-0.86
-1.2415e-03,-0.94,-1.06
-1.2377e-03,-0.9,-0.86
-1.2339e-03,-0.96,-1.04
-1.2300e-03,-1,-0.86
-1.2262e-03,-1.06,-1.08
-1.2223e-03,-1.04,-0.92
-1.2185e-03,-1.06,-1.08
-1.2147e-03,-1.02,-0.88
-1.2108e-03,-0.96,-1.1
-1.2070e-03,-0.94,-0.88
-1.2031e-03,-1,-1.12
-1.1993e-03,-0.94,-0.88
-1.1955e-03,-0.98,-1.08
-1.1916e-03,-0.94,-0.86
-1.1878e-03,-0.98,-1.04
-1.1839e-03,-0.98,-0.88
-1.1801e-03,-0.94,-1.14
-1.1763e-03,-1.04,-0.88
-1.1724e-03,-1.12,-1.14
-1.1686e-03,-1.02,-0.96
-1.1647e-03,-1.02,-1.1
-1.1609e-03,-0.96,-0.9
-1.1571e-03,-0.96,-1.12
-1.1532e-03,-1.04,-0.92
-1.1494e-03,-0.94,-1.14
-1.1455e-03,-1,-0.94
-1.1417e-03,-1.06,-1.2
-1.1379e-03,-1.08,-0.96
-1.1340e-03,-1.16,-1.2
-1.1302e-03,-1.16,-0.94
-1.1263e-03,-1.02,-1.1
-1.1225e-03,-1.02,-0.84
-1.1187e-03,-1.1,-1.18
-1.1148e-03,-1.08,-1
-1.1110e-03,-1.1,-1.18
-1.1071e-03,-1.08,-0.9
-1.1033e-03,-1,-1.14
-1.0995e-03,-1.02,-0.96
-1.0956e-03,-1,-1.1
-1.0918e-03,-0.94,-0.86
-1.0879e-03,-0.96,-1.14
-1.0841e-03,-1.08,-0.9
-1.0803e-03,-1.08,-1.18
-1.0764e-03,-1.08,-0.98
-1.0726e-03,-1.16,-1.18
-1.0687e-03,-0.96,-0.9
-1.0649e-03,-0.94,-1.08
-1.0611e-03,-1.02,-0.9
-1.0572e-03,-0.96,-1.06
-1.0534e-03,-0.86,-0.82
-1.0495e-03,-0.9,-1.02
-1.0457e-03,-0.9,-0.84
-1.0419e-03,-0.94,-1.1
-1.0380e-03,-0.98,-0.88
-1.0342e-03,-1.08,-1.16
-1.0303e-03,-1.1,-0.94
-1.0265e-03,-1,-1.08
-1.0227e-03,-1.04,-0.88
-1.0188e-03,-1,-1.04
-1.0150e-03,-0.92,-0.82
-1.0111e-03,-0.96,-1.02
-1.0073e-03,-0.82,-0.76
-1.0035e-03,-0.86,-1.06
-9.9961e-04,-0.9,-0.8
-9.9577e-04,-0.96,-1.06
-9.9193e-04,-0.9,-0.8
-9.8809e-04,-0.88,-1.06
-9.8425e-04,-0.98,-0.82
-9.8041e-04,-1.04,-1.12
-9.7657e-04,-1.06,-0.86
-9.7273e-04,-0.92,-0.96
-9.6889e-04,-0.9,-0.76
-9.6505e-04,-0.82,-1.08
-9.6121e-04,-0.96,-0.78
-9.5737e-04,-1,-1.16
-9.5353e-04,-1.02,-1
-9.4969e-04,-1.06,-1.12
-9.4585e-04,-0.94,-0.76
-9.4201e-04,-0.82,-1.04
-9.3817e-04,-0.94,-0.76
-9.3433e-04,-0.98,-1.04
-9.3049e-04,-0.92,-0.84
-9.2665e-04,-0.94,-0.98
-9.2281e-04,-0.94,-0.78
-9.1897e-04,-0.86,-1.08
-9.1513e-04,-1.02,-0.82
-9.1129e-04,-1,-1.06
-9.0745e-04,-0.96,-0.78
-9.0361e-04,-0.86,-1.1
-8.9977e-04,-0.96,-0.84
-8.9593e-04,-1.02,-1.14
-8.9209e-04,-1,-0.96
-8.8825e-04,-1.02,-1.06
-8.8441e-04,-0.96,-0.86
-8.8057e-04,-0.98,-1
-8.7673e-04,-0.92,-0.8
-8.7288e-04,-0.92,-1.16
-8.6904e-04,-1.12,-0.84
-8.6520e-04,-1.12,-1.16
-8.6136e-04,-1,-0.96
-8.5752e-04,-1.04,-1.14
-8.5368e-04,-1,-0.86
-8.4984e-04,-0.9,-1.12
-8.4600e-04,-0.96,-0.88
-8.4216e-04,-1.08,-1.14
-8.3832e-04,-1.04,-0.92
-8.3448e-04,-1.06,-1.1
-8.3064e-04,-1,-0.82
-8.2680e-04,-0.98,-1.06
-8.2296e-04,-0.92,-0.82
-8.1912e-04,-1.02,-1.08
-8.1528e-04,-0.88,-0.84
-8.1144e-04,-0.92,-1.04
-8.0760e-04,-0.9,-0.86
-8.0376e-04,-0.98,-1.1
-7.9992e-04,-0.96,-0.94
-7.9608e-04,-1,-1.06
-7.9224e-04,-0.94,-0.86
-7.8840e-04,-0.94,-1.12
-7.8456e-04,-0.96,-0.84
-7.8072e-04,-1.12,-1.16
-7.7688e-04,-1.06,-0.8
-7.7304e-04,-0.88,-1.06
-7.6920e-04,-1.02,-0.8
-7.6536e-04,-0.88,-1.02
-7.6152e-04,-0.92,-0.84
-7.5768e-04,-0.92,-1.04
-7.5384e-04,-0.86,-0.84
-7.5000e-04,-0.94,-1.1
-7.4616e-04,-0.96,-0.92
-7.4232e-04,-1,-1.04
-7.3848e-04,-0.98,-0.82
-7.3464e-04,-0.88,-1.06
-7.3080e-04,-1.02,-0.82
-7.2696e-04,-1.04,-1.14
-7.2312e-04,-1.08,-0.82
-7.1927e-04,-0.86,-0.98
-7.1543e-04,-0.84,-0.8
-7.1159e-04,-0.9,-1.1
-7.0775e-04,-1,-0.88
-7.0391e-04,-0.98,-1.1
-7.0007e-04,-0.98,-0.9
-6.9623e-04,-1.04,-1.12
-6.9239e-04,-0.94,-0.9
-6.8855e-04,-1,-1.06
-6.8471e-04,-1.04,-0.9
-6.8087e-04,-0.98,-1.08
-6.7703e-04,-1.02,-0.9
-6.7319e-04,-1.04,-1.18
-6.6935e-04,-1,-0.92
-6.6551e-04,-1.1,-1.22
-6.6167e-04,-1.16,-0.92
-6.5783e-04,-0.96,-1.18
-6.5399e-04,-1.04,-0.96
-6.5015e-04,-1.06,-1.16
-6.4631e-04,-1,-0.88
-6.4247e-04,-0.96,-1.02
-6.3863e-04,-0.96,-0.84
-6.3479e-04,-0.94,-1.12
-6.3095e-04,-1.04,-0.86
-6.2711e-04,-1.02,-1.16
-6.2327e-04,-1.04,-0.9
-6.1943e-04,-1.08,-1.14
-6.1559e-04,-0.98,-0.82
-6.1175e-04,-0.84,-1
-6.0791e-04,-0.78,-0.76
-6.0407e-04,-0.92,-1.06
-6.0023e-04,-0.9,-0.86
-5.9639e-04,-0.98,-1.04
-5.9255e-04,-0.92,-0.8
-5.8871e-04,-0.88,-1.06
-5.8487e-04,-1,-0.82
-5.8103e-04,-1.04,-1.06
-5.7719e-04,-1.02,-0.84
-5.7335e-04,-0.92,-1.04
-5.6951e-04,-0.94,-0.84
-5.6567e-04,-0.96,-1.12
-5.6182e-04,-1.02,-0.92
-5.5798e-04,-0.96,-1.06
-5.5414e-04,-0.88,-0.84
-5.5030e-04,-0.92,-1.06
-5.4646e-04,-0.98,-0.84
-5.4262e-04,-0.92,-1.04
-5.3878e-04,-0.96,-0.84
-5.3494e-04,-0.98,-1.06
-5.3110e-04,-1.02,-0.88
-5.2726e-04,-0.98,-1.02
-5.2342e-04,-0.94,-0.82
-5.1958e-04,-0.9,-1.16
-5.1574e-04,-0.88,-0.84
-5.1190e-04,-1.06,-1.18
-5.0806e-04,-0.98,-0.92
-5.0422e-04,-1.06,-1.24
-5.0038e-04,-1.18,-1
-4.9654e-04,-1.08,-1.16
-4.9270e-04,-1.04,-0.88
-4.8886e-04,-0.98,-1.04
-4.8502e-04,-0.84,-0.76
-4.8118e-04,-1.06,-1.1
-4.7734e-04,-1.06,-0.92
-4.7350e-04,-1.04,-1.1
-4.6966e-04,-1.04,-0.94
-4.6582e-04,-1.04,-1.12
-4.6198e-04,-0.96,-0.86
-4.5814e-04,-0.94,-1.02
-4.5430e-04,-0.86,-0.82
-4.5046e-04,-0.92,-1.08
-4.4662e-04,-1.02,-0.86
-4.4278e-04,-1.02,-1.16
-4.3894e-04,-1.12,-0.92
-4.3510e-04,-1.06,-1.1
-4.3126e-04,-0.94,-0.78
-4.2742e-04,-0.88,-1
-4.2358e-04,-0.98,-0.8
-4.1974e-04,-0.9,-1.08
-4.1590e-04,-0.98,-0.88
-4.1206e-04,-0.94,-1.1
-4.0822e-04,-0.96,-0.86
-4.0437e-04,-0.96,-1.08
-4.0053e-04,-0.98,-0.9
-3.9669e-04,-0.96,-1.02
-3.9285e-04,-0.9,-0.8
-3.8901e-04,-0.9,-1.02
-3.8517e-04,-0.9,-0.78
-3.8133e-04,-0.96,-1.1
-3.7749e-04,-0.94,-0.86
-3.7365e-04,-1.04,-1.1
-3.6981e-04,-0.92,-0.86
-3.6597e-04,-0.92,-1.12
-3.6213e-04,-0.98,-0.9
-3.5829e-04,-1,-1.1
-3.5445e-04,-0.92,-0.9
-3.5061e-04,-1.06,-1.12
-3.4677e-04,-1,-0.86
-3.4293e-04,-0.94,-0.98
-3.3909e-04,-0.94,-0.74
-3.3525e-04,-0.92,-1.12
-3.3141e-04,-1.04,-0.86
-3.2757e-04,-1.02,-1.04
-3.2373e-04,-0.94,-0.84
-3.1989e-04,-0.98,-1.12
-3.1605e-04,-0.98,-0.88
-3.1221e-04,-1,-1.12
-3.0837e-04,-1,-0.92
-3.0453e-04,-1.02,-1.1
-3.0069e-04,-0.92,-0.82
-2.9685e-04,-0.96,-1.02
-2.9301e-04,-0.84,-0.76
-2.8917e-04,-0.98,-1.02
-2.8533e-04,-0.98,-0.86
-2.8149e-04,-0.94,-1.04
-2.7765e-04,-0.96,-0.86
-2.7381e-04,-1,-1.1
-2.6997e-04,-1,-0.94
-2.6613e-04,-0.98,-1.1
-2.6229e-04,-0.98,-0.92
-2.5845e-04,-0.98,-1.04
-2.5461e-04,-0.92,-0.84
-2.5076e-04,-0.9,-1.12
-2.4692e-04,-0.96,-0.86
-2.4308e-04,-1.06,-1.08
-2.3924e-04,-1.04,-0.82
-2.3540e-04,-0.9,-1
-2.3156e-04,-0.94,-0.8
-2.2772e-04,-1,-1.08
-2.2388e-04,-0.98,-0.86
-2.2004e-04,-0.92,-1.04
-2.1620e-04,-0.92,-0.86
-2.1236e-04,-0.96,-1.14
-2.0852e-04,-0.98,-0.92
-2.0468e-04,-1.08,-1.14
-2.0084e-04,-1.04,-0.96
-1.9700e-04,-1.06,-1.1
-1.9316e-04,-1.02,-0.86
-1.8932e-04,-0.98,-1.06
-1.8548e-04,-0.98,-0.86
-1.8164e-04,-1.02,-1.12
-1.7780e-04,-1.06,-0.92
-1.7396e-04,-0.98,-1.06
-1.7012e-04,-0.98,-0.86
-1.6628e-04,-0.86,-1.06
-1.6244e-04,-0.96,-0.84
-1.5860e-04,-0.96,-1.1
-1.5476e-04,-0.98,-0.94
-1.5092e-04,-1,-1.06
-1.4708e-04,-0.96,-0.88
-1.4324e-04,-1.02,-1.14
-1.3940e-04,-1.06,-0.94
-1.3556e-04,-1.12,-1.16
-1.3172e-04,-0.98,-0.82
-1.2788e-04,-0.92,-1.16
-1.2404e-04,-0.88,-0.78
-1.2020e-04,-1.12,-1.26
-1.1636e-04,-1.06,-0.94
-1.1252e-04,-0.94,-1.04
-1.0868e-04,-0.92,-0.86
-1.0484e-04,-0.9,-1
-1.0100e-04,-0.96,-0.84
-9.7155e-05,-0.98,-1.06
-9.3315e-05,-1,-0.9
-8.9475e-05,-1.04,-1.08
-8.5634e-05,-1.04,-0.82
-8.1794e-05,-0.9,-1
-7.7954e-05,-0.94,-0.84
-7.4114e-05,-0.9,-1.16
-7.0273e-05,-0.96,-0.86
-6.6433e-05,-1.02,-1.1
-6.2593e-05,-1.02,-0.96
-5.8753e-05,-1,-1.06
-5.4912e-05,-0.9,-0.82
-5.1072e-05,-0.98,-1.1
-4.7232e-05,-1.06,-0.92
-4.3392e-05,-1.06,-1.08
-3.9551e-05,-0.88,-0.8
-3.5711e-05,-0.88,-1
-3.1871e-05,-0.92,-0.78
-2.8031e-05,-0.88,-1.08
-2.4190e-05,-0.88,-0.8
-2.0350e-05,-0.98,-1.14
-1.6510e-05,-1.02,-0.94
-1.2670e-05,-0.98,-1.08
-8.8295e-06,-0.96,-0.9
-4.9892e-06,-1.02,-1.06
-1.1490e-06,-1.02,-0.78
2.6912e-06,-0.9,-1.72
6.5315e-06,-1.26,1.56
1.0372e-05,1.56,-3.52
1.4212e-05,-3.52,1.56
1.8052e-05,-3.52,-3.52
2.1892e-05,-3.52,-3.52
2.5733e-05,-3.52,-3.52
2.9573e-05,-3.52,-3.52
3.3413e-05,-3.52,-3.52
3.7253e-05,-3.52,-3.52
4.1094e-05,-3.52,-3.52
4.4934e-05,-2.08,-2.04
4.8774e-05,-2.56,-2.58
5.2614e-05,-1.06,0.14
5.6455e-05,0.1,0.08
6.0295e-05,0.42,0.52
6.4135e-05,0.28,0.24
6.7975e-05,0.36,0.46
7.1816e-05,0.36,0.24
7.5656e-05,0.36,0.44
7.9496e-05,0.32,0.22
8.3336e-05,0.28,0.44
8.7177e-05,0.36,0.24
9.1017e-05,0.3,0.48
9.4857e-05,0.4,0.3
9.8697e-05,0.34,0.46
1.0254e-04,0.36,0.32
1.0638e-04,0.44,0.54
1.1022e-04,0.36,0.28
1.1406e-04,0.34,0.48
1.1790e-04,0.34,0.24
1.2174e-04,0.4,0.46
1.2558e-04,0.36,0.26
1.2942e-04,0.36,0.44
1.3326e-04,0.36,0.18
1.3710e-04,0.32,0.38
1.4094e-04,0.26,0.22
1.4478e-04,0.28,0.4
1.4862e-04,0.32,0.14
1.5246e-04,0.28,0.4
1.5630e-04,0.16,0.16
1.6014e-04,0.32,0.38
1.6398e-04,0.32,0.2
1.6782e-04,0.28,0.44
1.7166e-04,0.26,0.14
1.7550e-04,0.3,0.36
1.7934e-04,0.34,0.2
1.8318e-04,0.3,0.36
1.8702e-04,0.28,0.14
1.9086e-04,0.24,0.34
1.9470e-04,0.22,0.14
1.9854e-04,0.16,0.32
2.0238e-04,0.16,0.08
2.0622e-04,0.14,0.34
2.1006e-04,0.26,0.24
2.1390e-04,0.28,0.46
2.1775e-04,0.34,0.14
2.2159e-04,0.22,0.42
2.2543e-04,0.3,0.16
2.2927e-04,0.28,0.36
2.3311e-04,0.28,0.18
2.3695e-04,0.3,0.36
2.4079e-04,0.22,0.08
2.4463e-04,0.16,0.32
2.4847e-04,0.22,0.18
2.5231e-04,0.2,0.34
2.5615e-04,0.2,0.14
2.5999e-04,0.18,0.3
2.6383e-04,0.22,0.1
2.6767e-04,0.22,0.3
2.7151e-04,0.18,0.1
2.7535e-04,0.24,0.28
2.7919e-04,0.24,0.12
2.8303e-04,0.26,0.36
2.8687e-04,0.28,0.18
2.9071e-04,0.32,0.4
2.9455e-04,0.28,0.16
2.9839e-04,0.22,0.34
3.0223e-04,0.2,0.1
3.0607e-04,0.1,0.32
3.0991e-04,0.26,0.18
3.1375e-04,0.26,0.36
3.1759e-04,0.24,0.08
3.2143e-04,0.18,0.3
3.2527e-04,0.28,0.22
3.2911e-04,0.36,0.44
3.3295e-04,0.4,0.14
3.3679e-04,0.26,0.42
3.4063e-04,0.16,0.1
3.4447e-04,0.16,0.3
3.4831e-04,0.2,0.14
3.5215e-04,0.16,0.34
3.5599e-04,0.24,0.12
3.5983e-04,0.18,0.34
3.6367e-04,0.2,0.06
3.6751e-04,0.14,0.28
3.7135e-04,0.22,0.06
3.7520e-04,0.24,0.28
3.7904e-04,0.14,0.04
3.8288e-04,0.14,0.22
3.8672e-04,0.2,0.08
3.9056e-04,0.14,0.24
3.9440e-04,0.1,0.04
3.9824e-04,0.12,0.2
4.0208e-04,0.1,0.02
4.0592e-04,0.08,0.18
4.0976e-04,0.08,0.02
4.1360e-04,0.16,0.22
4.1744e-04,0.14,-1.90735e-08
4.2128e-04,0.18,0.24
4.2512e-04,0.06,-1.90735e-08
4.2896e-04,0.2,0.26
4.3280e-04,0.16,-1.90735e-08
4.3664e-04,0.1,0.22
4.4048e-04,0.14,0.06
4.4432e-04,0.12,0.24
4.4816e-04,0.18,0.08
4.5200e-04,0.16,0.26
4.5584e-04,0.08,0.08
4.5968e-04,0.14,0.24
4.6352e-04,0.18,0.12
4.6736e-04,0.2,0.28
4.7120e-04,0.18,-0.06
4.7504e-04,0.14,0.24
4.7888e-04,0.04,-0.06
4.8272e-04,0.14,0.16
4.8656e-04,0.06,-0.12
4.9040e-04,-1.90735e-08,0.12
4.9424e-04,-0.02,-0.12
4.9808e-04,-0.08,0.14
5.0192e-04,0.06,-0.02
5.0576e-04,0.08,0.22
5.0960e-04,0.02,-0.1
5.1344e-04,-0.04,0.2
5.1728e-04,0.18,0.06
5.2112e-04,0.16,0.2
5.2496e-04,0.16,-0.04
5.2880e-04,0.08,0.18
5.3265e-04,0.12,-1.90735e-08
5.3649e-04,0.14,0.22
5.4033e-04,0.04,-0.08
5.4417e-04,-0.04,0.14
5.4801e-04,0.08,-1.90735e-08
5.5185e-04,0.12,0.22
5.5569e-04,0.02,-0.06
5.5953e-04,-0.02,0.12
5.6337e-04,0.08,-1.90735e-08
5.6721e-04,0.1,0.18
5.7105e-04,0.08,-0.1
5.7489e-04,0.08,0.16
5.7873e-04,-1.90735e-08,-0.12
5.8257e-04,-0.04,0.08
5.8641e-04,0.02,-0.1
5.9025e-04,-0.02,0.08
5.9409e-04,-0.02,-0.12
5.9793e-04,-0.08,0.06
6.0177e-04,-0.1,-0.14
6.0561e-04,-1.90735e-08,0.1
6.0945e-04,-0.1,-0.2
6.1329e-04,-0.1,-1.90735e-08
6.1713e-04,-0.04,-0.16
6.2097e-04,-0.04,-1.90735e-08
6.2481e-04,-0.02,-0.1
6.2865e-04,0.02,0.12
6.3249e-04,0.08,-0.08
6.3633e-04,0.06,0.16
6.4017e-04,-0.08,-0.2
6.4401e-04,-0.12,-1.90735e-08
6.4785e-04,-0.18,-0.22
6.5169e-04,-0.12,0.02
6.5553e-04,-0.08,-0.3
6.5937e-04,-0.14,-1.90735e-08
6.6321e-04,-0.18,-0.24
6.6705e-04,-0.08,-1.90735e-08
6.7089e-04,-0.06,-0.28
6.7473e-04,-0.1,-0.02
6.7857e-04,-0.2,-0.32
6.8241e-04,-0.22,-0.06
6.8625e-04,-0.18,-0.34
6.9010e-04,-0.24,-0.12
6.9394e-04,-0.28,-0.3
6.9778e-04,-0.08,0.02
7.0162e-04,-0.12,-0.22
7.0546e-04,-0.14,-0.06
7.0930e-04,-0.12,-0.26
7.1314e-04,-0.14,0.02
7.1698e-04,-0.18,-0.26
7.2082e-04,-0.1,-1.90735e-08
7.2466e-04,-0.1,-0.28
7.2850e-04,-0.2,-0.06
7.3234e-04,-0.16,-0.22
7.3618e-04,-0.1,-1.90735e-08
7.4002e-04,-0.1,-0.22
7.4386e-04,-0.16,-1.90735e-08
7.4770e-04,-0.12,-0.3
7.5154e-04,-0.16,-0.04
7.5538e-04,-0.2,-0.26
7.5922e-04,-0.08,-1.90735e-08
7.6306e-04,-0.02,-0.24
7.6690e-04,-0.1,0.02
7.7074e-04,-0.1,-0.42
7.7458e-04,-0.26,-0.08
7.7842e-04,-0.32,-0.38
7.8226e-04,-0.22,-0.16
7.8610e-04,-0.24,-0.3
7.8994e-04,-0.26,-0.16
7.9378e-04,-0.28,-0.38
7.9762e-04,-0.32,-0.16
8.0146e-04,-0.28,-0.32
8.0530e-04,-0.22,-0.08
8.0914e-04,-0.12,-0.22
8.1298e-04,-0.02,0.02
8.1682e-04,-0.16,-0.36
8.2066e-04,-0.22,-0.12
8.2450e-04,-0.28,-0.38
8.2834e-04,-0.24,-0.2
8.3218e-04,-0.22,-0.44
8.3602e-04,-0.32,-0.16
8.3986e-04,-0.32,-0.42
8.4371e-04,-0.36,-0.2
8.4755e-04,-0.26,-0.3
8.5139e-04,-0.18,-0.1
8.5523e-04,-0.18,-0.42
8.5907e-04,-0.36,-0.16
8.6291e-04,-0.34,-0.42
8.6675e-04,-0.26,-0.24
8.7059e-04,-0.32,-0.42
8.7443e-04,-0.22,-0.2
8.7827e-04,-0.32,-0.42
8.8211e-04,-0.3,-0.24
8.8595e-04,-0.36,-0.42
8.8979e-04,-0.36,-0.2
8.9363e-04,-0.36,-0.38
8.9747e-04,-0.28,-0.18
9.0131e-04,-0.34,-0.4
9.0515e-04,-0.36,-0.22
9.0899e-04,-0.24,-0.4
9.1283e-04,-0.32,-0.2
9.1667e-04,-0.32,-0.48
9.2051e-04,-0.34,-0.3
9.2435e-04,-0.3,-0.44
9.2819e-04,-0.32,-0.22
9.3203e-04,-0.3,-0.46
9.3587e-04,-0.4,-0.2
9.3971e-04,-0.4,-0.46
9.4355e-04,-0.38,-0.28
9.4739e-04,-0.44,-0.5
9.5123e-04,-0.38,-0.28
9.5507e-04,-0.36,-0.48
9.5891e-04,-0.4,-0.28
9.6275e-04,-0.38,-0.54
9.6659e-04,-0.4,-0.32
9.7043e-04,-0.36,-0.46
9.7427e-04,-0.36,-0.26
9.7811e-04,-0.42,-0.52
9.8195e-04,-0.44,-0.3
9.8579e-04,-0.44,-0.58
9.8963e-04,-0.52,-0.36
9.9347e-04,-0.48,-0.56
9.9731e-04,-0.48,-0.36
1.0012e-03,-0.54,-0.56
1.0050e-03,-0.44,-0.38
1.0088e-03,-0.44,-0.58
1.0127e-03,-0.5,-0.4
1.0165e-03,-0.44,-0.56
1.0204e-03,-0.46,-0.34
1.0242e-03,-0.34,-0.52
1.0280e-03,-0.46,-0.28
1.0319e-03,-0.36,-0.58
1.0357e-03,-0.52,-0.3
1.0396e-03,-0.56,-0.64
1.0434e-03,-0.46,-0.32
1.0472e-03,-0.36,-0.46
1.0511e-03,-0.38,-0.28
1.0549e-03,-0.42,-0.68
1.0588e-03,-0.6,-0.38
1.0626e-03,-0.5,-0.68
1.0664e-03,-0.56,-0.5
1.0703e-03,-0.6,-0.68
1.0741e-03,-0.6,-0.38
1.0780e-03,-0.44,-0.58
1.0818e-03,-0.54,-0.38
1.0856e-03,-0.42,-0.56
1.0895e-03,-0.48,-0.3
1.0933e-03,-0.52,-0.56
1.0972e-03,-0.5,-0.4
1.1010e-03,-0.48,-0.66
1.1048e-03,-0.56,-0.42
1.1087e-03,-0.6,-0.68
1.1125e-03,-0.56,-0.44
1.1164e-03,-0.52,-0.66
1.1202e-03,-0.54,-0.5
1.1240e-03,-0.6,-0.74
1.1279e-03,-0.68,-0.56
1.1317e-03,-0.68,-0.7
1.1356e-03,-0.6,-0.42
1.1394e-03,-0.48,-0.56
1.1432e-03,-0.52,-0.4
1.1471e-03,-0.58,-0.64
1.1509e-03,-0.56,-0.46
1.1548e-03,-0.52,-0.6
1.1586e-03,-0.5,-0.44
1.1624e-03,-0.5,-0.64
1.1663e-03,-0.54,-0.48
1.1701e-03,-0.54,-0.66
1.1740e-03,-0.58,-0.48
1.1778e-03,-0.52,-0.66
1.1816e-03,-0.48,-0.42
1.1855e-03,-0.62,-0.78
1.1893e-03,-0.7,-0.54
1.1932e-03,-0.72,-0.78
1.1970e-03,-0.58,-0.48
1.2008e-03,-0.58,-0.66
1.2047e-03,-0.52,-0.42
1.2085e-03,-0.56,-0.78
1.2124e-03,-0.66,-0.56
1.2162e-03,-0.62,-0.76
1.2200e-03,-0.58,-0.54
1.2239e-03,-0.62,-0.68
1.2277e-03,-0.54,-0.48
1.2316e-03,-0.66,-0.76
1.2354e-03,-0.68,-0.56
1.2393e-03,-0.72,-0.8
1.2431e-03,-0.78,-0.58
